
1	0.003671
1	0.003023
1	0.070366
1	0.011280
1	0.060522
1	0.047554
1	0.037252
1	0.051370
1	0.008731
1	0.076541
1	0.413836
1	-0.001541
1	0.109589
1	0.066363
1	-0.013256
1	0.010456
1	0.156324
1	0.037108
1	0.005113
1	0.027994
1	-0.003137
1	0.048588
1	-0.008649
1	-0.001069
1	0.016813
1	0.014374
1	0.035606
1	0.019187
1	0.009903
1	-0.003691