0	70
0	70
0	70
0	70
0	70
0	70
0	70
0	70
0	70
0	70
0	70
0	70
0	70
0	70
0	70
0	70
0	70
0	70
0	70
0	70
0	70
0	70
0	70
0	70
0	70
0	70
0	70
0	70
0	70
0	70
0	70
0	70
0	70
0	70
0	70
0	70
0	70
0	70
0	70
0	70
0	70
0	70
0	70
0	70
0	70
0	70
0	70
0	70
0	70
0	70
0	70
0	72
0	98
0	156
0	214
0	266
0	314
0	353
0	379
0	397
0	419
0	454
0	501
0	551
0	594
0	633
0	666
0	688
0	708
0	731
0	760
0	794
0	825
0	846
0	860
0	871
0	882
0	899
0	917
0	927
0	932
0	935
0	942
0	951
0	960
0	967
0	970
0	975
0	983
0	991
0	1003
0	1012
0	1020
0	1029
0	1040
0	1047
0	1051
0	1057
0	1068
0	1081
0	1089
0	1093
0	1099
0	1105
0	1113
0	1117
0	1118
0	1119
0	1119
0	1118
0	1119
0	1119
0	1119
0	1119
0	1119
0	1118
0	1117
0	1117
0	1114
0	1098
0	1047
0	955
0	834
0	699
0	563
0	435
0	312
0	191
0	102
0	71
1	70
1	70
1	70
1	70
1	70
1	70
1	70
1	70
1	70
1	70
1	70
1	70
1	74
1	112
1	178
1	244
1	307
1	369
1	432
1	494
1	554
1	612
1	663
1	696
1	714
1	728
1	741
1	751
1	755
1	754
1	746
1	706
1	608
1	462
1	301
1	156
1	81
1	70
2	70
2	70
2	70
2	70
2	70
2	70
2	70
2	70
2	70
2	71
2	97
2	159
2	229
2	292
2	353
2	407
2	455
2	500
2	541
2	577
2	609
2	636
2	659
2	679
2	697
2	723
2	756
2	796
2	832
2	863
2	891
2	912
2	928
2	942
2	953
2	961
2	968
2	972
2	978
2	987
2	995
2	1003
2	1010
2	1014
2	1018
2	1022
2	1026
2	1034
2	1041
2	1047
2	1053
2	1065
2	1080
2	1092
2	1103
2	1116
2	1127
2	1134
2	1139
2	1141
2	1141
2	1141
2	1140
2	1133
2	1093
2	1002
2	879
2	742
2	595
2	437
2	268
2	127
2	72
3	70
3	70
3	70
3	70
3	70
3	70
3	70
3	70
3	70
3	70
3	95
3	162
3	243
3	316
3	378
3	432
3	481
3	527
3	567
3	596
3	609
3	613
3	613
3	610
3	586
3	513
3	398
3	262
3	135
3	75
4	70
4	70
4	70
4	70
4	70
4	70
4	70
4	70
4	70
4	70
4	70
4	70
4	70
4	71
4	104
4	178
4	260
4	337
4	405
4	468
4	528
4	584
4	639
4	681
4	707
4	731
4	761
4	791
4	817
4	834
4	846
4	859
4	871
4	880
4	893
4	909
4	921
4	931
4	945
4	961
4	979
4	996
4	1010
4	1021
4	1034
4	1048
4	1064
4	1080
4	1089
4	1095
4	1100
4	1107
4	1115
4	1120
4	1120
4	1120
4	1120
4	1120
4	1120
4	1120
4	1120
4	1111
4	1065
4	958
4	800
4	613
4	419
4	230
4	103
4	70
5	70
5	70
5	70
5	1278
5	1278
5	1278
5	70
6	70
6	70
6	70
6	70
6	70
6	70
6	70
6	70
6	70
6	70
6	70
6	70
6	70
6	70
6	70
6	70
6	70
6	70
6	70
6	70
6	70
6	70
6	70
6	70
6	70
6	70
6	70
6	70
6	70
6	70
6	70
6	70
6	70
6	70
6	70
6	70
6	70
6	70
6	70
6	70
6	70
6	70
6	70
6	70
6	70
6	70
6	70
6	70
6	70
6	70
6	70
6	70
6	70
6	70
6	70
6	70
6	70
6	70
6	70
6	70
6	70
6	70
6	70
6	70
6	70
6	70
6	70
6	74
6	109
6	167
6	220
6	270
6	315
6	348
6	375
6	400
6	431
6	469
6	509
6	547
6	590
6	639
6	688
6	738
6	794
6	849
6	899
6	946
6	987
6	1014
6	1033
6	1055
6	1074
6	1084
6	1084
6	1084
6	1084
6	1086
6	1090
6	1091
6	1091
6	1091
6	1091
6	1091
6	1091
6	1093
6	1097
6	1103
6	1108
6	1112
6	1118
6	1127
6	1135
6	1144
6	1152
6	1155
6	1155
6	1154
6	1147
6	1117
6	1041
6	928
6	798
6	654
6	492
6	323
6	165
6	81
6	70
7	70
7	70
7	70
7	70
7	70
7	70
7	70
7	70
7	70
7	70
7	82
7	137
7	215
7	282
7	343
7	399
7	453
7	501
7	541
7	577
7	612
7	649
7	680
7	701
7	710
7	711
7	705
7	673
7	588
7	452
7	283
7	133
7	73
8	70
8	70
8	70
8	70
8	70
8	70
8	70
8	70
8	70
8	70
8	74
8	109
8	179
8	258
8	333
8	402
8	466
8	527
8	584
8	635
8	675
8	706
8	741
8	785
8	827
8	865
8	900
8	930
8	954
8	972
8	985
8	999
8	1012
8	1026
8	1047
8	1074
8	1095
8	1110
8	1123
8	1133
8	1139
8	1140
8	1139
8	1139
8	1138
8	1127
8	1075
8	968
8	820
8	638
8	437
8	241
8	108
8	70
9	70
9	70
9	70
9	70
9	70
9	70
9	70
9	70
9	70
9	70
9	70
9	70
9	70
9	70
9	70
9	70
9	70
9	70
9	70
9	70
9	70
9	70
9	70
9	70
9	70
9	70
9	70
9	70
9	70
9	70
9	70
9	70
9	70
9	70
9	70
9	70
9	70
9	70
9	70
9	70
9	70
9	70
9	70
9	70
9	70
9	70
9	70
9	70
9	70
9	70
9	70
9	70
9	70
9	70
9	70
9	70
9	70
9	70
9	70
9	70
9	70
9	70
9	70
9	70
9	70
9	70
9	70
9	70
9	70
9	70
9	70
9	70
9	70
9	70
9	70
9	70
9	70
9	70
9	70
9	70
9	70
9	70
9	70
9	70
9	70