0	70
0	70
0	70
0	70
0	70
0	70
0	70
0	70
0	70
0	70
0	70
0	70
0	70
0	70
0	70
0	70
0	70
0	70
0	70
0	71
0	70
0	70
0	70
0	70
0	70
0	70
0	70
0	70
0	70
0	70
0	70
0	70
0	70
0	70
0	70
0	70
0	70
0	70
0	70
0	70
0	70
0	70
0	70
0	70
0	70
0	70
0	70
0	70
0	70
0	70
0	70
0	70
0	70
0	70
0	70
0	70
0	70
0	70
0	70
0	70
0	70
0	70
0	70
0	70
0	70
0	70
0	70
0	70
0	70
0	70
0	70
0	70
0	70
0	70
0	70
0	70
0	70
0	70
0	70
0	71
0	70
0	70
0	70
0	70
0	71
0	71
0	71
0	71
0	70
0	70
0	70
0	70
0	71
0	71
0	70
0	70
0	70
0	70
0	71
0	71
0	71
0	71
0	73
0	73
0	72
0	71
0	70
0	71
0	72
0	71
0	71
0	72
0	73
0	72
0	71
0	71
0	71
0	70
0	70
0	70
0	70
0	70
0	70
0	71
0	71
0	70
0	70
0	70
0	70
0	70
0	71
0	72
0	73
0	75
0	76
0	76
0	76
0	77
0	77
0	77
0	77
0	77
0	78
0	80
0	83
0	85
0	86
0	86
0	87
0	89
0	92
0	93
0	95
0	100
0	105
0	109
0	113
0	117
0	127
0	156
0	210
0	282
0	371
0	458
0	500
0	503
0	500
0	514
0	554
0	619
0	689
0	754
0	803
0	825
0	840
0	861
0	883
0	906
0	931
0	965
0	995
0	1016
0	1040
0	1062
0	1078
0	1089
0	1100
0	1115
0	1114
0	1107
0	1097
0	1092
0	1102
0	1127
0	1178
0	1238
0	1278
0	1278
0	1152
0	864
0	425
0	137
0	83
0	78
0	75
1	73
1	71
1	70
1	70
1	70
1	70
1	70
1	70
1	70
1	70
1	71
1	72
1	73
1	75
1	77
1	77
1	78
1	78
1	80
1	83
1	85
1	86
1	86
1	86
1	88
1	92
1	94
1	94
1	96
1	99
1	102
1	105
1	107
1	111
1	117
1	130
1	165
1	220
1	271
1	304
1	321
1	334
1	345
1	359
1	374
1	392
1	416
1	438
1	455
1	471
1	488
1	503
1	523
1	551
1	573
1	594
1	620
1	643
1	663
1	691
1	726
1	751
1	759
1	762
1	771
1	784
1	798
1	820
1	847
1	872
1	895
1	915
1	928
1	939
1	948
1	953
1	961
1	979
1	1009
1	1043
1	1068
1	1088
1	1100
1	1094
1	1076
1	1075
1	1055
1	953
1	814
1	688
1	505
1	259
1	112
1	87
1	81
1	78
1	77
2	77
2	77
2	76
2	76
2	75
2	74
2	72
2	73
2	74
2	76
2	77
2	77
2	77
2	80
2	84
2	86
2	87
2	90
2	93
2	97
2	101
2	106
2	114
2	123
2	142
2	193
2	261
2	319
2	380
2	438
2	489
2	539
2	586
2	625
2	647
2	660
2	683
2	716
2	755
2	802
2	844
2	872
2	892
2	909
2	935
2	956
2	961
2	964
2	981
2	1003
2	1027
2	1055
2	1089
2	1118
2	1141
2	1146
2	1115
2	1029
2	757
2	341
2	110
2	83
2	79
2	77
3	75
3	72
3	70
3	70
3	70
3	71
3	70
3	70
3	71
3	72
3	73
3	75
3	76
3	78
3	81
3	84
3	86
3	87
3	89
3	91
3	93
3	95
3	99
3	102
3	104
3	107
3	113
3	120
3	141
3	186
3	238
3	298
3	339
3	365
3	400
3	425
3	444
3	467
3	492
3	520
3	561
3	601
3	621
3	633
3	651
3	672
3	692
3	720
3	751
3	778
3	812
3	837
3	847
3	862
3	881
3	906
3	930
3	960
3	994
3	1014
3	1038
3	1065
3	1072
3	1050
3	1028
3	1044
3	1084
3	1145
3	1215
3	1248
3	1236
3	1180
3	926
3	448
3	134
3	84
3	78
3	76
4	73
4	70
4	70
4	70
4	70
4	70
4	70
4	70
4	70
4	70
4	70
4	70
4	70
4	70
4	70
4	70
4	70
4	70
4	70
4	70
4	70
4	72
4	76
4	77
4	77
4	78
4	81
4	84
4	85
4	86
4	89
4	91
4	93
4	95
4	99
4	102
4	106
4	112
4	119
4	129
4	152
4	195
4	233
4	272
4	318
4	357
4	391
4	416
4	434
4	463
4	513
4	580
4	648
4	685
4	698
4	707
4	718
4	731
4	730
4	721
4	733
4	760
4	783
4	806
4	837
4	869
4	899
4	926
4	954
4	994
4	1023
4	1031
4	1048
4	1067
4	1081
4	1092
4	1105
4	1103
4	1073
4	1073
4	1103
4	1060
4	902
4	612
4	269
4	103
4	83
4	78
4	76
5	74
5	73
5	72
5	72
5	71
5	70
5	70
5	70
5	70
5	70
5	72
5	75
5	77
5	78
5	81
5	84
5	86
5	89
5	95
5	101
5	109
5	120
5	161
5	240
5	328
5	403
5	458
5	507
5	566
5	623
5	656
5	686
5	728
5	775
5	823
5	855
5	876
5	894
5	912
5	928
5	938
5	950
5	977
5	1014
5	1057
5	1117
5	1172
5	1199
5	1200
5	1175
5	1085
5	761
5	314
5	101
5	80
5	76
6	73
6	70
6	70
6	70
6	70
6	70
6	70
6	70
6	70
6	71
6	70
6	71
6	74
6	76
6	77
6	77
6	78
6	82
6	85
6	86
6	88
6	92
6	94
6	96
6	100
6	105
6	111
6	119
6	131
6	153
6	191
6	229
6	262
6	301
6	341
6	376
6	406
6	435
6	470
6	503
6	527
6	559
6	595
6	623
6	649
6	670
6	695
6	728
6	770
6	801
6	826
6	857
6	880
6	891
6	900
6	905
6	904
6	911
6	927
6	948
6	978
6	1017
6	1049
6	1067
6	1083
6	1099
6	1105
6	1108
6	1122
6	1108
6	973
6	669
6	336
6	145
6	90
6	82
6	78
6	76
7	75
7	74
7	73
7	72
7	71
7	71
7	71
7	71
7	73
7	74
7	75
7	77
7	77
7	77
7	78
7	80
7	84
7	85
7	88
7	92
7	96
7	100
7	106
7	115
7	132
7	162
7	199
7	247
7	297
7	338
7	386
7	432
7	478
7	520
7	551
7	572
7	591
7	628
7	667
7	693
7	715
7	744
7	778
7	807
7	836
7	857
7	870
7	886
7	899
7	907
7	924
7	945
7	970
7	1009
7	1048
7	1069
7	1088
7	1104
7	1089
7	1067
7	1048
7	996
7	878
7	581
7	240
7	99
7	83
7	78
7	76
8	76
8	74
8	73
8	73
8	71
8	71
8	71
8	71
8	74
8	75
8	75
8	77
8	77
8	79
8	83
8	88
8	93
8	100
8	108
8	118
8	144
8	199
8	280
8	378
8	477
8	581
8	676
8	734
8	776
8	811
8	853
8	897
8	927
8	950
8	977
8	1009
8	1034
8	1053
8	1074
8	1094
8	1112
8	1116
8	1061
8	895
8	655
8	369
8	155
8	96
8	86
8	80
8	77
9	75
9	72
9	70
9	70
9	70
9	70
9	70
9	70
9	70
9	70
9	70
9	71
9	72
9	74
9	76
9	77
9	79
9	82
9	84
9	86
9	90
9	93
9	97
9	104
9	114
9	144
9	203
9	279
9	351
9	432
9	514
9	576
9	634
9	707
9	800
9	898
9	993
9	1063
9	1101
9	1123
9	1133
9	1163
9	1200
9	1140
9	850
9	400
9	129
9	85
9	78
9	76
10	73
10	71
10	70
10	70
10	70
10	70
10	70
10	70
10	71
10	72
10	72
10	74
10	76
10	77
10	78
10	82
10	85
10	88
10	91
10	94
10	99
10	104
10	108
10	110
10	113
10	118
10	128
10	155
10	219
10	318
10	393
10	445
10	505
10	557
10	605
10	650
10	677
10	699
10	728
10	754
10	786
10	824
10	840
10	859
10	898
10	927
10	941
10	969
10	1007
10	1022
10	1037
10	1065
10	1083
10	1110
10	1131
10	1075
10	964
10	902
10	863
10	676
10	337
10	119
10	84
10	77
11	76
11	74
11	71
11	71
11	70
11	70
11	71
11	72
11	73
11	74
11	76
11	77
11	78
11	81
11	84
11	86
11	86
11	89
11	92
11	93
11	96
11	100
11	105
11	114
11	140
11	190
11	267
11	367
11	448
11	500
11	544
11	588
11	633
11	677
11	708
11	728
11	753
11	775
11	792
11	810
11	839
11	873
11	895
11	912
11	935
11	957
11	978
11	992
11	1012
11	1038
11	1058
11	1078
11	1081
11	1046
11	1017
11	1017
11	1011
11	1011
11	1024
11	1053
11	1118
11	1187
11	1176
11	1021
11	648
11	247
11	92
11	79
11	75
12	73
12	71
12	70
12	70
12	70
12	70
12	70
12	70
12	70
12	70
12	70
12	70
12	70
12	70
12	70
12	70
12	70
12	71
12	71
12	71
12	71
12	72
12	74
12	75
12	76
12	77
12	77
12	78
12	81
12	84
12	86
12	87
12	89
12	92
12	96
12	100
12	106
12	122
12	169
12	244
12	330
12	425
12	510
12	567
12	621
12	670
12	702
12	734
12	770
12	809
12	870
12	938
12	999
12	1051
12	1085
12	1102
12	1109
12	1102
12	996
12	726
12	362
12	133
12	85
12	79
12	77
13	76
13	75
13	73
13	71
13	71
13	72
13	72
13	72
13	71
13	72
13	71
13	73
13	74
13	75
13	76
13	77
13	78
13	79
13	83
13	86
13	90
13	94
13	98
13	107
13	119
13	143
13	195
13	267
13	335
13	405
13	470
13	518
13	566
13	606
13	639
13	688
13	740
13	774
13	807
13	845
13	880
13	928
13	966
13	978
13	994
13	1012
13	1027
13	1063
13	1131
13	1192
13	1227
13	1274
13	1269
13	1054
13	559
13	169
13	85
13	77
14	76
14	73
14	71
14	70
14	70
14	70
14	70
14	70
14	70
14	71
14	72
14	73
14	75
14	77
14	79
14	83
14	87
14	90
14	96
14	102
14	108
14	114
14	119
14	135
14	178
14	255
14	356
14	439
14	497
14	551
14	588
14	609
14	634
14	665
14	716
14	785
14	852
14	904
14	940
14	962
14	973
14	974
14	977
14	998
14	1031
14	1084
14	1149
14	1185
14	1174
14	1130
14	1056
14	839
14	424
14	133
14	83
14	78
14	75
15	73
15	74
15	76
15	76
15	76
15	76
15	74
15	73
15	74
15	75
15	76
15	77
15	80
15	83
15	85
15	87
15	91
15	95
15	99
15	104
15	110
15	117
15	131
15	158
15	213
15	287
15	369
15	453
15	516
15	563
15	621
15	687
15	748
15	800
15	839
15	875
15	921
15	961
15	982
15	1004
15	1040
15	1075
15	1096
15	1126
15	1152
15	1129
15	1089
15	1000
15	706
15	304
15	106
15	86
15	80
15	78
15	76
16	76
16	75
16	75
16	76
16	75
16	75
16	75
16	77
16	77
16	77
16	78
16	78
16	80
16	83
16	85
16	87
16	91
16	94
16	98
16	101
16	106
16	114
16	147
16	217
16	299
16	374
16	439
16	491
16	537
16	578
16	624
16	674
16	709
16	753
16	813
16	858
16	902
16	958
16	1005
16	1038
16	1071
16	1095
16	1115
16	1114
16	1008
16	705
16	322
16	120
16	88
16	82
16	78
16	76
17	75
17	76
17	76
17	74
17	74
17	76
17	75
17	75
17	75
17	75
17	77
17	78
17	80
17	83
17	85
17	87
17	91
17	95
17	99
17	104
17	109
17	115
17	142
17	230
17	353
17	456
17	535
17	607
17	660
17	690
17	717
17	737
17	759
17	797
17	858
17	940
17	1021
17	1060
17	1069
17	1074
17	1058
17	1000
17	891
17	816
17	903
17	1099
17	1246
17	1278
17	1278
17	1092
17	652
17	230
17	89
17	79
17	76
18	73
18	71
18	70
18	70
18	70
18	70
18	70
18	70
18	70
18	71
18	74
18	76
18	76
18	77
18	79
18	82
18	85
18	88
18	93
18	97
18	102
18	110
18	118
18	130
18	161
18	215
18	267
18	311
18	351
18	386
18	425
18	464
18	495
18	528
18	564
18	596
18	631
18	650
18	650
18	661
18	690
18	720
18	751
18	797
18	837
18	854
18	867
18	881
18	891
18	897
18	913
18	946
18	978
18	1009
18	1044
18	1066
18	1064
18	1061
18	1072
18	1083
18	1085
18	1090
18	1124
18	1145
18	1108
18	1077
18	1074
18	990
18	648
18	246
18	92
18	79
18	76
19	75
19	73
19	71
19	71
19	71
19	71
19	71
19	72
19	74
19	75
19	77
19	77
19	77
19	77
19	79
19	83
19	86
19	90
19	93
19	97
19	101
19	106
19	116
19	153
19	236
19	333
19	408
19	475
19	552
19	619
19	648
19	677
19	726
19	770
19	818
19	861
19	894
19	916
19	930
19	942
19	958
19	962
19	962
19	985
19	1029
19	1054
19	1081
19	1122
19	1134
19	1123
19	1091
19	953
19	595
19	224
19	90
19	80
19	76
20	74
20	73
20	71
20	71
20	72
20	71
20	71
20	71
20	72
20	72
20	72
20	72
20	73
20	76
20	77
20	78
20	80
20	82
20	86
20	89
20	92
20	94
20	98
20	102
20	106
20	111
20	121
20	153
20	206
20	258
20	304
20	349
20	393
20	430
20	470
20	526
20	581
20	627
20	686
20	762
20	813
20	829
20	832
20	835
20	841
20	834
20	833
20	861
20	895
20	939
20	989
20	1021
20	1039
20	1048
20	1062
20	1070
20	1025
20	948
20	907
20	944
20	1012
20	1043
20	1056
20	1068
20	1046
20	954
20	812
20	758
20	844
20	954
20	1003
20	1023
20	1045
20	1046
20	1005
20	854
20	616
20	544
20	742
20	997
20	1147
20	1170
20	1087
20	952
20	772
20	460
20	176
20	88
20	79
20	76
21	74
21	72
21	70
21	70
21	70
21	70
21	70
21	70
21	70
21	70
21	70
21	70
21	70
21	70
21	70
21	71
21	73
21	73
21	73
21	73
21	75
21	76
21	77
21	77
21	77
21	80
21	84
21	87
21	92
21	96
21	101
21	107
21	117
21	140
21	202
21	297
21	379
21	428
21	476
21	531
21	586
21	648
21	703
21	754
21	812
21	887
21	951
21	969
21	974
21	990
21	1010
21	1030
21	1066
21	1125
21	1174
21	1183
21	1182
21	1103
21	782
21	337
21	107
21	81
21	76
22	74
22	71
22	71
22	71
22	72
22	71
22	71
22	72
22	71
22	72
22	72
22	74
22	77
22	78
22	81
22	87
22	93
22	101
22	112
22	145
22	218
22	306
22	375
22	434
22	496
22	561
22	606
22	640
22	691
22	743
22	790
22	840
22	889
22	933
22	978
22	1024
22	1055
22	1073
22	1079
22	1080
22	1092
22	1061
22	995
22	1014
22	1124
22	1177
22	1083
22	828
22	433
22	154
22	89
22	80
22	76
23	74
23	72
23	71
23	71
23	70
23	70
23	70
23	70
23	70
23	70
23	70
23	72
23	74
23	76
23	77
23	81
23	87
23	93
23	100
23	107
23	120
23	157
23	233
23	326
23	413
23	487
23	538
23	580
23	624
23	659
23	700
23	761
23	829
23	877
23	914
23	954
23	982
23	1010
23	1034
23	1054
23	1091
23	1134
23	1171
23	1174
23	1124
23	1044
23	820
23	399
23	123
23	82
23	77
24	75
24	73
24	72
24	71
24	71
24	71
24	71
24	71
24	71
24	72
24	72
24	71
24	72
24	75
24	76
24	77
24	82
24	86
24	90
24	95
24	99
24	105
24	112
24	131
24	191
24	271
24	356
24	448
24	527
24	608
24	692
24	779
24	888
24	998
24	1079
24	1138
24	1182
24	1201
24	1173
24	1115
24	926
24	502
24	165
24	86
24	78
24	76
25	73
25	71
25	70
25	70
25	71
25	70
25	70
25	71
25	72
25	72
25	74
25	76
25	77
25	77
25	78
25	81
25	84
25	86
25	90
25	96
25	101
25	104
25	108
25	113
25	118
25	130
25	156
25	195
25	237
25	283
25	331
25	353
25	364
25	390
25	427
25	488
25	537
25	559
25	567
25	574
25	598
25	609
25	617
25	628
25	659
25	704
25	750
25	797
25	834
25	859
25	871
25	888
25	904
25	915
25	940
25	976
25	1002
25	1019
25	1038
25	1039
25	1035
25	1038
25	1012
25	916
25	804
25	819
25	931
25	1013
25	1090
25	1176
25	1214
25	1210
25	1130
25	840
25	388
25	118
25	80
25	76
26	74
26	73
26	72
26	70
26	71
26	71
26	72
26	73
26	74
26	76
26	78
26	81
26	84
26	85
26	88
26	91
26	92
26	95
26	99
26	102
26	106
26	113
26	131
26	164
26	228
26	306
26	384
26	456
26	501
26	553
26	608
26	657
26	718
26	774
26	821
26	872
26	932
26	984
26	1019
26	1042
26	1074
26	1098
26	1091
26	1029
26	882
26	785
26	781
26	700
26	440
26	177
26	89
26	80
26	77
27	75
27	75
27	74
27	75
27	76
27	76
27	77
27	77
27	77
27	77
27	78
27	82
27	85
27	89
27	93
27	99
27	107
27	116
27	138
27	190
27	255
27	330
27	398
27	454
27	515
27	564
27	609
27	659
27	706
27	737
27	766
27	806
27	850
27	898
27	941
27	985
27	1025
27	1052
27	1076
27	1099
27	1119
27	1149
27	1179
27	1201
27	1206
27	1088
27	723
27	292
27	99
27	80
27	76
28	74
28	73
28	73
28	73
28	74
28	76
28	76
28	77
28	78
28	82
28	85
28	89
28	95
28	102
28	113
28	139
28	194
28	265
28	324
28	368
28	416
28	468
28	514
28	551
28	582
28	608
28	638
28	670
28	700
28	725
28	754
28	790
28	812
28	828
28	848
28	865
28	872
28	887
28	908
28	920
28	937
28	964
28	986
28	1000
28	1012
28	1026
28	1054
28	1077
28	1074
28	1077
28	1098
28	1101
28	1101
28	1120
28	1135
28	1091
28	959
28	822
28	737
28	582
28	301
28	117
28	85
28	79
28	77
29	76
29	76
29	76
29	73
29	73
29	72
29	72
29	73
29	74
29	75
29	77
29	78
29	81
29	84
29	86
29	90
29	93
29	96
29	100
29	104
29	108
29	117
29	144
29	201
29	267
29	331
29	391
29	455
29	522
29	570
29	612
29	649
29	686
29	747
29	810
29	855
29	887
29	909
29	935
29	961
29	984
29	1008
29	1042
29	1076
29	1088
29	1099
29	1118
29	1122
29	1126
29	1108
29	973
29	708
29	371
29	145
29	92
29	83
29	79
29	77