0	70
0	70
0	70
0	70
0	70
0	70
0	70
0	70
0	70
0	70
0	70
0	70
0	70
0	70
0	70
0	70
0	70
0	70
0	70
0	70
0	70
0	70
0	70
0	70
0	70
0	70
0	70
0	70
0	70
0	70
0	70
0	70
0	70
0	70
0	70
0	70
0	70
0	70
0	75
0	117
0	202
0	292
0	366
0	423
0	470
0	514
0	570
0	627
0	668
0	693
0	718
0	746
0	775
0	797
0	817
0	840
0	865
0	890
0	915
0	941
0	969
0	997
0	1016
0	1028
0	1038
0	1045
0	1051
0	1061
0	1076
0	1089
0	1099
0	1107
0	1116
0	1123
0	1126
0	1125
0	1124
0	1104
0	1031
0	894
0	700
0	472
0	249
0	107
0	70
1	70
1	70
1	70
1	70
1	70
1	70
1	70
1	100
1	196
1	313
1	406
1	491
1	572
1	647
1	712
1	770
1	822
1	864
1	901
1	937
1	966
1	989
1	1008
1	1029
1	1051
1	1073
1	1089
1	1100
1	1111
1	1123
1	1131
1	1134
1	1136
1	1135
1	1122
1	1074
1	976
1	832
1	651
1	459
1	281
1	139
1	76
2	70
2	70
2	70
2	70
2	70
2	70
2	70
2	72
2	119
2	226
2	341
2	434
2	519
2	600
2	671
2	732
2	791
2	847
2	897
2	945
2	988
2	1024
2	1058
2	1092
2	1118
2	1132
2	1137
2	1139
2	1139
2	1138
2	1131
2	1093
2	991
2	816
2	595
2	377
2	198
2	95
2	70
3	70
3	70
3	70
3	70
3	70
3	70
3	70
3	70
3	70
3	70
3	70
3	84
3	144
3	226
3	297
3	359
3	413
3	468
3	526
3	581
3	637
3	689
3	738
3	787
3	829
3	857
3	875
3	892
3	911
3	931
3	953
3	975
3	994
3	1009
3	1021
3	1034
3	1047
3	1062
3	1080
3	1091
3	1098
3	1110
3	1121
3	1126
3	1127
3	1127
3	1121
3	1084
3	979
3	804
3	589
3	367
3	178
3	83
3	70
4	70
4	70
4	70
4	70
4	70
4	70
4	70
4	70
4	70
4	70
4	70
4	70
4	70
4	81
4	144
4	245
4	334
4	404
4	471
4	543
4	620
4	689
4	745
4	792
4	834
4	867
4	894
4	917
4	937
4	962
4	985
4	1002
4	1015
4	1028
4	1045
4	1066
4	1085
4	1093
4	1099
4	1109
4	1122
4	1133
4	1140
4	1143
4	1141
4	1127
4	1074
4	956
4	765
4	513
4	255
4	103
4	70
5	70
5	70
5	70
5	70
5	70
5	70
5	70
5	70
5	70
5	70
5	70
5	70
5	70
5	70
5	70
5	70
5	70
5	70
5	70
5	70
5	70
5	70
5	70
5	70
5	70
5	70
5	70
5	70
5	70
5	70
5	70
5	70
5	70
5	70
5	70
5	70
5	70
5	70
5	70
5	70
5	70
5	70
5	70
5	70
5	70
5	70
5	70
5	70
5	70
5	70
5	70
5	70
5	70
5	70
5	84
5	169
5	320
5	472
5	608
5	731
5	833
5	903
5	947
5	974
5	993
5	1008
5	1022
5	1041
5	1068
5	1092
5	1109
5	1126
5	1139
5	1144
5	1144
5	1141
5	1123
5	1064
5	947
5	786
5	590
5	373
5	177
5	80
6	70
6	70
6	70
6	70
6	70
6	70
6	72
6	150
6	364
6	618
6	814
6	953
6	1044
6	1089
6	1102
6	1102
6	1099
6	1083
6	1036
6	954
6	835
6	674
6	479
6	269
6	118
6	70
7	70
7	70
7	70
7	70
7	70
7	70
7	70
7	76
7	146
7	289
7	434
7	567
7	696
7	806
7	896
7	972
7	1023
7	1060
7	1099
7	1141
7	1197
7	1260
7	1278
7	1278
7	1278
7	1199
7	1017
7	736
7	402
7	151
7	71
8	70
8	70
8	70
8	70
8	70
8	101
8	247
8	482
8	703
8	876
8	996
8	1073
8	1103
8	1096
8	1040
8	909
8	703
8	457
8	228
8	97
8	70
9	70
9	70
9	70
9	70
9	70
9	70
9	91
9	216
9	437
9	657
9	849
9	1011
9	1127
9	1176
9	1169
9	1087
9	897
9	634
9	371
9	167
9	78
10	70
10	70
10	72
10	121
10	237
10	370
10	487
10	581
10	649
10	687
10	695
10	685
10	629
10	507
10	329
10	155
10	75
11	70
11	70
11	70
11	70
11	70
11	70
11	70
11	70
11	70
11	70
11	70
11	70
11	70
11	70
11	70
11	70
11	70
11	70
11	70
11	70
11	70
11	70
11	70
11	70
11	70
11	70
11	70
11	70
11	70
11	70
11	70
11	70
11	70
11	70
11	70
11	70
11	70
11	70
11	70
11	70
11	70
11	70
11	70
11	70
11	70
11	70
11	70
11	70
11	70
11	70
11	70
11	70
11	70
11	70
11	70
11	70
11	70
11	70
11	70
11	70
11	70
11	70
11	70
11	70
11	70