SVIPT Data File
Session: 
ID_Volunteer: 
Task: Linear[Home-1-Home-2-Home-3-Home-4-Home-5]
TaskRepetitions: 30
Sampling_Rate: 200.000000
Force_Unity: Volts
BaseLineForce_Val: 0.691813
MaxVoluntForce_Val: 2.538550
ConversionFunction: 0.000000X +0.000000 = Y
MaxForce_Percentage: 40
MinForce_Percentage: 1
TaskMaxForce_Percentage: 20
Limites de movimento do cursor: 90	1298
Cursor
Location: 70	272
Size: 40	68
Home
Location: 68	221
Size: 44	170
ForceSignal: 
1.250000
2.500000
3.750000
5.000000
6.250000
7.550000
8.800000
10.050000
11.350000
12.650000
13.950000
15.200000
16.450000
17.700000
18.950000
20.250000
21.500000
22.800000
24.100000
25.350000
25.400000
25.450000
25.450000
25.500000
25.550000
25.500000
25.500000
25.550000
25.500000
25.450000
25.450000
25.500000
25.500000
25.500000
25.500000
25.450000
25.450000
25.400000
25.400000
25.450000
25.400000
25.350000
25.350000
25.300000
25.300000
25.300000
25.300000
25.250000
25.250000
25.250000
25.250000
25.250000
25.250000
25.300000
25.350000
25.400000
25.400000
25.400000
25.350000
25.300000
25.350000
25.350000
25.350000
25.350000
25.350000
25.350000
25.350000
25.400000
25.450000
25.500000
25.450000
25.400000
25.400000
25.350000
25.300000
25.300000
25.300000
25.300000
25.300000
25.300000
25.300000
25.300000
25.350000
25.400000
25.400000
25.450000
25.450000
25.400000
25.350000
25.300000
25.300000
25.300000
25.350000
25.350000
25.350000
25.350000
25.350000
25.400000
25.450000
25.450000
25.400000
25.400000
25.350000
25.300000
25.250000
25.200000
25.200000
25.250000
25.250000
25.250000
25.300000
25.350000
25.350000
25.400000
25.450000
25.400000
25.400000
25.350000
25.300000
25.300000
25.350000
25.350000
25.350000
25.350000
25.350000
25.350000
25.350000
25.350000
25.400000
25.400000
25.350000
25.300000
25.250000
25.200000
25.200000
25.250000
25.250000
25.300000
25.300000
25.300000
25.300000
25.350000
25.350000
25.400000
25.400000
25.400000
25.400000
25.350000
25.300000
25.300000
25.300000
25.350000
25.350000
25.350000
25.350000
25.350000
25.400000
25.400000
25.450000
25.450000
25.400000
25.350000
25.350000
25.350000
25.350000
25.400000
25.400000
25.400000
25.450000
25.450000
25.450000
25.450000
25.500000
25.550000
25.500000
25.450000
25.400000
25.350000
25.300000
25.300000
25.300000
25.350000
25.350000
25.300000
25.300000
25.250000
25.250000
25.300000
25.300000
25.300000
25.300000
25.250000
25.200000
25.150000
25.150000
25.200000
25.200000
25.200000
25.250000
25.250000
25.300000
25.300000
25.350000
25.400000
25.400000
25.400000
25.400000
25.350000
25.300000
25.300000
25.350000
25.400000
25.400000
25.400000
25.400000
25.350000
25.350000
25.400000
25.350000
25.350000
25.300000
25.250000
25.250000
25.200000
25.200000
25.250000
25.250000
25.250000
25.250000
25.250000
25.200000
25.200000
25.250000
25.250000
25.250000
25.250000
25.250000
25.250000
25.300000
25.300000
25.350000
25.350000
25.300000
25.300000
25.300000
25.300000
25.300000
25.350000
25.400000
25.450000
25.500000
25.500000
25.500000
25.550000
25.650000
25.750000
25.850000
25.950000
26.050000
26.250000
26.400000
26.650000
26.950000
27.250000
27.550000
27.850000
28.250000
28.650000
29.100000
29.650000
30.250000
30.850000
31.500000
32.200000
32.900000
33.650000
34.450000
35.250000
36.100000
36.900000
37.750000
38.600000
39.450000
40.300000
41.250000
42.150000
43.050000
43.950000
44.800000
45.550000
46.300000
47.100000
47.900000
48.650000
49.400000
50.100000
50.750000
51.400000
52.100000
52.800000
53.500000
54.150000
54.750000
55.350000
55.850000
56.400000
56.900000
57.350000
57.850000
58.350000
58.850000
59.350000
59.800000
60.250000
60.650000
61.100000
61.600000
62.050000
62.400000
62.800000
63.150000
63.550000
64.000000
64.450000
64.900000
65.350000
65.800000
66.250000
66.650000
67.100000
67.550000
67.950000
68.350000
68.800000
69.300000
69.750000
70.150000
70.600000
71.050000
71.450000
71.850000
72.250000
72.600000
73.000000
73.400000
73.750000
74.150000
74.550000
74.950000
75.350000
75.700000
76.100000
76.550000
76.950000
77.300000
77.650000
78.050000
78.400000
78.750000
79.100000
79.500000
79.850000
80.200000
80.500000
80.850000
81.150000
81.450000
81.750000
82.050000
82.300000
82.600000
82.850000
83.050000
83.300000
83.550000
83.800000
84.000000
84.200000
84.450000
84.650000
84.850000
85.050000
85.250000
85.500000
85.650000
85.850000
86.050000
86.250000
86.450000
86.650000
86.800000
86.950000
87.100000
87.200000
87.350000
87.550000
87.750000
87.950000
88.100000
88.300000
88.500000
88.700000
88.900000
89.050000
89.250000
89.450000
89.600000
89.800000
89.950000
90.150000
90.350000
90.550000
90.800000
91.050000
91.250000
91.400000
91.550000
91.700000
91.900000
92.100000
92.300000
92.500000
92.700000
92.950000
93.200000
93.450000
93.700000
93.900000
94.150000
94.350000
94.550000
94.800000
95.000000
95.200000
95.450000
95.750000
96.100000
96.450000
96.800000
97.200000
97.550000
97.900000
98.250000
98.600000
98.950000
99.300000
99.600000
99.950000
100.300000
100.650000
101.000000
101.300000
101.600000
101.950000
102.250000
102.500000
102.700000
102.900000
103.050000
103.150000
103.300000
103.450000
103.600000
103.700000
103.800000
103.950000
104.150000
104.300000
104.450000
104.600000
104.800000
105.000000
105.200000
105.400000
105.600000
105.800000
106.000000
106.200000
106.450000
106.700000
106.900000
107.050000
107.250000
107.450000
107.650000
107.850000
108.050000
108.300000
108.550000
108.800000
109.050000
109.300000
109.600000
109.850000
110.150000
110.450000
110.750000
111.100000
111.400000
111.700000
112.000000
112.400000
112.750000
113.150000
113.550000
113.900000
114.300000
114.650000
115.000000
115.400000
115.750000
116.150000
116.500000
116.900000
117.300000
117.700000
118.100000
118.450000
118.850000
119.250000
119.700000
120.100000
120.500000
120.850000
121.200000
121.650000
122.050000
122.500000
122.950000
123.400000
123.850000
124.250000
124.650000
125.050000
125.350000
125.700000
126.050000
126.400000
126.700000
127.050000
127.350000
127.650000
127.950000
128.250000
128.550000
128.800000
129.050000
129.250000
129.500000
129.650000
129.850000
130.050000
130.250000
130.450000
130.700000
130.950000
131.200000
131.450000
131.700000
131.950000
132.200000
132.450000
132.700000
133.000000
133.300000
133.550000
133.800000
134.100000
134.350000
134.650000
134.900000
135.200000
135.500000
135.800000
136.100000
136.400000
136.700000
137.050000
137.400000
137.750000
138.100000
138.500000
138.900000
139.250000
139.600000
140.000000
140.400000
140.750000
141.100000
141.450000
141.800000
142.150000
142.500000
142.850000
143.150000
143.450000
143.700000
143.950000
144.250000
144.500000
144.750000
144.950000
145.200000
145.450000
145.750000
146.000000
146.250000
146.500000
146.750000
147.000000
147.300000
147.550000
147.800000
148.000000
148.250000
148.500000
148.800000
149.050000
149.250000
149.500000
149.750000
150.000000
150.200000
150.400000
150.550000
150.700000
150.850000
151.000000
151.150000
151.300000
151.400000
151.550000
151.700000
151.850000
151.950000
152.050000
152.100000
152.150000
152.250000
152.250000
152.250000
152.300000
152.350000
152.400000
152.450000
152.450000
152.500000
152.550000
152.600000
152.650000
152.700000
152.700000
152.650000
152.650000
152.700000
152.700000
152.700000
152.750000
152.700000
152.750000
152.800000
152.800000
152.800000
152.800000
152.800000
152.850000
152.850000
152.850000
152.850000
152.850000
152.850000
152.850000
152.900000
152.900000
152.900000
152.900000
153.000000
153.050000
153.200000
153.300000
153.400000
153.500000
153.600000
153.700000
153.800000
153.900000
154.000000
154.100000
154.250000
154.400000
154.550000
154.750000
154.950000
155.200000
155.400000
155.650000
155.900000
156.150000
156.350000
156.600000
156.850000
157.100000
157.350000
157.650000
157.900000
158.200000
158.550000
158.900000
159.250000
159.600000
159.950000
160.300000
160.700000
161.050000
161.450000
161.800000
162.150000
162.550000
163.000000
163.400000
163.850000
164.350000
164.900000
165.450000
166.050000
166.650000
167.150000
167.700000
168.200000
168.700000
169.200000
169.650000
170.100000
170.550000
171.000000
171.500000
171.950000
172.350000
172.750000
173.100000
173.450000
173.750000
174.000000
174.250000
174.550000
174.750000
175.000000
175.250000
175.500000
175.800000
176.100000
176.450000
176.700000
177.000000
177.250000
177.500000
177.750000
178.000000
178.250000
178.550000
178.800000
179.050000
179.300000
179.550000
179.750000
180.000000
180.250000
180.500000
180.750000
180.950000
181.200000
181.400000
181.650000
181.850000
182.100000
182.350000
182.600000
182.800000
183.000000
183.200000
183.400000
183.600000
183.800000
183.950000
184.100000
184.250000
184.400000
184.500000
184.600000
184.750000
184.800000
184.900000
185.000000
185.100000
185.200000
185.250000
185.300000
185.400000
185.450000
185.500000
185.550000
185.600000
185.650000
185.700000
185.750000
185.850000
185.900000
186.000000
186.050000
186.050000
186.150000
186.200000
186.250000
186.300000
186.350000
186.400000
186.450000
186.500000
186.550000
186.600000
186.650000
186.750000
186.850000
186.950000
187.050000
187.100000
187.200000
187.250000
187.350000
187.450000
187.500000
187.600000
187.650000
187.750000
187.800000
187.850000
187.900000
187.950000
188.050000
188.100000
188.200000
188.250000
188.300000
188.350000
188.450000
188.550000
188.650000
188.800000
188.950000
189.050000
189.200000
189.300000
189.450000
189.600000
189.800000
190.050000
190.300000
190.550000
190.750000
191.000000
191.250000
191.500000
191.750000
192.050000
192.300000
192.550000
192.850000
193.100000
193.350000
193.700000
194.050000
194.400000
194.750000
195.100000
195.500000
195.850000
196.200000
196.600000
197.050000
197.500000
197.900000
198.350000
198.800000
199.200000
199.600000
200.000000
200.350000
200.750000
201.150000
201.500000
201.800000
202.100000
202.450000
202.750000
203.000000
203.250000
203.500000
203.750000
203.900000
204.050000
204.250000
204.400000
204.500000
204.650000
204.800000
204.950000
205.100000
205.200000
205.300000
205.450000
205.550000
205.650000
205.750000
205.850000
205.950000
206.050000
206.150000
206.250000
206.400000
206.550000
206.650000
206.750000
206.900000
207.050000
207.200000
207.350000
207.500000
207.600000
207.750000
207.850000
208.000000
208.150000
208.250000
208.350000
208.500000
208.650000
208.800000
208.900000
209.000000
209.100000
209.200000
209.300000
209.400000
209.450000
209.550000
209.650000
209.750000
209.900000
210.000000
210.100000
210.200000
210.300000
210.450000
210.600000
210.700000
210.850000
210.950000
211.100000
211.250000
211.400000
211.600000
211.800000
212.000000
212.250000
212.400000
212.600000
212.800000
213.000000
213.200000
213.400000
213.600000
213.800000
213.950000
214.100000
214.250000
214.350000
214.500000
214.600000
214.700000
214.800000
214.850000
214.900000
214.950000
214.950000
215.050000
215.050000
215.050000
215.100000
215.150000
215.200000
215.250000
215.300000
215.400000
215.500000
215.550000
215.650000
215.700000
215.800000
215.850000
215.950000
216.050000
216.100000
216.200000
216.350000
216.400000
216.550000
216.700000
216.800000
216.850000
216.950000
217.050000
217.150000
217.200000
217.250000
217.400000
217.500000
217.600000
217.650000
217.800000
217.850000
217.950000
218.100000
218.200000
218.250000
218.350000
218.400000
218.450000
218.500000
218.600000
218.650000
218.750000
218.850000
218.950000
219.050000
219.150000
219.250000
219.400000
219.550000
219.700000
219.900000
220.000000
220.150000
220.300000
220.450000
220.600000
220.750000
220.950000
221.100000
221.300000
221.500000
221.700000
221.900000
222.050000
222.250000
222.400000
222.550000
222.750000
222.950000
223.100000
223.250000
223.450000
223.600000
223.800000
223.950000
224.150000
224.350000
224.500000
224.700000
224.850000
225.050000
225.200000
225.350000
225.550000
225.750000
225.950000
226.100000
226.250000
226.400000
226.550000
226.700000
226.850000
227.050000
227.150000
227.300000
227.450000
227.600000
227.700000
227.850000
228.050000
228.200000
228.350000
228.500000
228.650000
228.800000
228.950000
229.150000
229.300000
229.450000
229.600000
229.750000
229.900000
230.000000
230.150000
230.350000
230.450000
230.600000
230.750000
230.900000
231.000000
231.100000
231.200000
231.350000
231.450000
231.500000
231.550000
231.650000
231.700000
231.800000
231.900000
231.950000
232.050000
232.100000
232.200000
232.250000
232.350000
232.350000
232.400000
232.450000
232.450000
232.450000
232.500000
232.500000
232.550000
232.600000
232.650000
232.650000
232.650000
232.600000
232.600000
232.600000
232.550000
232.600000
232.600000
232.600000
232.600000
232.650000
232.700000
232.700000
232.750000
232.800000
232.850000
232.850000
232.850000
232.900000
232.900000
232.950000
233.050000
233.150000
233.150000
233.250000
233.350000
233.350000
233.400000
233.450000
233.500000
233.550000
233.550000
233.600000
233.650000
233.700000
233.650000
233.700000
233.700000
233.650000
233.650000
233.600000
233.600000
233.600000
233.600000
233.600000
233.600000
233.650000
233.650000
233.650000
233.600000
233.600000
233.600000
233.600000
233.600000
233.600000
233.650000
233.650000
233.650000
233.700000
233.750000
233.800000
233.800000
233.800000
233.850000
233.850000
233.800000
233.750000
233.700000
233.650000
233.700000
233.700000
233.700000
233.700000
233.700000
233.650000
233.600000
233.550000
233.550000
233.500000
233.450000
233.400000
233.350000
233.300000
233.250000
233.200000
233.200000
233.200000
233.200000
233.200000
233.150000
233.050000
233.000000
232.900000
232.800000
232.750000
232.650000
232.550000
232.450000
232.350000
232.250000
232.100000
231.950000
231.800000
231.650000
231.500000
231.300000
231.050000
230.800000
230.550000
230.250000
230.000000
229.650000
229.350000
229.050000
228.700000
228.350000
228.000000
227.600000
227.150000
226.700000
226.250000
225.800000
225.350000
224.850000
224.300000
223.750000
223.250000
222.700000
222.100000
221.550000
220.950000
220.450000
219.900000
219.250000
218.550000
217.900000
217.250000
216.550000
215.900000
215.200000
214.500000
213.750000
213.000000
212.300000
211.550000
210.800000
210.000000
209.200000
208.350000
207.450000
206.550000
205.600000
204.600000
203.600000
202.650000
201.650000
200.650000
199.650000
198.600000
197.550000
196.450000
195.350000
194.200000
192.950000
191.800000
190.650000
189.450000
188.250000
187.050000
185.800000
184.550000
183.250000
181.850000
180.500000
179.100000
177.650000
176.150000
174.700000
173.200000
171.650000
170.100000
168.500000
166.850000
165.200000
163.450000
161.700000
159.950000
158.150000
156.350000
154.550000
152.750000
151.000000
149.250000
147.450000
145.700000
143.950000
142.200000
140.400000
138.600000
136.800000
135.000000
133.200000
131.450000
129.700000
128.000000
126.250000
124.550000
122.900000
121.250000
119.650000
118.050000
116.450000
114.950000
113.500000
112.000000
110.450000
108.900000
107.400000
105.950000
104.500000
103.150000
101.850000
100.500000
99.200000
97.900000
96.650000
95.400000
94.150000
92.950000
91.800000
90.700000
89.600000
88.550000
87.500000
86.550000
85.750000
85.000000
84.300000
83.650000
83.100000
82.550000
82.050000
81.650000
81.300000
81.000000
80.750000
80.550000
80.400000
80.300000
80.200000
80.100000
80.050000
80.000000
80.000000
80.000000
80.000000
80.000000
80.000000
80.000000
80.000000
80.000000
80.000000
80.050000
80.100000
80.150000
80.250000
80.400000
80.550000
80.750000
80.950000
81.250000
81.600000
82.000000
82.450000
83.000000
83.600000
84.250000
85.000000
85.800000
86.650000
87.650000
88.750000
89.850000
90.950000
92.100000
93.300000
94.550000
95.850000
97.100000
98.450000
99.750000
101.100000
102.450000
103.850000
105.200000
106.600000
108.050000
109.450000
110.900000
112.400000
113.850000
115.250000
116.650000
118.100000
119.600000
121.050000
122.450000
123.850000
125.250000
126.600000
128.000000
129.350000
130.700000
132.000000
133.300000
134.500000
135.600000
136.700000
137.750000
138.750000
139.700000
140.600000
141.550000
142.450000
143.350000
144.200000
145.050000
145.850000
146.700000
147.550000
148.300000
149.050000
149.800000
150.550000
151.300000
152.050000
152.850000
153.600000
154.300000
155.000000
155.700000
156.400000
157.100000
157.800000
158.450000
159.100000
159.750000
160.400000
161.050000
161.700000
162.400000
163.100000
163.800000
164.450000
165.100000
165.800000
166.450000
167.150000
167.850000
168.550000
169.200000
169.900000
170.550000
171.200000
171.850000
172.550000
173.200000
173.850000
174.500000
175.100000
175.700000
176.250000
176.750000
177.300000
177.750000
178.200000
178.700000
179.150000
179.650000
180.100000
180.550000
180.950000
181.350000
181.750000
182.050000
182.350000
182.650000
182.950000
183.200000
183.450000
183.700000
183.950000
184.250000
184.500000
184.850000
185.150000
185.400000
185.700000
185.950000
186.200000
186.450000
186.750000
187.000000
187.250000
187.600000
187.900000
188.200000
188.500000
188.800000
189.100000
189.350000
189.650000
189.900000
190.150000
190.350000
190.550000
190.800000
190.950000
191.150000
191.350000
191.550000
191.700000
191.850000
192.050000
192.200000
192.350000
192.500000
192.650000
192.800000
192.950000
193.100000
193.200000
193.350000
193.450000
193.600000
193.750000
193.900000
194.050000
194.150000
194.300000
194.450000
194.600000
194.800000
194.950000
195.100000
195.300000
195.500000
195.700000
195.900000
196.150000
196.400000
196.650000
196.850000
197.150000
197.400000
197.700000
197.950000
198.300000
198.650000
198.950000
199.250000
199.600000
199.900000
200.250000
200.600000
200.900000
201.250000
201.600000
201.950000
202.250000
202.550000
202.900000
203.200000
203.500000
203.800000
204.050000
204.350000
204.600000
204.850000
205.100000
205.350000
205.550000
205.800000
206.000000
206.200000
206.400000
206.600000
206.750000
206.950000
207.150000
207.350000
207.500000
207.700000
207.900000
208.100000
208.300000
208.500000
208.700000
208.900000
209.100000
209.300000
209.550000
209.750000
209.950000
210.200000
210.450000
210.650000
210.900000
211.150000
211.400000
211.650000
211.950000
212.250000
212.500000
212.750000
213.000000
213.200000
213.400000
213.600000
213.850000
214.050000
214.200000
214.350000
214.550000
214.700000
214.850000
215.000000
215.150000
215.250000
215.350000
215.500000
215.600000
215.650000
215.750000
215.850000
215.950000
216.050000
216.150000
216.250000
216.300000
216.400000
216.500000
216.600000
216.650000
216.700000
216.800000
216.900000
217.000000
217.100000
217.200000
217.250000
217.300000
217.400000
217.450000
217.500000
217.550000
217.600000
217.650000
217.750000
217.800000
217.900000
218.000000
218.050000
218.100000
218.200000
218.250000
218.300000
218.350000
218.450000
218.550000
218.650000
218.750000
218.850000
219.000000
219.100000
219.250000
219.400000
219.550000
219.650000
219.800000
219.900000
220.000000
220.150000
220.300000
220.400000
220.500000
220.650000
220.750000
220.850000
220.950000
221.050000
221.150000
221.300000
221.400000
221.550000
221.650000
221.750000
221.850000
222.000000
222.200000
222.400000
222.600000
222.800000
223.000000
223.200000
223.400000
223.550000
223.800000
224.000000
224.200000
224.400000
224.600000
224.750000
224.850000
225.000000
225.150000
225.300000
225.450000
225.550000
225.600000
225.650000
225.700000
225.750000
225.800000
225.900000
226.000000
226.100000
226.150000
226.200000
226.300000
226.350000
226.400000
226.500000
226.600000
226.700000
226.800000
226.900000
227.000000
227.100000
227.200000
227.300000
227.450000
227.550000
227.650000
227.700000
227.800000
227.850000
227.900000
228.000000
228.050000
228.150000
228.250000
228.300000
228.400000
228.450000
228.500000
228.550000
228.650000
228.700000
228.750000
228.800000
228.800000
228.850000
228.950000
229.000000
229.000000
229.050000
229.100000
229.100000
229.150000
229.200000
229.200000
229.250000
229.300000
229.350000
229.400000
229.450000
229.450000
229.500000
229.500000
229.550000
229.600000
229.650000
229.650000
229.700000
229.750000
229.800000
229.850000
229.900000
229.900000
229.900000
229.950000
229.950000
230.000000
230.000000
230.050000
230.050000
230.050000
230.050000
230.100000
230.100000
230.150000
230.200000
230.200000
230.250000
230.250000
230.300000
230.300000
230.350000
230.400000
230.400000
230.450000
230.450000
230.400000
230.400000
230.350000
230.400000
230.450000
230.450000
230.500000
230.550000
230.550000
230.550000
230.550000
230.550000
230.600000
230.600000
230.650000
230.650000
230.650000
230.700000
230.700000
230.750000
230.800000
230.850000
230.900000
230.900000
230.900000
230.950000
230.950000
230.950000
230.950000
230.950000
231.000000
231.000000
231.000000
231.000000
231.000000
231.000000
231.000000
231.000000
231.000000
231.000000
231.000000
231.000000
231.000000
231.000000
231.000000
231.000000
231.050000
231.100000
231.150000
231.150000
231.200000
231.250000
231.300000
231.350000
231.400000
231.450000
231.500000
231.550000
231.600000
231.650000
231.650000
231.650000
231.700000
231.750000
231.800000
231.850000
231.850000
231.850000
231.850000
231.900000
231.900000
231.900000
231.900000
231.900000
231.900000
231.900000
231.900000
231.900000
231.950000
231.950000
232.000000
232.050000
232.050000
232.100000
232.100000
232.100000
232.100000
232.100000
232.100000
232.100000
232.100000
232.100000
232.100000
232.150000
232.150000
232.150000
232.150000
232.150000
232.100000
232.150000
232.150000
232.150000
232.150000
232.100000
232.100000
232.100000
232.100000
232.150000
232.200000
232.250000
232.250000
232.250000
232.250000
232.250000
232.300000
232.350000
232.400000
232.450000
232.500000
232.500000
232.550000
232.600000
232.650000
232.700000
232.750000
232.800000
232.850000
232.850000
232.850000
232.850000
232.900000
232.950000
233.000000
232.950000
232.950000
232.950000
232.950000
232.950000
232.950000
232.950000
232.950000
232.900000
232.900000
232.900000
232.900000
232.900000
232.850000
232.850000
232.850000
232.850000
232.850000
232.850000
232.850000
232.900000
232.900000
232.900000
232.900000
232.900000
232.900000
232.900000
232.900000
232.900000
232.900000
232.900000
232.850000
232.850000
232.900000
232.900000
232.900000
232.900000
232.900000
232.850000
232.800000
232.750000
232.700000
232.650000
232.600000
232.550000
232.500000
232.450000
232.400000
232.400000
232.350000
232.300000
232.300000
232.200000
232.100000
232.000000
231.900000
231.750000
231.600000
231.500000
231.350000
231.200000
231.000000
230.800000
230.600000
230.350000
230.050000
229.750000
229.450000
229.100000
228.700000
228.300000
227.900000
227.550000
227.150000
226.700000
226.250000
225.800000
225.350000
224.850000
224.350000
223.800000
223.300000
222.800000
222.250000
221.750000
221.250000
220.750000
220.200000
219.700000
219.200000
218.650000
218.050000
217.400000
216.800000
216.200000
215.550000
214.950000
214.300000
213.650000
213.050000
212.500000
211.900000
211.250000
210.600000
209.950000
209.300000
208.600000
207.900000
207.150000
206.400000
205.650000
204.900000
204.150000
203.350000
202.550000
201.750000
200.900000
200.050000
199.250000
198.400000
197.500000
196.600000
195.700000
194.850000
193.900000
193.000000
192.100000
191.200000
190.300000
189.450000
188.600000
187.800000
187.000000
186.200000
185.400000
184.600000
183.850000
183.100000
182.300000
181.500000
180.700000
179.950000
179.200000
178.400000
177.650000
176.900000
176.150000
175.400000
174.650000
173.850000
173.050000
172.250000
171.500000
170.750000
170.000000
169.200000
168.400000
167.650000
166.900000
166.200000
165.500000
164.800000
164.100000
163.400000
162.700000
162.000000
161.300000
160.600000
159.900000
159.200000
158.550000
157.850000
157.100000
156.350000
155.600000
154.900000
154.200000
153.450000
152.750000
152.000000
151.300000
150.550000
149.800000
149.100000
148.400000
147.700000
147.000000
146.350000
145.750000
145.150000
144.500000
143.850000
143.250000
142.650000
142.100000
141.600000
141.100000
140.650000
140.150000
139.700000
139.250000
138.850000
138.500000
138.100000
137.750000
137.400000
137.100000
136.800000
136.500000
136.250000
136.000000
135.850000
135.700000
135.600000
135.500000
135.400000
135.300000
135.200000
135.150000
135.100000
135.050000
135.000000
134.950000
134.950000
134.900000
134.850000
134.850000
134.850000
134.850000
134.850000
134.900000
134.850000
134.800000
134.800000
134.800000
134.750000
134.750000
134.750000
134.750000
134.750000
134.750000
134.750000
134.750000
134.750000
134.750000
134.800000
134.800000
134.800000
134.800000
134.800000
134.800000
134.850000
134.900000
134.900000
134.900000
134.950000
135.000000
135.050000
135.100000
135.150000
135.200000
135.300000
135.400000
135.500000
135.700000
135.850000
136.100000
136.400000
136.700000
137.050000
137.450000
137.900000
138.400000
138.900000
139.450000
140.050000
140.650000
141.350000
142.100000
142.900000
143.750000
144.550000
145.450000
146.350000
147.250000
148.250000
149.200000
150.150000
151.100000
152.050000
153.000000
153.950000
154.900000
155.900000
156.900000
157.900000
158.900000
159.900000
160.900000
161.900000
162.900000
163.950000
164.950000
165.950000
166.950000
167.900000
168.850000
169.800000
170.750000
171.700000
172.600000
173.500000
174.350000
175.200000
176.000000
176.750000
177.500000
178.200000
178.850000
179.450000
180.000000
180.550000
181.050000
181.600000
182.100000
182.600000
183.100000
183.550000
184.000000
184.450000
184.900000
185.350000
185.850000
186.300000
186.750000
187.200000
187.650000
188.100000
188.500000
188.950000
189.400000
189.850000
190.350000
190.800000
191.250000
191.700000
192.100000
192.500000
192.950000
193.350000
193.750000
194.100000
194.400000
194.750000
195.100000
195.450000
195.750000
196.050000
196.400000
196.750000
197.100000
197.450000
197.800000
198.100000
198.450000
198.750000
199.050000
199.400000
199.700000
200.000000
200.350000
200.650000
201.000000
201.300000
201.600000
201.950000
202.300000
202.550000
202.850000
203.100000
203.350000
203.550000
203.700000
203.900000
204.050000
204.200000
204.400000
204.550000
204.700000
204.850000
204.950000
205.100000
205.250000
205.400000
205.550000
205.650000
205.750000
205.900000
206.000000
206.150000
206.250000
206.400000
206.550000
206.700000
206.900000
207.100000
207.250000
207.400000
207.550000
207.700000
207.900000
208.100000
208.250000
208.450000
208.650000
208.850000
209.050000
209.250000
209.450000
209.600000
209.850000
210.050000
210.250000
210.450000
210.600000
210.800000
211.000000
211.200000
211.400000
211.650000
211.850000
212.100000
212.300000
212.500000
212.700000
212.900000
213.100000
213.300000
213.500000
213.700000
213.850000
214.000000
214.150000
214.300000
214.450000
214.550000
214.650000
214.800000
214.950000
215.050000
215.200000
215.250000
215.400000
215.500000
215.600000
215.700000
215.800000
215.900000
216.000000
216.100000
216.200000
216.300000
216.450000
216.600000
216.750000
216.900000
217.050000
217.150000
217.250000
217.350000
217.400000
217.500000
217.600000
217.700000
217.750000
217.850000
217.950000
218.050000
218.150000
218.250000
218.350000
218.450000
218.500000
218.550000
218.650000
218.700000
218.750000
218.850000
218.950000
219.050000
219.150000
219.300000
219.400000
219.500000
219.650000
219.750000
219.850000
219.950000
220.050000
220.200000
220.300000
220.400000
220.500000
220.600000
220.700000
220.850000
221.000000
221.100000
221.200000
221.350000
221.500000
221.600000
221.750000
221.900000
222.050000
222.200000
222.400000
222.600000
222.800000
222.950000
223.150000
223.400000
223.600000
223.850000
224.050000
224.250000
224.450000
224.650000
224.900000
225.100000
225.300000
225.500000
225.650000
225.800000
225.950000
226.100000
226.200000
226.350000
226.500000
226.650000
226.800000
226.900000
227.100000
227.250000
227.400000
227.550000
227.750000
227.900000
228.050000
228.200000
228.350000
228.500000
228.650000
228.850000
229.000000
229.150000
229.300000
229.450000
229.600000
229.750000
229.900000
230.050000
230.150000
230.250000
230.350000
230.450000
230.500000
230.600000
230.650000
230.700000
230.750000
230.800000
230.900000
230.950000
231.050000
231.100000
231.200000
231.250000
231.300000
231.350000
231.400000
231.450000
231.500000
231.550000
231.600000
231.650000
231.700000
231.750000
231.800000
231.850000
231.900000
231.950000
231.950000
232.000000
232.000000
232.050000
232.050000
232.050000
232.050000
232.100000
232.150000
232.150000
232.150000
232.150000
232.200000
232.200000
232.250000
232.250000
232.300000
232.350000
232.300000
232.300000
232.350000
232.350000
232.400000
232.400000
232.450000
232.500000
232.500000
232.450000
232.400000
232.400000
232.450000
232.500000
232.500000
232.550000
232.500000
232.550000
232.550000
232.500000
232.550000
232.550000
232.500000
232.500000
232.500000
232.500000
232.450000
232.400000
232.400000
232.400000
232.450000
232.450000
232.400000
232.350000
232.300000
232.250000
232.250000
232.250000
232.200000
232.250000
232.250000
232.250000
232.250000
232.250000
232.200000
232.200000
232.200000
232.250000
232.300000
232.300000
232.300000
232.300000
232.350000
232.350000
232.350000
232.350000
232.350000
232.300000
232.300000
232.250000
232.250000
232.250000
232.300000
232.250000
232.250000
232.300000
232.300000
232.300000
232.250000
232.300000
232.250000
232.250000
232.250000
232.250000
232.250000
232.250000
232.250000
232.300000
232.350000
232.350000
232.400000
232.400000
232.350000
232.350000
232.350000
232.300000
232.300000
232.250000
232.300000
232.250000
232.300000
232.300000
232.300000
232.300000
232.300000
232.300000
232.300000
232.250000
232.200000
232.200000
232.200000
232.200000
232.200000
232.200000
232.200000
232.200000
232.150000
232.150000
232.050000
232.000000
231.900000
231.850000
231.700000
231.600000
231.500000
231.350000
231.200000
231.050000
230.850000
230.650000
230.400000
230.150000
229.900000
229.600000
229.300000
228.950000
228.650000
228.300000
227.950000
227.550000
227.150000
226.700000
226.250000
225.750000
225.250000
224.800000
224.300000
223.750000
223.200000
222.650000
222.100000
221.500000
220.900000
220.300000
219.700000
219.100000
218.450000
217.750000
217.100000
216.450000
215.750000
215.100000
214.450000
213.800000
213.150000
212.450000
211.800000
211.150000
210.550000
209.900000
209.250000
208.650000
208.000000
207.350000
206.650000
205.950000
205.300000
204.650000
203.950000
203.250000
202.550000
201.800000
201.100000
200.400000
199.650000
198.900000
198.150000
197.400000
196.650000
195.900000
195.150000
194.400000
193.650000
192.900000
192.200000
191.500000
190.800000
190.100000
189.450000
188.800000
188.150000
187.550000
186.900000
186.300000
185.700000
185.150000
184.600000
184.050000
183.450000
182.850000
182.200000
181.600000
181.000000
180.450000
179.850000
179.250000
178.600000
178.000000
177.350000
176.700000
176.050000
175.400000
174.700000
173.950000
173.200000
172.450000
171.650000
170.850000
170.100000
169.350000
168.600000
167.850000
167.100000
166.350000
165.650000
164.950000
164.300000
163.550000
162.850000
162.150000
161.450000
160.700000
160.000000
159.300000
158.600000
157.900000
157.200000
156.450000
155.700000
154.950000
154.200000
153.450000
152.700000
151.950000
151.150000
150.350000
149.550000
148.800000
148.000000
147.250000
146.450000
145.650000
144.900000
144.150000
143.450000
142.700000
142.000000
141.350000
140.650000
140.000000
139.350000
138.650000
137.950000
137.250000
136.550000
135.850000
135.150000
134.450000
133.800000
133.150000
132.600000
132.050000
131.450000
130.900000
130.300000
129.700000
129.100000
128.500000
127.950000
127.400000
126.900000
126.400000
125.950000
125.500000
125.100000
124.750000
124.400000
124.100000
123.800000
123.450000
123.150000
122.850000
122.600000
122.350000
122.150000
122.000000
121.850000
121.800000
121.700000
121.650000
121.550000
121.550000
121.500000
121.450000
121.400000
121.350000
121.350000
121.350000
121.300000
121.300000
121.250000
121.250000
121.300000
121.350000
121.400000
121.450000
121.550000
121.600000
121.700000
121.750000
121.900000
122.000000
122.200000
122.450000
122.700000
123.000000
123.300000
123.600000
123.950000
124.350000
124.800000
125.300000
125.800000
126.300000
126.850000
127.450000
128.050000
128.700000
129.350000
130.050000
130.700000
131.400000
132.150000
132.900000
133.650000
134.400000
135.150000
135.950000
136.750000
137.550000
138.350000
139.100000
139.850000
140.600000
141.350000
142.100000
142.850000
143.600000
144.400000
145.200000
146.000000
146.750000
147.450000
148.100000
148.800000
149.500000
150.100000
150.750000
151.400000
152.050000
152.650000
153.250000
153.850000
154.500000
155.100000
155.650000
156.150000
156.650000
157.050000
157.450000
157.900000
158.350000
158.800000
159.250000
159.650000
160.050000
160.550000
160.950000
161.350000
161.750000
162.200000
162.650000
163.100000
163.500000
163.950000
164.450000
165.000000
165.500000
166.100000
166.650000
167.200000
167.750000
168.300000
168.800000
169.350000
169.900000
170.400000
170.950000
171.500000
172.000000
172.450000
172.900000
173.350000
173.850000
174.300000
174.700000
175.050000
175.400000
175.700000
176.050000
176.350000
176.650000
176.900000
177.200000
177.500000
177.700000
177.950000
178.100000
178.300000
178.550000
178.750000
178.950000
179.150000
179.300000
179.450000
179.600000
179.750000
179.900000
180.050000
180.150000
180.250000
180.400000
180.500000
180.650000
180.750000
180.900000
181.050000
181.250000
181.400000
181.550000
181.750000
181.950000
182.100000
182.250000
182.400000
182.550000
182.700000
182.900000
183.100000
183.300000
183.500000
183.650000
183.850000
184.050000
184.250000
184.500000
184.700000
184.950000
185.200000
185.450000
185.700000
185.950000
186.200000
186.500000
186.800000
187.100000
187.400000
187.700000
188.000000
188.300000
188.600000
188.950000
189.300000
189.600000
189.900000
190.200000
190.500000
190.750000
191.000000
191.250000
191.500000
191.750000
192.000000
192.200000
192.450000
192.750000
193.000000
193.250000
193.500000
193.800000
194.100000
194.350000
194.650000
194.950000
195.250000
195.550000
195.850000
196.200000
196.600000
196.950000
197.350000
197.750000
198.150000
198.550000
198.950000
199.300000
199.750000
200.150000
200.550000
200.950000
201.350000
201.800000
202.150000
202.550000
202.950000
203.350000
203.750000
204.100000
204.400000
204.700000
204.950000
205.250000
205.600000
205.900000
206.150000
206.450000
206.700000
206.950000
207.250000
207.550000
207.850000
208.100000
208.450000
208.750000
209.100000
209.350000
209.650000
210.000000
210.350000
210.750000
211.150000
211.500000
211.800000
212.200000
212.600000
212.950000
213.300000
213.700000
214.050000
214.350000
214.700000
215.000000
215.300000
215.600000
215.850000
216.150000
216.400000
216.600000
216.850000
217.050000
217.300000
217.550000
217.800000
218.000000
218.200000
218.450000
218.700000
218.900000
219.100000
219.300000
219.450000
219.650000
219.850000
220.000000
220.150000
220.350000
220.550000
220.750000
220.900000
221.050000
221.150000
221.300000
221.400000
221.550000
221.700000
221.800000
221.950000
222.100000
222.250000
222.400000
222.550000
222.700000
222.800000
223.000000
223.200000
223.300000
223.450000
223.600000
223.750000
223.900000
224.050000
224.150000
224.300000
224.400000
224.500000
224.600000
224.650000
224.750000
224.850000
224.950000
225.050000
225.150000
225.250000
225.300000
225.350000
225.450000
225.500000
225.550000
225.600000
225.700000
225.800000
225.900000
226.000000
226.100000
226.200000
226.300000
226.400000
226.500000
226.600000
226.700000
226.800000
226.900000
227.050000
227.150000
227.300000
227.450000
227.600000
227.750000
227.900000
228.000000
228.150000
228.300000
228.400000
228.550000
228.700000
228.850000
229.000000
229.100000
229.200000
229.300000
229.400000
229.500000
229.550000
229.650000
229.700000
229.750000
229.800000
229.850000
229.900000
229.950000
229.950000
229.950000
230.050000
230.100000
230.100000
230.100000
230.100000
230.100000
230.100000
230.100000
230.100000
230.100000
230.150000
230.150000
230.150000
230.150000
230.150000
230.200000
230.200000
230.200000
230.250000
230.250000
230.250000
230.200000
230.200000
230.200000
230.200000
230.250000
230.250000
230.300000
230.350000
230.350000
230.350000
230.400000
230.450000
230.500000
230.550000
230.550000
230.600000
230.650000
230.700000
230.750000
230.750000
230.850000
230.900000
230.950000
231.050000
231.100000
231.150000
231.200000
231.200000
231.300000
231.300000
231.350000
231.400000
231.450000
231.500000
231.550000
231.550000
231.600000
231.600000
231.650000
231.700000
231.700000
231.750000
231.800000
231.800000
231.800000
231.850000
231.850000
231.900000
231.900000
231.950000
231.950000
231.950000
231.950000
231.950000
232.000000
232.100000
232.100000
232.150000
232.150000
232.200000
232.200000
232.200000
232.200000
232.200000
232.200000
232.200000
232.200000
232.250000
232.300000
232.350000
232.350000
232.350000
232.350000
232.400000
232.350000
232.350000
232.400000
232.400000
232.400000
232.400000
232.400000
232.400000
232.450000
232.500000
232.500000
232.500000
232.550000
232.500000
232.450000
232.400000
232.400000
232.450000
232.450000
232.450000
232.450000
232.400000
232.400000
232.400000
232.450000
232.450000
232.500000
232.500000
232.450000
232.450000
232.450000
232.500000
232.450000
232.500000
232.550000
232.600000
232.600000
232.550000
232.600000
232.600000
232.600000
232.650000
232.650000
232.600000
232.550000
232.500000
232.500000
232.550000
232.600000
232.550000
232.550000
232.500000
232.500000
232.450000
232.450000
232.400000
232.400000
232.450000
232.400000
232.350000
232.350000
232.300000
232.300000
232.300000
232.300000
232.300000
232.250000
232.200000
232.150000
232.150000
232.150000
232.100000
232.050000
232.000000
231.850000
231.750000
231.650000
231.450000
231.250000
231.050000
230.800000
230.500000
230.150000
229.800000
229.400000
229.000000
228.550000
228.000000
227.450000
226.850000
226.200000
225.550000
224.850000
224.100000
223.350000
222.600000
221.700000
220.850000
220.000000
219.050000
218.100000
217.150000
216.150000
215.150000
214.150000
213.100000
212.000000
210.900000
209.750000
208.550000
207.350000
206.100000
204.850000
203.550000
202.300000
200.950000
199.650000
198.300000
196.950000
195.650000
194.300000
192.950000
191.600000
190.200000
188.800000
187.350000
185.900000
184.500000
183.000000
181.500000
179.950000
178.400000
176.850000
175.350000
173.700000
172.050000
170.350000
168.600000
166.800000
164.900000
163.000000
161.050000
159.000000
157.000000
154.950000
152.900000
150.850000
148.750000
146.700000
144.600000
142.500000
140.400000
138.250000
136.100000
134.000000
131.900000
129.900000
127.900000
125.900000
124.050000
122.200000
120.400000
118.700000
117.000000
115.350000
113.750000
112.150000
110.550000
109.000000
107.550000
106.150000
104.800000
103.500000
102.200000
101.000000
99.850000
98.700000
97.600000
96.550000
95.450000
94.400000
93.350000
92.300000
91.300000
90.300000
89.300000
88.350000
87.500000
86.650000
85.800000
84.950000
84.100000
83.250000
82.450000
81.600000
80.750000
79.900000
79.100000
78.300000
77.550000
76.800000
76.100000
75.400000
74.700000
74.050000
73.450000
72.850000
72.250000
71.700000
71.200000
70.750000
70.350000
70.000000
69.650000
69.350000
69.100000
68.900000
68.700000
68.550000
68.400000
68.300000
68.200000
68.150000
68.100000
68.050000
68.000000
68.000000
68.000000
68.000000
68.000000
68.000000
68.000000
68.000000
68.000000
68.000000
68.000000
68.000000
68.000000
68.000000
68.000000
68.000000
68.000000
68.000000
68.000000
68.000000
68.000000
68.000000
68.000000
68.000000
68.000000
68.000000
68.000000
68.000000
68.000000
68.000000
68.000000
68.000000
68.000000
68.000000
68.000000
68.000000
68.000000
68.000000
68.000000
68.000000
68.000000
68.000000
68.000000
68.000000
68.000000
68.000000
68.000000
68.000000
68.000000
68.000000
68.000000
68.000000
68.000000
68.000000
68.000000
68.000000
68.000000
68.000000
68.000000
68.000000
68.000000
68.000000
68.000000
68.000000
68.000000
68.000000
68.000000
68.000000
68.000000
68.000000
68.000000
68.000000
68.000000
68.000000
68.000000
68.000000
68.000000
68.000000
68.000000
68.000000
68.000000
68.000000
68.000000
68.000000
68.000000
68.000000
68.000000
68.000000
68.000000
68.000000
68.000000
68.000000
68.000000
68.000000
68.000000
68.000000
68.000000
68.000000
68.000000
68.000000
68.000000
68.000000
68.000000
68.000000
68.000000
68.000000
68.000000
68.000000
68.000000
68.000000
68.000000
68.000000
68.000000
68.000000
68.000000
68.000000
68.000000
68.000000
68.000000
68.000000
68.000000
68.000000
68.000000
68.000000
68.000000
68.000000
68.000000
68.000000
68.000000
68.000000
68.000000
68.000000
68.000000
68.000000
68.000000
68.000000
68.000000
68.000000
68.000000
68.000000
68.000000
68.000000
68.000000
68.000000
68.000000
68.000000
68.000000
68.000000
68.000000
68.000000
68.000000
68.000000
68.000000
68.000000
68.000000
68.000000
68.000000
68.000000
68.000000
68.000000
68.000000
68.000000
68.000000
68.000000
68.000000
68.000000
68.000000
68.000000
68.000000
68.000000
68.000000
68.000000
68.000000
68.000000
68.000000
68.000000
68.000000
68.000000
68.000000
68.000000
68.000000
68.000000
68.000000
68.000000
68.000000
68.000000
68.000000
68.000000
68.000000
68.000000
68.000000
68.000000
68.000000
68.000000
68.000000
68.000000
68.000000
68.000000
68.000000
68.000000
68.000000
68.000000
68.000000
68.000000
68.000000
68.000000
68.000000
68.000000
68.000000
68.000000
68.000000
68.000000
68.000000
68.000000
68.000000
68.000000
68.000000
68.000000
68.000000
68.000000
68.000000
68.000000
68.000000
68.000000
68.000000
68.000000
68.000000
68.000000
68.000000
68.000000
68.000000
68.000000
68.000000
68.000000
68.000000
68.000000
68.000000
68.000000
68.000000
68.000000
68.000000
68.000000
68.000000
68.000000
68.000000
68.000000
68.000000
68.000000
68.000000
68.000000
68.000000
68.000000
68.000000
68.000000
68.000000
68.000000
68.000000
68.000000
68.000000
68.000000
68.000000
68.000000
68.000000
68.000000
68.000000
68.000000
68.000000
68.000000
68.000000
68.000000
68.000000
68.000000
68.000000
68.000000
68.000000
68.000000
68.000000
68.000000
68.000000
68.000000
68.000000
68.000000
68.000000
68.000000
68.000000
68.000000
68.000000
68.000000
68.000000
68.000000
68.000000
68.000000
68.000000
68.000000
68.000000
68.000000
68.000000
68.000000
68.000000
68.000000
68.000000
68.000000
68.000000
68.000000
68.000000
68.000000
68.000000
68.000000
68.000000
68.000000
68.000000
68.000000
68.000000
68.000000
68.000000
68.000000
68.000000
68.000000
68.000000
68.000000
68.000000
68.000000
68.000000
68.000000
68.000000
68.000000
68.000000
68.000000
68.000000
68.000000
68.000000
68.000000
68.000000
68.000000
68.000000
68.050000
68.050000
68.050000
68.050000
68.050000
68.050000
68.050000
68.050000
68.050000
68.050000
68.050000
68.050000
68.050000
68.050000
68.050000
68.050000
68.050000
68.050000
68.050000
68.050000
68.000000
68.000000
68.000000
68.000000
68.000000
68.000000
68.000000
68.000000
68.000000
68.000000
68.000000
68.000000
68.000000
68.000000
68.000000
68.000000
68.000000
68.000000
68.000000
68.000000
68.000000
68.000000
68.000000
68.000000
68.000000
68.000000
68.000000
68.000000
68.000000
68.000000
68.000000
68.000000
68.000000
68.000000
68.000000
68.000000
68.000000
68.000000
68.000000
68.000000
68.000000
68.000000
68.000000
68.000000
68.000000
68.000000
68.000000
68.000000
68.000000
68.000000
68.000000
68.000000
68.000000
68.000000
68.000000
68.000000
68.000000
68.000000
68.000000
68.000000
68.000000
68.000000
68.000000
68.000000
68.000000
68.000000
68.000000
68.000000
68.000000
68.000000
68.000000
68.000000
68.000000
68.000000
68.000000
68.000000
68.000000
68.000000
68.000000
68.000000
68.000000
68.000000
68.000000
68.000000
68.000000
68.000000
68.000000
68.000000
68.000000
68.000000
68.000000
68.000000
68.000000
68.000000
68.000000
68.000000
68.000000
68.000000
68.000000
68.000000
68.000000
68.000000
68.000000
68.000000
68.000000
68.000000
68.000000
68.000000
68.000000
68.000000
68.000000
68.000000
68.000000
68.000000
68.000000
68.000000
68.000000
68.000000
68.000000
68.000000
68.000000
68.000000
68.000000
68.000000
68.000000
68.000000
68.000000
68.000000
68.000000
68.000000
68.000000
68.000000
68.000000
68.000000
68.000000
68.000000
68.000000
68.000000
68.000000
68.000000
68.000000
68.000000
68.000000
68.000000
68.000000
68.000000
68.000000
68.000000
68.000000
68.000000
68.000000
68.000000
68.000000
68.000000
68.000000
68.000000
68.000000
68.000000
68.000000
68.000000
68.000000
68.000000
68.000000
68.000000
68.000000
68.000000
68.000000
68.000000
68.000000
68.000000
68.000000
68.000000
68.000000
68.000000
68.000000
68.000000
68.000000
68.000000
68.000000
68.000000
68.000000
68.000000
68.000000
68.000000
68.000000
68.000000
68.000000
68.000000
68.000000
68.000000
68.000000
68.000000
68.000000
68.000000
68.000000
68.000000
68.000000
68.000000
68.000000
68.000000
68.000000
68.000000
68.000000
68.000000
68.000000
68.000000
68.000000
68.000000
68.000000
68.000000
68.000000
68.000000
68.000000
68.000000
68.000000
68.000000
68.000000
68.000000
68.000000
68.000000
68.000000
68.000000
68.000000
68.000000
68.000000
68.000000
68.000000
68.000000
68.000000
68.000000
68.000000
68.000000
68.000000
68.000000
68.000000
68.000000
68.000000
68.000000
68.000000
68.000000
68.000000
68.000000
68.000000
68.000000
68.000000
68.000000
68.000000
68.000000
68.000000
68.000000
68.000000
68.000000
68.000000
68.000000
68.000000
68.000000
68.000000
68.000000
68.000000
68.000000
68.000000
68.000000
68.000000
68.000000
68.000000
68.000000
68.000000
68.000000
68.000000
68.000000
68.000000
68.000000
Trigger para sinal de força
0
0
0
0
0
0
0
0
0
0
0
0
0
0
0
0
0
0
0
0
0
0
0
0
0
0
0
0
0
0
0
0
0
0
0
0
0
0
0
0
0
0
0
0
0
0
0
0
0
0
0
0
0
0
0
0
0
0
0
0
0
0
0
0
0
0
0
0
0
0
0
0
0
0
0
0
0
0
0
0
0
0
0
0
0
0
0
0
0
0
0
0
0
0
0
0
0
0
0
0
0
0
0
0
0
0
0
0
0
0
0
0
0
0
0
0
0
0
0
0
0
0
0
0
0
0
0
0
0
0
0
0
0
0
0
0
0
0
0
0
0
0
0
0
0
0
0
0
0
0
0
0
0
0
0
0
0
0
0
0
0
0
0
0
0
0
0
0
0
0
0
0
0
0
0
0
0
0
0
0
0
0
0
0
0
0
0
0
0
0
0
0
0
0
0
0
0
0
0
0
0
0
0
0
0
0
0
0
0
0
0
0
0
0
0
0
0
0
0
0
0
0
0
0
0
0
0
0
0
0
0
0
0
0
0
0
0
0
0
0
0
0
0
0
0
0
0
0
0
0
0
0
0
0
0
0
0
0
0
0
0
0
0
0
0
0
0
0
0
0
0
0
0
0
0
0
0
0
0
0
0
0
0
0
0
0
0
0
0
0
0
0
0
0
0
0
0
0
0
0
0
0
0
0
0
0
0
0
0
0
0
0
0
0
0
0
0
0
0
0
0
0
0
0
0
0
0
0
0
0
0
0
0
0
0
0
0
0
0
0
0
0
0
0
0
0
0
0
0
0
0
0
0
0
0
0
0
0
0
0
0
0
0
0
0
0
0
0
0
0
0
0
0
0
0
0
0
0
0
0
0
0
0
0
0
0
0
0
0
0
0
0
0
0
0
0
0
0
0
0
0
0
0
0
0
0
0
0
0
0
0
0
0
0
0
0
0
0
0
0
0
0
0
0
0
0
0
0
0
0
0
0
0
0
0
0
0
0
0
0
0
0
0
0
0
0
0
0
0
0
0
0
0
0
0
0
0
0
0
0
0
0
0
0
0
0
0
0
0
0
0
0
0
0
0
0
0
0
0
0
0
0
0
0
0
0
0
0
0
0
0
0
0
0
0
0
0
0
0
0
0
0
0
0
0
0
0
0
0
0
0
0
0
0
0
0
0
0
0
0
0
0
0
0
0
0
0
0
0
0
0
0
0
0
0
0
0
0
0
0
0
0
0
0
0
0
0
0
0
0
0
0
0
0
0
0
0
0
0
0
0
0
0
0
0
0
0
0
0
0
0
0
0
0
0
0
0
0
0
0
0
0
0
0
0
0
0
0
0
0
0
0
0
0
0
0
0
0
0
0
0
0
0
0
0
0
0
0
0
0
0
0
0
0
0
0
0
0
0
0
0
0
0
0
0
0
0
0
0
0
0
0
0
0
0
0
0
0
0
0
0
0
0
0
0
0
0
0
0
0
0
0
0
0
0
0
0
0
0
0
0
0
0
0
0
0
0
0
0
0
0
0
0
0
0
0
0
0
0
0
0
0
0
0
0
0
0
0
0
0
0
0
0
0
0
0
0
0
0
0
0
0
0
0
0
0
0
0
0
0
0
0
0
0
0
0
0
0
0
0
0
0
0
0
0
0
0
0
0
0
0
0
0
0
0
0
0
0
0
0
0
0
0
0
0
0
0
0
0
0
0
0
0
0
0
0
0
0
0
0
0
0
0
0
0
0
0
0
0
0
0
0
0
0
0
0
0
0
0
0
0
0
0
0
0
0
0
0
0
0
0
0
0
0
0
0
0
0
0
0
0
0
0
0
0
0
0
0
0
0
0
0
0
0
0
0
0
0
0
0
0
0
0
0
0
0
0
0
0
0
0
0
0
0
0
0
0
0
0
0
0
0
0
0
0
0
0
0
0
0
0
0
0
0
0
0
0
0
0
0
0
0
0
0
0
0
0
0
0
0
0
0
0
0
0
0
0
0
0
0
0
0
0
0
0
0
0
0
0
0
0
0
0
0
0
0
0
0
0
0
0
0
0
0
0
0
0
0
0
0
0
0
0
0
0
0
0
0
0
0
0
0
0
0
0
0
0
0
0
0
0
0
0
0
0
0
0
0
0
0
0
0
0
0
0
0
0
0
0
0
0
0
0
0
0
0
0
0
0
0
0
0
0
0
0
0
0
0
0
0
0
0
0
0
0
0
0
0
0
0
0
0
0
0
0
0
0
0
0
0
0
0
0
0
0
0
0
0
0
0
0
0
0
0
0
0
0
0
0
0
0
0
0
0
0
0
0
0
0
0
0
0
0
0
0
0
0
0
0
0
0
0
0
0
0
0
0
0
0
0
0
0
0
0
0
0
0
0
0
0
0
0
0
0
0
0
0
0
0
0
0
0
0
0
0
0
0
0
0
0
0
0
0
0
0
0
0
0
0
0
0
0
0
0
0
0
1
0
0
0
0
0
0
0
0
0
0
0
0
0
0
0
0
0
0
0
0
0
0
0
0
0
0
0
0
0
0
0
0
0
0
0
0
0
0
0
0
0
0
0
0
0
0
0
0
0
0
0
0
0
0
0
0
0
0
0
0
0
0
0
0
0
0
0
0
0
0
0
0
0
0
0
0
0
0
0
0
0
0
0
0
0
0
0
0
0
0
0
0
0
0
0
0
0
0
0
0
0
0
0
0
0
0
0
0
0
0
0
0
0
0
0
0
0
0
0
0
0
0
0
0
0
0
0
0
0
0
0
0
0
0
0
0
0
0
0
0
0
0
0
0
0
0
0
0
0
0
0
0
0
0
0
0
0
0
0
0
0
0
0
0
0
0
0
0
0
0
0
0
0
0
0
0
0
0
0
0
0
0
0
0
0
0
0
0
0
0
0
0
0
0
0
0
0
0
0
0
0
0
0
0
0
0
0
0
0
0
0
0
0
0
0
0
0
0
0
0
0
0
0
0
0
0
0
0
0
0
0
0
0
0
0
0
0
0
0
0
0
0
0
0
0
0
0
0
0
0
0
0
0
0
0
0
0
0
0
0
0
0
0
0
0
0
0
0
0
0
0
0
0
0
0
0
0
0
0
0
0
0
0
0
0
0
0
0
0
0
0
0
0
0
0
0
0
0
0
0
0
0
0
0
0
0
0
0
0
0
0
0
0
0
0
0
0
0
0
0
0
0
0
0
0
0
0
0
0
0
0
0
0
0
0
0
0
0
0
0
0
0
0
0
0
0
0
0
0
0
0
0
0
0
0
0
0
0
0
0
0
0
0
0
0
0
0
0
0
0
0
0
0
0
0
0
0
0
0
0
0
0
0
0
0
0
0
0
0
0
0
0
0
0
0
0
0
0
0
0
0
0
0
0
0
0
0
0
0
0
0
0
0
0
0
0
0
0
0
0
0
0
0
0
0
0
0
0
0
0
0
0
0
0
0
0
0
0
0
0
0
0
0
0
0
0
0
0
0
0
0
0
0
0
0
0
0
0
0
0
0
0
0
0
0
0
0
0
0
0
0
0
0
0
0
0
0
0
0
0
0
0
0
0
0
0
0
0
0
0
0
0
0
0
0
0
0
0
0
0
0
0
0
0
0
0
0
0
0
0
0
0
0
0
0
0
0
0
0
0
0
0
0
0
0
0
0
0
0
0
0
0
0
0
0
0
0
0
0
0
0
0
0
0
0
0
0
0
0
0
0
0
0
0
0
0
0
0
0
0
0
0
0
0
0
0
0
0
0
0
0
0
0
0
0
0
0
0
0
0
0
0
0
0
0
0
0
0
0
0
0
0
0
0
0
0
0
0
0
0
0
0
0
0
0
0
0
0
0
0
0
0
0
0
0
0
0
0
0
0
0
0
0
0
0
0
0
0
0
0
0
0
0
0
0
0
0
0
0
0
0
0
0
0
0
0
0
0
0
0
0
0
0
0
0
0
0
0
0
0
0
0
0
0
0
0
0
0
0
0
0
0
0
0
0
0
0
0
0
0
0
0
0
0
0
0
0
0
0
0
1
0
0
0
0
0
0
0
0
0
0
0
0
0
0
0
0
0
0
0
0
0
0
0
0
0
0
0
0
0
0
0
0
0
0
0
0
0
0
0
0
0
0
0
0
0
0
0
0
0
0
0
0
0
0
0
0
0
0
0
0
0
0
0
0
0
0
0
0
0
0
0
0
0
0
0
0
0
0
0
0
0
0
0
0
0
0
0
0
0
0
0
0
0
0
0
0
0
0
0
0
0
0
0
0
0
0
0
0
0
0
0
0
0
0
0
0
0
0
0
0
0
0
0
0
0
0
0
0
0
0
0
0
0
0
0
0
0
0
0
0
0
0
0
0
0
0
0
0
0
0
0
0
0
0
0
0
0
0
0
0
0
0
0
0
0
0
0
0
0
0
0
0
0
0
0
0
0
0
0
0
0
0
0
0
0
0
0
0
0
0
0
0
0
0
0
0
0
0
0
0
0
0
0
0
0
0
0
0
0
0
0
0
0
0
0
0
0
0
0
0
0
0
0
0
0
0
0
0
0
0
0
0
0
0
0
0
0
0
0
0
0
0
0
0
0
0
0
0
0
0
0
0
0
0
0
0
0
0
0
0
0
0
0
0
0
0
0
0
0
0
0
0
0
0
0
0
0
0
0
0
0
0
0
0
0
0
0
0
0
0
0
0
0
0
0
0
0
0
0
0
0
0
0
0
0
0
0
0
0
0
0
0
0
0
0
0
0
0
0
0
0
0
0
0
0
0
0
0
0
0
0
0
0
0
0
0
0
0
0
0
0
0
0
0
0
0
0
0
0
0
0
0
0
0
0
0
0
0
0
0
0
0
0
0
0
0
0
0
0
0
0
0
0
0
0
0
0
0
0
0
0
0
0
0
0
0
0
0
0
0
0
0
0
0
0
0
0
0
0
0
0
0
0
0
0
0
0
0
0
0
0
0
0
0
0
0
0
0
0
0
0
0
0
0
0
0
0
0
0
0
0
0
0
0
0
0
0
0
0
0
0
0
0
0
0
0
0
0
0
0
0
0
0
0
0
0
0
0
0
0
0
0
0
0
0
0
0
0
0
0
0
0
0
0
0
0
0
0
0
0
0
0
0
0
0
0
0
0
0
0
0
0
0
0
0
0
0
0
0
0
0
0
0
0
0
0
0
0
0
0
0
0
0
0
0
0
0
0
0
0
0
0
0
0
0
0
0
0
0
0
0
0
0
0
0
0
0
0
0
0
0
0
0
0
0
0
0
0
0
0
0
0
0
0
0
0
0
0
0
0
0
0
0
0
0
0
0
0
0
0
0
0
0
0
0
0
0
0
0
0
0
0
0
0
0
0
0
0
0
0
0
0
0
0
0
0
0
0
0
0
0
0
0
0
0
0
0
0
0
0
0
0
0
0
0
0
0
0
0
0
0
0
0
0
0
0
0
0
0
0
0
0
0
0
0
0
0
0
0
0
0
0
0
0
0
0
0
0
0
0
0
0
0
0
0
0
0
0
0
0
0
0
0
0
0
0
0
0
0
0
0
0
0
0
0
0
0
0
0
0
0
0
0
0
0
0
0
0
0
0
0
0
0
0
0
0
0
0
0
0
0
0
0
0
0
0
0
0
0
0
0
0
0
0
0
0
0
0
0
0
0
0
0
0
0
0
0
0
0
0
0
0
0
0
0
0
0
0
0
0
0
0
0
0
0
0
0
0
0
0
1
0
0
0
0
0
0
0
0
0
0
0
0
0
0
0
0
0
0
0
0
0
0
0
0
0
0
0
0
0
0
0
0
0
0
0
0
0
0
0
0
0
0
0
0
0
0
0
0
0
0
0
0
0
0
0
0
0
0
0
0
0
0
0
0
0
0
0
0
0
0
0
0
0
0
0
0
0
0
0
0
0
0
0
0
0
0
0
0
0
0
0
0
0
0
0
0
0
0
0
0
0
0
0
0
0
0
0
0
0
0
0
0
0
0
0
0
0
0
0
0
0
0
0
0
0
0
0
0
0
0
0
0
0
0
0
0
0
0
0
0
0
0
0
0
0
0
0
0
0
0
0
0
0
0
0
0
0
0
0
0
0
0
0
0
0
0
0
0
0
0
0
0
0
0
0
0
0
0
0
0
0
0
0
0
0
0
0
0
0
0
0
0
0
0
0
0
0
0
0
0
0
0
0
0
0
0
0
0
0
0
0
0
0
0
0
0
0
0
0
0
0
0
0
0
0
0
0
0
0
0
0
0
0
0
0
0
0
0
0
0
0
0
0
0
0
0
0
0
0
0
0
0
0
0
0
0
0
0
0
0
0
0
0
0
0
0
0
0
0
0
0
0
0
0
0
0
0
0
0
0
0
0
0
0
0
0
0
0
0
0
0
0
0
0
0
0
0
0
0
0
0
0
0
0
0
0
0
0
0
0
0
0
0
0
0
0
0
0
0
0
0
0
0
0
0
0
0
0
0
0
0
0
0
0
0
0
0
0
0
0
0
0
0
0
0
0
0
0
0
0
0
0
0
0
0
0
0
0
0
0
0
0
0
0
0
0
0
0
0
0
0
0
0
0
0
0
0
0
0
0
0
0
0
0
0
0
0
0
0
0
0
0
0
0
0
0
0
0
0
0
0
0
0
0
0
0
0
0
0
0
0
0
0
0
0
0
0
0
0
0
0
0
0
0
0
0
0
0
0
0
0
0
0
0
0
0
0
0
0
0
0
0
0
0
0
0
0
0
0
0
0
0
0
0
0
0
0
0
0
0
0
0
0
0
0
0
0
0
0
0
0
0
0
0
0
0
0
0
0
0
0
0
0
0
0
0
0
0
0
0
0
0
0
0
0
0
0
0
0
0
0
0
0
0
0
0
0
0
0
0
0
0
0
0
0
0
0
0
0
0
0
0
0
0
0
0
0
0
0
0
0
0
0
0
0
0
0
0
0
0
0
0
0
0
0
0
0
0
0
0
0
0
0
0
0
0
0
0
0
0
0
0
0
0
0
0
0
0
0
0
0
0
0
0
0
0
0
0
0
0
0
0
0
0
0
0
0
0
0
0
0
0
0
0
0
0
0
0
0
0
0
0
0
0
0
0
0
0
0
0
0
0
0
0
0
0
0
0
0
0
0
0
0
0
0
0
0
0
0
0
0
0
0
0
0
0
0
0
0
0
0
0
0
0
0
0
0
0
0
0
0
0
0
0
0
0
0
0
0
0
0
0
0
0
0
0
0
0
0
0
0
0
0
0
0
0
0
0
0
0
0
0
0
0
0
0
0
0
0
0
0
0
0
0
0
0
0
0
0
0
0
0
0
0
0
0
0
0
0
0
1
0
0
0
0
0
0
0
0
0
0
0
0
0
0
0
0
0
0
0
0
0
0
0
0
0
0
0
0
0
0
0
0
0
0
0
0
0
0
0
0
0
0
0
0
0
0
0
0
0
0
0
0
0
0
0
0
0
0
0
0
0
0
0
0
0
0
0
0
0
0
0
0
0
0
0
0
0
0
0
0
0
0
0
0
0
0
0
0
0
0
0
0
0
0
0
0
0
0
0
0
0
0
0
0
0
0
0
0
0
0
0
0
0
0
0
0
0
0
0
0
0
0
0
0
0
0
0
0
0
0
0
0
0
0
0
0
0
0
0
0
0
0
0
0
0
0
0
0
0
0
0
0
0
0
0
0
0
0
0
0
0
0
0
0
0
0
0
0
0
0
0
0
0
0
0
0
0
0
0
0
0
0
0
0
0
0
0
0
0
0
0
0
0
0
0
0
0
0
0
0
0
0
0
0
0
0
0
0
0
0
0
0
0
0
0
0
0
0
0
0
0
0
0
0
0
0
0
0
0
0
0
0
0
0
0
0
0
0
0
0
0
0
0
0
0
0
0
0
0
0
0
0
0
0
0
0
0
0
0
0
0
0
0
0
0
0
0
0
0
0
0
0
0
0
0
0
0
0
0
0
0
0
0
0
0
0
0
0
0
0
0
0
0
0
0
0
0
0
0
0
0
0
0
0
0
0
0
0
0
0
0
0
0
0
0
0
0
0
0
0
0
0
0
0
0
0
0
0
0
0
0
0
0
0
0
0
0
0
0
0
0
0
0
0
0
0
0
0
0
0
0
0
0
0
0
0
0
0
0
0
0
0
0
0
0
0
0
0
0
0
0
0
0
0
0
0
0
0
0
0
0
0
0
0
0
0
0
0
0
0
0
0
0
0
0
0
0
0
0
0
0
0
0
0
0
0
0
0
0
0
0
0
0
0
0
0
0
0
0
0
0
0
0
0
0
0
0
0
0
0
0
0
0
0
0
0
0
0
0
0
0
0
0
0
0
0
0
0
0
0
0
0
0
0
0
0
0
0
0
0
0
0
0
0
0
0
0
0
0
0
0
0
0
0
0
0
0
0
0
0
0
0
0
0
0
0
0
0
0
0
0
0
0
0
0
0
0
0
0
0
0
0
0
0
0
0
0
0
0
0
0
0
0
0
0
0
0
0
0
0
0
0
0
0
0
0
0
0
0
0
0
0
0
0
0
0
0
0
0
0
0
0
0
0
0
0
0
0
0
0
0
0
0
0
0
0
0
0
0
0
0
0
0
0
0
0
0
0
0
0
0
0
0
0
0
0
0
0
0
0
0
0
0
0
0
0
0
0
0
0
0
0
0
0
0
0
0
0
0
0
0
0
0
0
0
0
0
0
0
0
0
0
0
0
0
0
0
0
0
0
0
0
0
0
0
0
0
0
0
0
0
0
0
0
0
0
0
0
0
0
0
0
0
0
0
0
0
0
0
0
0
0
0
0
0
0
0
0
0
0
0
0
0
0
0
0
0
0
0
0
0
0
0
0
0
0
0
0
0
0
0
0
0
0
0
0
0
0
0
0
0
0
0
0
0
0
0
0
0
0
0
0
0
0
0
0
0
0
0
0
0
0
0
0
0
0
0
0
0
0
0
0
0
0
0
0
0
0
0
0
0
0
0
0
0
0
0
0
0
0
0
0
0
0
0
0
0
0
0
0
0
0
0
0
0
0
0
0
0
0
0
0
0
0
0
0
0
0
0
0
0
0
0
0
0
0
0
0
0
0
0
0
0
0
0
0
0
0
0
0
0
0
0
0
0
0
0
0
0
0
0
0
0
0
0
0
0
0
0
0
0
0
0
0
0
0
0
0
0
0
0
0
0
0
0
0
0
0
0
0
0
0
0
0
0
0
0
0
0
0
0
0
0
0
0
0
0
0
0
0
0
0
0
0
0
0
0
0
0
0
0
0
0
0
0
0
0
0
0
0
0
0
0
0
0
0
0
0
0
0
0
0
0
0
0
0
0
0
0
0
0
0
0
0
0
0
0
0
0
0
0
0
0
0
0
0
0
0
0
0
0
0
0
0
0
0
0
0
0
0
0
0
0
0
0
0
0
0
0
0
0
0
0
0
0
0
0
0
0
0
0
0
0
0
0
0
0
0
0
0
0
0
0
0
0
0
0
0
0
0
0
0
0
0
0
0
0
0
0
0
NumSamples tab Epoch40
10	10
10	10
10	10
10	10
10	10
10	10
10	10
10	10
10	10
10	10
10	10
10	10
10	10
10	10
10	10
10	10
10	10
10	10
10	10
10	10
10	10
10	10
10	10
10	10
10	10
10	10
10	10
10	10
10	10
10	10
10	10
10	10
10	10
10	10
10	10
10	10
10	10
10	10
10	10
10	10
10	10
10	10
10	10
10	10
10	10
10	10
10	10
10	10
10	10
10	10
10	10
10	10
10	10
10	10
10	10
10	10
10	10
10	10
10	10
10	10
10	10
10	10
10	10
10	10
10	10
10	10
10	10
10	10
10	10
10	10
10	10
10	10
10	10
10	10
10	10
10	10
10	10
10	10
10	10
10	10
10	10
10	10
10	10
10	10
10	10
10	10
10	10
10	10
10	10
10	10
10	10
10	10
10	10
10	10
10	10
10	10
10	10
10	10
10	10
10	10
10	10
10	10
10	10
10	10
10	10
10	10
10	10
10	10
10	10
10	10
10	10
10	10
10	10
10	10
10	10
10	10
10	10
10	10
10	10
10	10
10	10
10	10
10	10
10	10
10	10
10	10
10	10
10	10
10	10
10	10
10	10
10	10
10	10
10	10
10	10
10	10
10	10
10	10
10	10
10	10
10	10
10	10
10	10
10	10
10	10
10	10
10	10
10	10
10	10
10	10
10	10
10	10
10	10
10	10
10	10
10	10
10	10
10	10
10	10
10	10
10	10
10	10
10	10
10	10
10	10
10	10
10	10
10	10
10	10
10	10
10	10
10	10
10	10
10	10
10	10
10	10
10	10
10	10
10	10
10	10
10	10
10	10
10	10
10	10
10	10
10	10
10	10
10	10
10	10
10	10
10	10
10	10
10	10
10	10
10	10
10	10
10	10
10	10
10	10
10	10
10	10
10	10
10	10
10	10
10	10
10	10
10	10
10	10
10	10
10	10
10	10
10	10
10	10
10	10
10	10
10	10
10	10
10	10
10	10
10	10
10	10
10	10
10	10
10	10
10	10
10	10
10	10
10	10
10	10
10	10
10	10
10	10
10	10
10	10
10	10
10	10
10	10
10	10
10	10
10	10
10	10
10	10
10	10
10	10
10	10
10	10
10	10
10	10
10	10
10	10
10	10
10	10
10	10
10	10
10	10
10	10
10	10
10	10
10	10
10	10
10	10
10	10
10	10
10	10
10	10
10	10
10	10
10	10
10	10
10	10
10	10
10	10
10	10
10	10
10	10
10	10
10	10
10	10
10	10
10	10
10	10
10	10
10	10
10	10
10	10
10	10
10	10
10	10
10	10
10	10
10	10
10	10
10	10
10	10
10	10
10	10
10	10
10	10
10	10
10	10
10	10
10	10
10	10
10	10
10	10
10	10
10	10
10	10
10	10
10	10
10	10
10	10
10	10
10	10
10	10
10	10
10	10
10	10
10	10
10	10
10	10
10	10
10	10
10	10
10	10
10	10
10	10
10	10
10	10
10	10
10	10
10	10
10	10
10	10
10	10
10	10
10	10
10	10
10	10
10	10
10	10
10	10
10	10
10	10
10	10
10	10
10	10
10	10
10	10
10	10
10	10
10	10
10	10
10	10
10	10
10	10
10	10
10	10
10	10
10	10
10	10
10	10
10	10
10	10
10	10
10	10
10	10
10	10
10	10
10	10
10	10
10	10
10	10
10	10
10	10
10	10
10	10
10	10
10	10
10	10
10	10
10	10
10	10
10	10
10	10
10	10
10	10
10	10
10	10
10	10
10	10
10	10
10	10
10	10
10	10
10	10
10	10
10	10
10	10
10	10
10	10
10	10
10	10
10	10
10	10
10	10
10	10
10	10
10	10
10	10
10	10
10	10
10	10
10	10
10	10
10	10
10	10
10	10
Localizacao:
0	70
0	70
0	70
0	70
0	70
0	70
0	70
0	70
0	70
0	70
0	70
0	70
0	70
0	70
0	70
0	70
0	70
0	70
0	70
0	70
0	70
0	70
0	70
0	70
0	70
0	70
0	70
0	70
0	70
0	70
0	70
0	70
0	70
0	70
0	70
0	70
0	70
0	70
0	70
0	70
0	70
0	70
0	70
0	70
0	70
0	70
0	70
0	70
0	70
0	70
0	70
0	70
0	70
0	70
0	70
0	70
0	70
0	70
0	70
0	87
0	118
0	148
0	173
0	188
0	195
0	197
0	199
0	201
0	211
0	231
0	261
0	301
0	355
0	413
0	452
0	484
0	513
0	540
0	563
0	575
0	582
0	589
0	597
0	605
0	614
0	631
0	659
0	697
0	744
0	782
0	803
0	817
0	831
0	847
0	859
0	872
0	892
0	913
0	922
0	928
0	939
0	950
0	960
0	971
0	988
0	1008
0	1029
0	1049
0	1067
0	1085
0	1102
0	1114
0	1122
0	1126
0	1126
0	1130
0	1136
0	1138
0	1138
0	1139
0	1139
0	1135
0	1131
0	1120
0	1096
0	1054
0	994
0	919
0	827
0	711
0	573
0	407
0	209
0	70
1	70
1	70
1	70
1	70
1	70
1	70
1	70
1	70
1	70
1	70
1	70
1	70
1	141
1	228
1	307
1	385
1	460
1	517
1	556
1	588
1	621
1	647
1	666
1	682
1	704
1	737
1	775
1	807
1	831
1	854
1	881
1	908
1	926
1	937
1	947
1	955
1	963
1	978
1	991
1	1007
1	1029
1	1044
1	1053
1	1064
1	1074
1	1081
1	1086
1	1090
1	1094
1	1097
1	1100
1	1101
1	1104
1	1107
1	1107
1	1108
1	1113
1	1117
1	1118
1	1120
1	1120
1	1121
1	1124
1	1128
1	1130
1	1129
1	1129
1	1129
1	1126
1	1119
1	1100
1	1059
1	1003
1	938
1	866
1	781
1	681
1	582
1	492
1	403
1	318
1	236
1	152
1	79
2	70
2	70
2	70
2	70
2	70
2	70
2	70
2	70
2	130
2	241
2	357
2	462
2	536
2	590
2	642
2	688
2	727
2	764
2	793
2	810
2	826
2	847
2	869
2	893
2	914
2	928
2	941
2	953
2	963
2	974
2	987
2	1003
2	1025
2	1047
2	1065
2	1083
2	1099
2	1107
2	1114
2	1119
2	1121
2	1123
2	1124
2	1124
2	1123
2	1122
2	1123
2	1122
2	1122
2	1123
2	1122
2	1121
2	1113
2	1088
2	1043
2	979
2	903
2	828
2	747
2	661
2	585
2	516
2	439
2	353
2	270
2	184
2	95
2	70
3	70
3	70
3	70
3	70
3	70
3	70
3	70
3	70
3	70
3	148
3	221
3	276
3	327
3	388
3	445
3	483
3	507
3	523
3	542
3	563
3	592
3	627
3	658
3	690
3	732
3	779
3	817
3	851
3	891
3	929
3	957
3	980
3	998
3	1015
3	1031
3	1041
3	1051
3	1064
3	1080
3	1091
3	1096
3	1097
3	1098
3	1101
3	1106
3	1112
3	1116
3	1118
3	1121
3	1123
3	1124
3	1124
3	1124
3	1125
3	1125
3	1123
3	1121
3	1112
3	1073
3	993
3	879
3	735
3	574
3	390
3	163
3	70
4	70
4	70
4	70
4	70
4	70
4	70
4	70
4	70
4	70
4	70
4	70
4	70
4	70
4	70
4	70
4	70
4	70
4	70
4	70
4	70
4	70
4	70
4	70
4	70
4	70
4	70
4	70
4	70
4	70
4	70
4	70
4	70
4	70
4	70
4	70
4	70
4	70
4	70
4	70
4	70
4	70
4	70
4	70
4	70
4	70
4	70
4	70
4	70
4	70
4	70
4	70
4	70
4	70
4	70
4	70
4	70
4	70
4	70
4	70
4	70
4	70
4	70
4	70
4	70
4	70
4	70