SVIPT Data File
Session: 
ID_Volunteer: 
Task: Linear[Home-1-Home-2-Home-3-Home-4-Home-5]
TaskRepetitions: 30
Sampling_Rate: 200.000000
Force_Unity: Volts
BaseLineForce_Val: 0.000000
MaxVoluntForce_Val: 4.995117
ConversionFunction: 0.000000X +0.000000 = Y
MaxForce_Percentage: 40
MinForce_Percentage: 1
TaskMaxForce_Percentage: 20
Limites de movimento do cursor: 90	1298
Cursor
Location: 70	272
Size: 40	68
Home
Location: 68	221
Size: 44	170
ForceSignal: 
0.000000
0.000000
0.000000
0.000000
0.000000
0.000000
0.000000
0.000000
0.000000
0.000000
0.000000
0.000000
0.000000
0.000000
0.000000
0.000000
0.000000
0.000000
0.000000
0.000000
0.000000
0.000000
0.000000
0.000000
0.000000
0.000000
0.000000
0.000000
0.000000
0.000000
0.000000
0.000000
0.000000
0.000000
0.000000
0.000000
0.000000
0.000000
0.000000
0.000000
0.000000
0.000000
0.000000
0.000000
0.000000
0.000000
0.000000
0.000000
0.000000
0.000000
0.000000
0.000000
0.000000
0.000000
0.000000
0.000000
0.000000
0.000000
0.000000
0.000000
0.000000
0.000000
0.000000
0.000000
0.000000
0.000000
0.000000
0.000000
0.000000
0.000000
0.000000
0.000000
0.000000
0.000000
0.000000
0.000000
0.000000
0.000000
0.000000
0.000000
0.000000
0.000000
0.000000
0.000000
0.000000
0.000000
0.000000
0.000000
0.000000
0.000000
0.000000
0.000000
0.000000
0.000000
0.000000
0.000000
0.000000
0.000000
0.000000
0.000000
0.000000
0.000000
0.000000
0.000000
0.000000
0.000000
0.000000
0.000000
0.000000
0.000000
0.000000
0.000000
0.000000
0.000000
0.000000
0.000000
0.000000
0.000000
0.000000
0.000000
0.000000
0.000000
0.000000
0.000000
0.000000
0.000000
0.000000
0.000000
0.000000
0.000000
0.000000
0.000000
0.000000
0.000000
0.000000
0.000000
0.000000
0.000000
0.000000
0.000000
0.000000
0.000000
0.000000
0.000000
0.000000
0.000000
0.000000
0.000000
0.000000
0.000000
0.000000
0.000000
0.000000
0.000000
0.000000
0.000000
0.000000
0.000000
0.000000
0.000000
0.000000
0.000000
0.000000
0.000000
0.000000
0.000000
0.000000
0.000000
0.000000
0.000000
0.000000
0.000000
0.000000
0.000000
0.000000
0.000000
0.000000
0.000000
0.000000
0.000000
0.000000
0.000000
0.000000
0.000000
0.000000
0.000000
0.000000
0.000000
0.000000
0.000000
0.000000
0.000000
0.000000
0.000000
0.000000
0.000000
0.000000
0.000000
0.000000
0.000000
0.000000
0.000000
0.000000
0.000000
0.000000
0.000000
0.000000
0.000000
0.000000
0.000000
0.000000
0.000000
0.000000
0.000000
0.000000
0.000000
0.000000
0.000000
0.000000
0.000000
0.000000
0.000000
0.000000
0.000000
0.000000
0.000000
0.000000
0.000000
0.000000
0.000000
0.000000
0.000000
0.000000
0.000000
0.000000
0.000000
0.000000
0.000000
0.000000
0.000000
0.000000
0.000000
0.000000
0.000000
0.000000
0.000000
0.000000
0.000000
0.000000
0.000000
0.000000
0.000000
0.000000
0.000000
0.000000
0.000000
0.000000
0.000000
0.000000
0.000000
0.000000
0.000000
0.000000
0.000000
0.000000
0.000000
0.000000
0.000000
0.000000
0.000000
0.000000
0.000000
0.000000
0.000000
0.000000
0.000000
0.000000
0.000000
0.000000
0.000000
0.000000
0.000000
0.000000
0.000000
0.000000
0.000000
0.000000
0.000000
0.000000
0.000000
0.000000
0.000000
0.000000
0.000000
0.000000
0.000000
0.000000
0.000000
0.000000
0.000000
0.000000
0.000000
0.000000
0.000000
0.000000
0.000000
0.000000
0.000000
0.000000
0.000000
0.000000
0.000000
0.000000
0.000000
0.000000
0.000000
0.000000
0.000000
0.000000
0.000000
0.000000
0.000000
0.000000
0.000000
0.000000
0.000000
0.000000
0.000000
0.000000
0.000000
0.000000
0.000000
0.000000
0.000000
0.000000
0.000000
0.000000
0.000000
0.000000
0.000000
0.000000
0.000000
0.000000
0.000000
0.000000
0.000000
0.000000
0.000000
0.000000
0.000000
0.000000
0.000000
0.000000
0.000000
0.000000
0.000000
0.000000
0.000000
0.000000
0.000000
0.000000
0.000000
0.000000
0.000000
0.000000
0.000000
0.000000
0.000000
0.000000
0.000000
0.000000
0.000000
0.000000
0.000000
0.000000
0.000000
0.000000
0.000000
0.000000
0.000000
0.000000
0.000000
0.000000
0.000000
0.000000
0.000000
0.000000
0.000000
0.000000
0.000000
0.000000
0.000000
0.000000
0.000000
0.000000
0.000000
0.000000
0.000000
0.000000
0.000000
0.000000
0.000000
0.000000
0.000000
0.000000
0.000000
0.000000
0.000000
0.000000
0.000000
0.000000
0.000000
0.000000
0.000000
0.000000
0.000000
0.000000
0.000000
0.000000
0.000000
0.000000
0.000000
0.000000
0.000000
0.000000
0.000000
0.000000
0.000000
0.000000
0.000000
0.000000
0.000000
0.000000
0.000000
0.000000
0.000000
0.000000
0.000000
0.000000
0.000000
0.000000
0.000000
0.000000
0.000000
0.000000
0.000000
0.000000
0.000000
0.000000
0.000000
0.000000
0.000000
0.000000
0.000000
0.000000
0.000000
0.000000
0.000000
0.000000
0.000000
0.000000
0.000000
0.000000
0.000000
0.000000
0.000000
0.000000
0.000000
0.000000
0.000000
0.000000
0.000000
0.000000
0.000000
0.000000
0.000000
0.000000
0.000000
0.000000
0.000000
0.000000
0.000000
0.000000
0.000000
0.000000
0.000000
0.000000
0.000000
0.000000
0.000000
0.000000
0.000000
0.000000
0.000000
0.000000
0.000000
0.000000
0.000000
0.000000
0.000000
0.000000
0.000000
0.000000
0.000000
0.000000
0.000000
0.000000
0.000000
0.000000
0.000000
0.000000
0.000000
0.000000
0.000000
0.000000
0.000000
0.000000
0.000000
0.000000
0.000000
0.000000
0.000000
0.000000
0.000000
0.000000
0.000000
0.000000
0.000000
0.000000
0.000000
0.000000
0.000000
0.000000
0.000000
0.000000
0.000000
0.000000
0.000000
0.000000
0.000000
0.000000
0.000000
0.000000
0.000000
0.000000
0.000000
0.000000
0.000000
0.000000
0.000000
0.000000
0.000000
0.000000
0.000000
0.000000
0.000000
0.000000
0.000000
0.000000
0.000000
0.000000
0.000000
0.000000
0.000000
0.000000
0.000000
0.000000
0.000000
0.000000
0.000000
0.000000
0.000000
0.000000
0.000000
0.000000
0.000000
0.000000
0.000000
0.000000
0.000000
0.000000
0.000000
0.000000
0.000000
0.000000
0.000000
0.000000
0.000000
0.000000
0.000000
0.000000
0.000000
0.000000
0.000000
0.000000
0.000000
0.000000
0.000000
0.000000
0.000000
0.000000
0.000000
0.000000
0.000000
0.000000
0.000000
0.050000
0.100000
0.200000
0.350000
0.500000
0.700000
0.900000
1.150000
1.450000
1.750000
2.100000
2.500000
3.000000
3.550000
4.100000
4.700000
5.300000
5.900000
6.550000
7.250000
7.950000
8.650000
9.400000
10.150000
10.900000
11.600000
12.350000
13.100000
13.850000
14.600000
15.350000
16.100000
16.750000
17.400000
18.050000
18.700000
19.350000
20.050000
20.750000
21.400000
22.050000
22.750000
23.400000
24.050000
24.700000
25.350000
25.950000
26.550000
27.100000
27.750000
28.350000
28.900000
29.500000
30.000000
30.550000
31.050000
31.550000
32.000000
32.400000
32.800000
33.150000
33.450000
33.700000
33.900000
34.100000
34.300000
34.500000
34.650000
34.800000
34.850000
34.850000
34.900000
34.900000
34.950000
34.950000
34.950000
34.950000
34.950000
34.950000
34.950000
34.950000
34.950000
34.950000
34.950000
34.950000
34.950000
34.950000
34.950000
34.950000
34.950000
35.000000
35.000000
35.000000
35.000000
35.000000
35.000000
35.000000
35.000000
34.950000
34.950000
34.950000
34.950000
34.950000
34.950000
34.950000
34.950000
34.950000
34.950000
34.950000
34.950000
34.950000
34.950000
34.950000
34.950000
34.950000
34.950000
34.950000
34.950000
35.000000
35.000000
35.000000
35.000000
35.000000
35.000000
35.000000
35.000000
34.950000
34.950000
34.900000
34.900000
34.900000
34.900000
34.900000
34.900000
34.900000
34.900000
34.900000
34.900000
34.900000
34.900000
34.900000
34.900000
34.900000
34.850000
34.850000
34.850000
34.900000
34.900000
34.950000
34.950000
34.950000
34.900000
34.900000
34.900000
34.900000
34.900000
34.900000
34.900000
34.900000
34.900000
34.900000
34.900000
34.900000
34.950000
34.950000
34.950000
34.950000
34.950000
34.950000
34.950000
35.000000
35.100000
35.150000
35.200000
35.250000
35.350000
35.450000
35.550000
35.650000
35.750000
35.850000
35.950000
36.050000
36.200000
36.350000
36.500000
36.650000
36.800000
36.950000
37.100000
37.200000
37.300000
37.400000
37.550000
37.700000
37.800000
37.950000
38.100000
38.250000
38.400000
38.550000
38.700000
38.900000
39.050000
39.250000
39.450000
39.700000
39.950000
40.250000
40.550000
40.850000
41.150000
41.500000
41.800000
42.100000
42.450000
42.750000
43.050000
43.350000
43.700000
44.050000
44.400000
44.750000
45.100000
45.450000
45.800000
46.150000
46.500000
46.850000
47.200000
47.550000
47.950000
48.300000
48.650000
49.050000
49.400000
49.750000
50.100000
50.500000
50.850000
51.250000
51.650000
52.050000
52.450000
52.800000
53.150000
53.450000
53.750000
54.050000
54.350000
54.700000
55.000000
55.300000
55.650000
55.950000
56.250000
56.550000
56.850000
57.150000
57.450000
57.700000
57.950000
58.150000
58.350000
58.600000
58.850000
59.100000
59.350000
59.550000
59.750000
59.900000
60.050000
60.200000
60.300000
60.400000
60.500000
60.600000
60.700000
60.750000
60.800000
60.850000
60.900000
60.950000
61.000000
61.000000
61.000000
61.000000
61.050000
61.100000
61.150000
61.200000
61.250000
61.300000
61.350000
61.400000
61.500000
61.600000
61.700000
61.800000
61.900000
62.000000
62.100000
62.200000
62.300000
62.450000
62.550000
62.650000
62.750000
62.850000
62.950000
63.100000
63.250000
63.400000
63.550000
63.750000
63.900000
64.100000
64.300000
64.500000
64.700000
64.950000
65.200000
65.500000
65.800000
66.100000
66.450000
66.850000
67.200000
67.550000
67.950000
68.300000
68.700000
69.150000
69.600000
70.050000
70.500000
70.900000
71.350000
71.850000
72.400000
72.900000
73.450000
74.000000
74.600000
75.150000
75.750000
76.300000
76.900000
77.500000
78.100000
78.700000
79.250000
79.800000
80.400000
80.950000
81.600000
82.250000
82.850000
83.450000
84.050000
84.700000
85.300000
85.850000
86.450000
87.050000
87.650000
88.250000
88.850000
89.500000
90.100000
90.750000
91.450000
92.150000
92.850000
93.600000
94.300000
95.000000
95.750000
96.450000
97.150000
97.800000
98.450000
99.100000
99.700000
100.300000
100.900000
101.550000
102.200000
102.800000
103.450000
104.000000
104.550000
105.100000
105.600000
106.100000
106.550000
107.050000
107.500000
108.000000
108.450000
108.900000
109.400000
109.950000
110.500000
111.000000
111.500000
112.000000
112.500000
113.000000
113.450000
114.000000
114.500000
115.000000
115.550000
116.050000
116.600000
117.100000
117.600000
118.100000
118.600000
119.100000
119.550000
120.000000
120.400000
120.850000
121.300000
121.750000
122.150000
122.550000
123.000000
123.400000
123.800000
124.200000
124.550000
124.900000
125.200000
125.550000
125.900000
126.200000
126.500000
126.800000
127.100000
127.400000
127.700000
128.000000
128.250000
128.500000
128.750000
129.000000
129.250000
129.500000
129.750000
129.950000
130.150000
130.350000
130.600000
130.800000
131.050000
131.300000
131.550000
131.850000
132.150000
132.400000
132.650000
132.900000
133.200000
133.450000
133.700000
133.950000
134.200000
134.400000
134.600000
134.850000
135.150000
135.450000
135.650000
135.900000
136.100000
136.350000
136.600000
136.850000
137.150000
137.450000
137.800000
138.100000
138.400000
138.700000
139.000000
139.350000
139.650000
140.000000
140.400000
140.750000
141.050000
141.400000
141.800000
142.150000
142.500000
142.800000
143.150000
143.450000
143.700000
144.000000
144.250000
144.600000
144.900000
145.200000
145.550000
145.850000
146.200000
146.550000
146.850000
147.200000
147.550000
147.900000
148.250000
148.600000
148.950000
149.350000
149.700000
150.050000
150.400000
150.700000
151.050000
151.350000
151.650000
151.950000
152.250000
152.550000
152.800000
153.050000
153.350000
153.650000
153.950000
154.250000
154.550000
154.900000
155.250000
155.550000
155.850000
156.150000
156.450000
156.800000
157.100000
157.400000
157.700000
158.050000
158.350000
158.650000
158.950000
159.250000
159.500000
159.700000
159.900000
160.100000
160.300000
160.500000
160.700000
160.900000
161.150000
161.400000
161.650000
161.850000
162.100000
162.350000
162.600000
162.800000
163.000000
163.200000
163.400000
163.600000
163.800000
164.000000
164.250000
164.400000
164.600000
164.700000
164.850000
165.000000
165.100000
165.200000
165.300000
165.400000
165.450000
165.500000
165.550000
165.600000
165.650000
165.700000
165.750000
165.800000
165.850000
165.900000
165.950000
166.000000
166.050000
166.100000
166.100000
166.100000
166.150000
166.200000
166.250000
166.300000
166.350000
166.400000
166.450000
166.500000
166.550000
166.650000
166.750000
166.800000
166.850000
166.950000
166.950000
167.050000
167.100000
167.200000
167.350000
167.450000
167.550000
167.650000
167.750000
167.850000
168.000000
168.100000
168.200000
168.300000
168.450000
168.500000
168.600000
168.750000
168.900000
169.000000
169.150000
169.300000
169.400000
169.500000
169.600000
169.750000
169.850000
169.950000
170.050000
170.200000
170.300000
170.450000
170.550000
170.700000
170.800000
170.950000
171.050000
171.150000
171.250000
171.400000
171.500000
171.600000
171.700000
171.850000
171.950000
172.050000
172.150000
172.250000
172.350000
172.400000
172.450000
172.550000
172.700000
172.750000
172.800000
172.850000
172.900000
172.950000
173.000000
173.050000
173.100000
173.100000
173.200000
173.250000
173.300000
173.350000
173.400000
173.450000
173.500000
173.550000
173.600000
173.600000
173.600000
173.650000
173.700000
173.750000
173.800000
173.850000
173.900000
173.900000
173.950000
174.000000
174.000000
174.000000
174.000000
174.050000
174.100000
174.150000
174.200000
174.250000
174.300000
174.350000
174.400000
174.450000
174.500000
174.550000
174.600000
174.650000
174.700000
174.750000
174.800000
174.850000
174.900000
174.950000
175.000000
175.000000
175.000000
175.000000
175.000000
175.000000
175.000000
175.000000
175.050000
175.050000
175.100000
175.150000
175.150000
175.200000
175.250000
175.250000
175.300000
175.350000
175.400000
175.450000
175.500000
175.550000
175.600000
175.650000
175.700000
175.750000
175.800000
175.850000
175.850000
175.900000
175.900000
175.900000
176.000000
176.000000
176.050000
176.150000
176.150000
176.150000
176.200000
176.250000
176.300000
176.350000
176.400000
176.450000
176.500000
176.550000
176.600000
176.650000
176.700000
176.750000
176.850000
176.950000
177.000000
177.100000
177.150000
177.200000
177.300000
177.400000
177.450000
177.500000
177.550000
177.650000
177.750000
177.800000
177.900000
178.000000
178.100000
178.200000
178.300000
178.400000
178.450000
178.550000
178.600000
178.650000
178.700000
178.750000
178.800000
178.850000
178.900000
178.950000
179.050000
179.100000
179.100000
179.200000
179.250000
179.300000
179.350000
179.400000
179.450000
179.500000
179.550000
179.600000
179.650000
179.700000
179.800000
179.900000
180.000000
180.050000
180.100000
180.200000
180.250000
180.300000
180.400000
180.450000
180.500000
180.550000
180.600000
180.650000
180.700000
180.750000
180.800000
180.800000
180.850000
180.850000
180.850000
180.850000
180.850000
180.900000
180.950000
180.900000
180.900000
180.900000
180.900000
180.900000
180.900000
180.900000
180.900000
180.900000
180.900000
180.900000
180.900000
180.900000
180.900000
180.950000
180.950000
180.950000
180.950000
180.950000
180.950000
181.000000
181.000000
181.000000
181.000000
181.000000
181.000000
181.000000
181.000000
180.950000
180.950000
180.950000
180.900000
180.900000
180.900000
180.900000
180.900000
180.900000
180.850000
180.850000
180.850000
180.850000
180.850000
180.800000
180.750000
180.700000
180.650000
180.550000
180.400000
180.300000
180.150000
180.000000
179.850000
179.650000
179.400000
179.100000
178.800000
178.500000
178.250000
177.850000
177.500000
177.100000
176.700000
176.350000
175.950000
175.550000
175.100000
174.700000
174.300000
173.850000
173.350000
172.800000
172.300000
171.750000
171.200000
170.700000
170.200000
169.650000
169.050000
168.500000
167.900000
167.300000
166.700000
166.050000
165.450000
164.800000
164.200000
163.550000
162.900000
162.250000
161.650000
161.050000
160.450000
159.850000
159.200000
158.550000
157.900000
157.200000
156.550000
155.900000
155.200000
154.550000
153.850000
153.150000
152.450000
151.800000
151.100000
150.450000
149.800000
149.150000
148.500000
147.850000
147.150000
146.500000
145.900000
145.250000
144.550000
143.950000
143.300000
142.650000
142.050000
141.450000
140.800000
140.150000
139.450000
138.700000
137.950000
137.150000
136.350000
135.600000
134.800000
134.000000
133.150000
132.250000
131.350000
130.450000
129.500000
128.550000
127.600000
126.600000
125.550000
124.450000
123.350000
122.250000
121.150000
120.050000
118.950000
117.850000
116.700000
115.500000
114.300000
113.150000
112.000000
110.900000
109.700000
108.450000
107.250000
106.000000
104.750000
103.550000
102.350000
101.150000
100.000000
98.800000
97.650000
96.450000
95.250000
94.050000
92.900000
91.750000
90.600000
89.400000
88.250000
87.050000
85.950000
84.900000
83.900000
82.900000
81.900000
80.900000
79.950000
79.000000
78.050000
77.150000
76.200000
75.350000
74.500000
73.650000
72.800000
71.950000
71.100000
70.250000
69.400000
68.600000
67.850000
67.100000
66.300000
65.500000
64.700000
63.900000
63.050000
62.200000
61.350000
60.550000
59.750000
58.950000
58.150000
57.350000
56.550000
55.750000
54.950000
54.150000
53.350000
52.550000
51.700000
50.850000
50.000000
49.150000
48.300000
47.450000
46.600000
45.800000
45.000000
44.200000
43.400000
42.550000
41.700000
40.800000
39.900000
39.050000
38.200000
37.350000
36.500000
35.600000
34.750000
33.900000
33.050000
32.200000
31.400000
30.600000
29.850000
29.050000
28.300000
27.500000
26.700000
25.900000
25.100000
24.400000
23.700000
22.950000
22.250000
21.500000
20.750000
20.050000
19.300000
18.600000
17.900000
17.200000
16.400000
15.600000
14.750000
13.900000
13.000000
12.150000
11.300000
10.450000
9.600000
8.700000
7.850000
7.050000
6.250000
5.550000
4.900000
4.250000
3.650000
3.050000
2.500000
2.000000
1.600000
1.250000
0.950000
0.700000
0.500000
0.300000
0.150000
0.050000
0.000000
0.000000
0.000000
0.000000
0.000000
0.000000
0.000000
0.000000
0.000000
0.000000
0.000000
0.000000
0.000000
0.000000
0.000000
0.000000
0.000000
0.000000
0.000000
0.000000
0.000000
0.000000
0.000000
0.000000
0.000000
0.000000
0.000000
0.000000
0.000000
0.000000
0.000000
0.000000
0.000000
0.000000
0.000000
0.000000
0.000000
0.000000
0.000000
0.000000
0.000000
0.000000
0.000000
0.000000
0.000000
0.000000
0.000000
0.000000
0.000000
0.000000
0.000000
0.000000
0.000000
0.000000
0.000000
0.000000
0.000000
0.000000
0.000000
0.000000
0.000000
0.000000
0.000000
0.000000
0.000000
0.000000
0.000000
0.000000
0.000000
0.000000
0.000000
0.000000
0.000000
0.000000
0.000000
0.000000
0.000000
0.000000
0.000000
0.000000
0.000000
0.000000
0.000000
0.000000
0.000000
0.000000
0.000000
0.000000
0.000000
0.000000
0.000000
0.000000
0.000000
0.000000
0.000000
0.000000
0.000000
0.000000
0.000000
0.000000
0.000000
0.000000
0.000000
0.000000
0.000000
0.000000
0.000000
0.000000
0.000000
0.000000
0.000000
0.000000
0.000000
0.000000
0.000000
0.000000
0.000000
0.000000
0.000000
0.000000
0.000000
0.000000
0.000000
0.000000
0.000000
0.000000
0.000000
0.000000
0.000000
0.000000
0.000000
0.000000
0.000000
0.000000
0.000000
0.000000
0.000000
0.000000
0.000000
0.000000
0.000000
0.000000
0.000000
0.000000
0.000000
0.000000
0.000000
0.000000
0.000000
0.000000
0.000000
0.000000
0.000000
0.000000
0.000000
0.000000
0.000000
0.000000
0.000000
0.000000
0.000000
0.000000
0.000000
0.000000
0.000000
0.000000
0.000000
0.000000
0.000000
0.000000
0.000000
0.000000
0.000000
0.000000
0.000000
0.000000
0.000000
0.000000
0.000000
0.000000
0.000000
0.000000
0.000000
0.000000
0.000000
0.000000
0.000000
0.000000
0.000000
0.000000
0.000000
0.000000
0.000000
0.000000
0.000000
0.000000
0.000000
0.000000
0.000000
0.000000
0.000000
0.000000
0.000000
0.000000
0.000000
0.000000
0.000000
0.000000
0.000000
0.000000
0.000000
0.000000
0.000000
0.000000
0.000000
0.000000
0.000000
0.000000
0.000000
0.000000
0.000000
0.000000
0.000000
0.000000
0.000000
0.000000
0.000000
0.000000
0.000000
0.000000
0.000000
0.000000
0.000000
0.000000
0.000000
0.000000
0.000000
0.000000
0.000000
0.000000
0.000000
0.000000
0.000000
0.000000
0.000000
0.000000
0.000000
0.000000
0.000000
0.000000
0.000000
0.000000
0.000000
0.000000
0.000000
0.000000
0.000000
0.000000
0.000000
0.000000
0.000000
0.000000
0.000000
0.000000
0.000000
0.000000
0.000000
0.000000
0.000000
0.000000
0.000000
0.000000
0.000000
0.000000
0.000000
0.000000
0.000000
0.000000
0.000000
0.000000
0.000000
0.000000
0.000000
0.000000
0.000000
0.000000
0.000000
0.000000
0.000000
0.000000
0.000000
0.000000
0.000000
0.000000
0.000000
0.000000
0.000000
0.000000
0.000000
0.000000
0.000000
0.000000
0.000000
0.000000
0.000000
0.000000
0.000000
0.000000
0.000000
0.000000
0.000000
0.000000
0.000000
0.000000
0.000000
0.000000
0.000000
0.000000
0.000000
0.000000
0.000000
0.000000
0.000000
0.000000
0.000000
0.000000
0.000000
0.000000
0.000000
0.000000
0.000000
0.000000
0.000000
0.000000
0.000000
0.000000
0.000000
0.000000
0.000000
0.000000
0.000000
0.000000
0.000000
0.000000
0.000000
0.000000
0.000000
0.000000
0.000000
0.000000
0.000000
0.000000
0.000000
0.000000
0.000000
0.000000
0.000000
0.000000
0.000000
0.000000
0.000000
0.000000
0.000000
0.000000
0.000000
0.000000
0.000000
0.000000
0.000000
0.000000
0.000000
0.000000
0.000000
0.000000
0.000000
0.000000
0.000000
0.000000
0.000000
0.000000
0.000000
0.000000
0.000000
0.000000
0.000000
0.000000
0.000000
0.000000
0.000000
0.000000
0.000000
0.000000
0.000000
0.000000
0.000000
0.000000
0.000000
0.000000
0.000000
0.000000
0.000000
0.000000
0.000000
0.000000
0.000000
0.000000
0.000000
0.000000
0.000000
0.000000
0.000000
0.000000
0.000000
0.000000
0.000000
0.000000
0.000000
0.000000
0.000000
0.000000
0.000000
0.000000
0.000000
0.000000
0.000000
0.000000
0.000000
0.000000
0.000000
0.000000
0.000000
0.000000
0.000000
0.000000
0.000000
0.000000
0.000000
0.000000
0.000000
0.000000
0.000000
0.000000
0.000000
0.000000
0.000000
0.000000
0.000000
0.000000
0.000000
0.000000
0.000000
0.000000
0.000000
0.000000
0.000000
0.000000
0.000000
0.000000
0.000000
0.000000
0.000000
0.000000
0.000000
0.000000
0.000000
0.000000
0.000000
0.000000
0.000000
0.000000
0.000000
0.000000
0.000000
0.000000
0.000000
0.000000
0.000000
0.000000
0.000000
0.000000
0.050000
0.100000
0.200000
0.300000
0.400000
0.550000
0.750000
0.950000
1.150000
1.400000
1.650000
1.950000
2.250000
2.600000
3.000000
3.450000
3.950000
4.500000
5.100000
5.700000
6.300000
6.900000
7.450000
8.000000
8.550000
9.150000
9.750000
10.400000
11.050000
11.700000
12.350000
13.000000
13.650000
14.300000
14.950000
15.550000
16.150000
16.700000
17.200000
17.750000
18.250000
18.750000
19.250000
19.800000
20.400000
20.900000
21.400000
21.850000
22.350000
22.800000
23.300000
23.800000
24.300000
24.750000
25.200000
25.650000
26.100000
26.550000
27.000000
27.450000
27.900000
28.400000
28.900000
29.400000
29.850000
30.350000
30.800000
31.250000
31.650000
32.050000
32.450000
32.850000
33.250000
33.650000
34.000000
34.350000
34.650000
35.000000
35.350000
35.650000
35.950000
36.200000
36.450000
36.600000
36.800000
36.950000
37.100000
37.250000
37.400000
37.550000
37.650000
37.700000
37.750000
37.800000
37.850000
37.900000
37.950000
37.950000
37.950000
37.950000
37.950000
37.950000
37.950000
38.000000
38.000000
38.000000
38.000000
38.000000
38.000000
38.000000
38.000000
38.000000
38.000000
38.000000
38.000000
38.000000
38.000000
38.000000
38.000000
38.000000
38.000000
38.000000
38.000000
38.000000
38.000000
38.000000
38.000000
38.000000
38.000000
38.000000
38.000000
38.000000
38.000000
38.000000
38.000000
38.000000
38.000000
38.000000
38.000000
38.000000
38.000000
38.000000
38.000000
38.000000
38.000000
38.000000
38.000000
38.000000
38.000000
38.000000
38.000000
38.000000
38.000000
38.000000
38.000000
38.000000
38.000000
38.000000
38.000000
38.000000
38.000000
38.000000
38.000000
38.000000
38.000000
38.000000
38.000000
38.000000
38.000000
38.000000
38.000000
38.000000
38.000000
38.000000
38.000000
38.000000
38.000000
38.000000
38.000000
38.000000
38.000000
38.000000
38.000000
38.000000
38.000000
38.050000
38.100000
38.200000
38.300000
38.400000
38.550000
38.700000
38.850000
39.000000
39.200000
39.400000
39.650000
39.900000
40.200000
40.500000
40.800000
41.100000
41.450000
41.800000
42.150000
42.450000
42.750000
43.050000
43.350000
43.700000
44.000000
44.300000
44.650000
45.000000
45.300000
45.700000
46.000000
46.350000
46.700000
47.050000
47.400000
47.750000
48.050000
48.400000
48.750000
49.100000
49.450000
49.750000
50.050000
50.350000
50.650000
50.950000
51.200000
51.500000
51.800000
52.050000
52.350000
52.600000
52.850000
53.050000
53.300000
53.500000
53.750000
53.950000
54.150000
54.400000
54.650000
54.900000
55.150000
55.400000
55.650000
55.900000
56.200000
56.450000
56.750000
57.000000
57.250000
57.500000
57.700000
58.000000
58.250000
58.550000
58.800000
59.050000
59.300000
59.550000
59.800000
60.100000
60.400000
60.700000
61.000000
61.300000
61.550000
61.800000
62.100000
62.400000
62.700000
63.050000
63.400000
63.700000
64.050000
64.400000
64.800000
65.200000
65.600000
66.000000
66.400000
66.750000
67.100000
67.450000
67.800000
68.200000
68.600000
69.000000
69.350000
69.700000
70.050000
70.350000
70.700000
71.050000
71.350000
71.700000
72.000000
72.300000
72.600000
72.900000
73.200000
73.500000
73.800000
74.050000
74.300000
74.550000
74.800000
75.050000
75.300000
75.550000
75.800000
76.050000
76.300000
76.550000
76.800000
77.000000
77.250000
77.500000
77.750000
78.000000
78.250000
78.500000
78.800000
79.100000
79.400000
79.650000
79.900000
80.200000
80.450000
80.750000
81.050000
81.350000
81.600000
81.900000
82.200000
82.500000
82.750000
83.050000
83.350000
83.600000
83.850000
84.150000
84.400000
84.650000
84.950000
85.250000
85.550000
85.800000
86.050000
86.300000
86.550000
86.800000
87.100000
87.350000
87.600000
87.900000
88.150000
88.400000
88.650000
88.900000
89.150000
89.400000
89.650000
89.900000
90.100000
90.300000
90.550000
90.800000
91.050000
91.300000
91.550000
91.800000
92.050000
92.300000
92.550000
92.800000
93.100000
93.350000
93.600000
93.800000
94.050000
94.250000
94.500000
94.750000
95.000000
95.300000
95.550000
95.850000
96.200000
96.550000
96.950000
97.350000
97.700000
98.050000
98.450000
98.750000
99.100000
99.450000
99.800000
100.200000
100.600000
101.000000
101.350000
101.750000
102.150000
102.500000
102.900000
103.250000
103.600000
103.900000
104.150000
104.400000
104.700000
105.000000
105.250000
105.600000
105.900000
106.200000
106.550000
106.850000
107.150000
107.500000
107.850000
108.150000
108.500000
108.850000
109.150000
109.500000
109.800000
110.100000
110.450000
110.800000
111.100000
111.450000
111.800000
112.100000
112.400000
112.700000
113.000000
113.350000
113.700000
114.000000
114.300000
114.650000
114.950000
115.250000
115.550000
115.850000
116.200000
116.550000
116.850000
117.200000
117.550000
117.850000
118.200000
118.550000
118.900000
119.250000
119.550000
119.900000
120.200000
120.500000
120.850000
121.150000
121.450000
121.750000
122.050000
122.300000
122.550000
122.800000
123.100000
123.350000
123.600000
123.900000
124.150000
124.450000
124.750000
125.050000
125.350000
125.600000
125.850000
126.100000
126.300000
126.500000
126.750000
127.000000
127.250000
127.500000
127.750000
128.000000
128.200000
128.400000
128.600000
128.750000
128.900000
129.000000
129.150000
129.250000
129.400000
129.550000
129.700000
129.850000
130.050000
130.250000
130.400000
130.550000
130.700000
130.850000
131.000000
131.150000
131.300000
131.450000
131.600000
131.800000
132.000000
132.250000
132.400000
132.650000
132.850000
133.000000
133.150000
133.350000
133.500000
133.650000
133.850000
134.050000
134.250000
134.450000
134.600000
134.750000
134.900000
135.050000
135.200000
135.300000
135.400000
135.450000
135.600000
135.700000
135.800000
135.950000
136.100000
136.200000
136.350000
136.450000
136.500000
136.550000
136.650000
136.750000
136.850000
136.950000
137.050000
137.150000
137.300000
137.450000
137.600000
137.750000
137.900000
138.000000
138.150000
138.300000
138.500000
138.700000
138.850000
139.050000
139.250000
139.500000
139.650000
139.850000
140.000000
140.200000
140.400000
140.600000
140.800000
140.950000
141.150000
141.350000
141.500000
141.700000
141.850000
142.000000
142.100000
142.200000
142.350000
142.450000
142.600000
142.700000
142.850000
142.950000
143.100000
143.200000
143.300000
143.450000
143.550000
143.650000
143.700000
143.800000
143.900000
144.050000
144.200000
144.350000
144.500000
144.700000
144.850000
145.050000
145.200000
145.400000
145.600000
145.850000
146.100000
146.350000
146.600000
146.800000
147.000000
147.250000
147.550000
147.800000
148.050000
148.250000
148.450000
148.700000
148.950000
149.150000
149.350000
149.550000
149.800000
150.000000
150.250000
150.450000
150.650000
150.850000
151.050000
151.250000
151.450000
151.650000
151.850000
152.000000
152.250000
152.500000
152.750000
152.950000
153.150000
153.350000
153.600000
153.850000
154.050000
154.250000
154.400000
154.550000
154.750000
154.950000
155.200000
155.450000
155.700000
155.950000
156.150000
156.450000
156.650000
156.850000
157.050000
157.300000
157.550000
157.800000
158.000000
158.200000
158.400000
158.600000
158.800000
159.000000
159.150000
159.300000
159.400000
159.500000
159.650000
159.800000
159.900000
159.950000
160.050000
160.150000
160.250000
160.300000
160.350000
160.400000
160.450000
160.500000
160.600000
160.700000
160.800000
160.900000
161.000000
161.100000
161.200000
161.300000
161.350000
161.450000
161.600000
161.750000
161.850000
161.950000
162.050000
162.150000
162.300000
162.450000
162.600000
162.750000
162.900000
163.050000
163.200000
163.350000
163.500000
163.650000
163.800000
163.950000
164.100000
164.250000
164.400000
164.550000
164.700000
164.800000
164.900000
165.050000
165.150000
165.250000
165.350000
165.450000
165.500000
165.550000
165.650000
165.750000
165.850000
165.950000
166.050000
166.200000
166.350000
166.450000
166.600000
166.750000
166.900000
167.150000
167.350000
167.550000
167.700000
167.900000
168.100000
168.300000
168.550000
168.800000
169.000000
169.250000
169.500000
169.750000
170.000000
170.200000
170.400000
170.650000
170.850000
171.050000
171.250000
171.400000
171.600000
171.750000
171.950000
172.150000
172.400000
172.600000
172.800000
173.000000
173.200000
173.350000
173.550000
173.750000
173.950000
174.200000
174.450000
174.650000
174.900000
175.100000
175.350000
175.600000
175.900000
176.200000
176.500000
176.750000
176.950000
177.200000
177.400000
177.600000
177.850000
178.100000
178.250000
178.450000
178.650000
178.800000
178.950000
179.100000
179.200000
179.350000
179.500000
179.650000
179.700000
179.800000
179.850000
179.950000
180.050000
180.150000
180.250000
180.350000
180.400000
180.450000
180.550000
180.600000
180.650000
180.700000
180.800000
180.850000
180.900000
180.950000
181.000000
181.050000
181.150000
181.200000
181.300000
181.350000
181.400000
181.450000
181.500000
181.550000
181.600000
181.650000
181.700000
181.750000
181.800000
181.850000
181.900000
181.950000
182.000000
182.050000
182.100000
182.100000
182.100000
182.100000
182.100000
182.150000
182.150000
182.150000
182.150000
182.150000
182.150000
182.150000
182.150000
182.150000
182.150000
182.200000
182.150000
182.150000
182.150000
182.150000
182.100000
182.100000
182.100000
182.100000
182.100000
182.050000
182.050000
182.050000
182.050000
182.050000
182.050000
182.050000
182.050000
182.050000
182.050000
181.950000
181.950000
181.950000
181.900000
181.850000
181.800000
181.750000
181.700000
181.650000
181.600000
181.500000
181.350000
181.200000
181.050000
180.850000
180.650000
180.400000
180.100000
179.800000
179.400000
179.050000
178.650000
178.200000
177.750000
177.250000
176.700000
176.050000
175.350000
174.600000
173.800000
172.950000
172.100000
171.200000
170.250000
169.350000
168.350000
167.300000
166.250000
165.050000
163.950000
162.700000
161.400000
160.050000
158.700000
157.300000
155.850000
154.400000
152.950000
151.450000
149.900000
148.350000
146.700000
145.050000
143.400000
141.600000
139.800000
137.950000
136.050000
134.150000
132.150000
130.200000
128.200000
126.150000
124.100000
122.050000
119.950000
117.800000
115.550000
113.300000
111.000000
108.650000
106.350000
103.950000
101.500000
99.050000
96.650000
94.250000
91.850000
89.500000
87.150000
84.800000
82.450000
80.200000
77.900000
75.600000
73.350000
71.200000
69.100000
67.050000
65.050000
63.100000
61.150000
59.250000
57.400000
55.600000
53.800000
52.050000
50.350000
48.600000
46.900000
45.200000
43.500000
41.750000
40.050000
38.400000
36.800000
35.150000
33.550000
31.900000
30.250000
28.550000
26.950000
25.300000
23.600000
21.900000
20.200000
18.450000
16.700000
15.100000
13.550000
12.100000
10.750000
9.500000
8.300000
7.150000
6.050000
5.050000
4.100000
3.250000
2.500000
1.900000
1.300000
0.850000
0.500000
0.250000
0.050000
0.000000
0.000000
0.000000
0.000000
0.000000
0.000000
0.000000
0.000000
0.000000
0.000000
0.000000
0.000000
0.000000
0.000000
0.000000
0.000000
0.000000
0.000000
0.000000
0.000000
0.000000
0.000000
0.000000
0.000000
0.000000
0.000000
0.000000
0.000000
0.000000
0.000000
0.000000
0.000000
0.000000
0.000000
0.000000
0.000000
0.000000
0.000000
0.000000
0.000000
0.000000
0.000000
0.000000
0.000000
0.000000
0.000000
0.000000
0.000000
0.000000
0.000000
0.000000
0.000000
0.000000
0.000000
0.000000
0.000000
0.000000
0.000000
0.000000
0.000000
0.000000
0.000000
0.000000
0.000000
0.000000
0.000000
0.000000
0.000000
0.000000
0.000000
0.000000
0.000000
0.000000
0.000000
0.000000
0.000000
0.000000
0.000000
0.000000
0.000000
0.000000
0.000000
0.000000
0.000000
0.000000
0.000000
0.000000
0.000000
0.000000
0.000000
0.000000
0.000000
0.000000
0.000000
0.000000
0.000000
0.000000
0.000000
0.000000
0.000000
0.000000
0.000000
0.050000
0.250000
0.600000
1.150000
1.800000
2.650000
3.650000
4.750000
5.950000
7.250000
8.700000
10.300000
12.050000
13.900000
15.850000
17.950000
20.200000
22.550000
25.000000
27.600000
30.200000
32.800000
35.350000
37.850000
40.300000
42.650000
45.000000
47.350000
49.700000
52.050000
54.350000
56.550000
58.750000
60.950000
63.150000
65.200000
67.200000
69.200000
71.200000
73.100000
75.050000
76.900000
78.750000
80.500000
82.250000
84.000000
85.750000
87.400000
89.000000
90.550000
92.000000
93.450000
94.800000
96.100000
97.350000
98.650000
99.850000
100.950000
102.050000
103.100000
104.100000
105.100000
106.000000
106.900000
107.800000
108.600000
109.300000
110.000000
110.700000
111.400000
112.050000
112.700000
113.350000
113.950000
114.500000
115.050000
115.650000
116.200000
116.700000
117.200000
117.700000
118.150000
118.600000
119.000000
119.350000
119.750000
120.100000
120.450000
120.800000
121.100000
121.450000
121.750000
122.000000
122.250000
122.500000
122.700000
122.900000
123.150000
123.400000
123.650000
123.850000
124.050000
124.300000
124.550000
124.800000
125.000000
125.250000
125.500000
125.650000
125.850000
126.050000
126.250000
126.450000
126.650000
126.850000
127.050000
127.200000
127.350000
127.450000
127.550000
127.700000
127.850000
127.950000
128.100000
128.200000
128.350000
128.450000
128.550000
128.750000
128.900000
129.050000
129.250000
129.450000
129.650000
129.900000
130.200000
130.500000
130.800000
131.150000
131.500000
131.850000
132.200000
132.600000
133.000000
133.450000
133.900000
134.400000
134.950000
135.500000
136.050000
136.650000
137.250000
137.850000
138.500000
139.100000
139.700000
140.350000
141.000000
141.650000
142.350000
143.050000
143.750000
144.450000
145.100000
145.800000
146.500000
147.100000
147.700000
148.250000
148.850000
149.350000
149.850000
150.350000
150.850000
151.350000
151.850000
152.300000
152.800000
153.250000
153.700000
154.100000
154.550000
154.950000
155.350000
155.700000
156.050000
156.450000
156.800000
157.150000
157.450000
157.850000
158.150000
158.500000
158.800000
159.100000
159.350000
159.650000
159.900000
160.150000
160.350000
160.600000
160.800000
161.000000
161.200000
161.450000
161.650000
161.850000
162.100000
162.350000
162.600000
162.800000
163.050000
163.250000
163.450000
163.650000
163.900000
164.100000
164.300000
164.550000
164.750000
164.950000
165.150000
165.400000
165.650000
165.900000
166.100000
166.350000
166.550000
166.800000
167.050000
167.300000
167.550000
167.800000
168.100000
168.400000
168.700000
169.000000
169.300000
169.550000
169.850000
170.100000
170.350000
170.550000
170.750000
170.900000
171.100000
171.250000
171.450000
171.600000
171.700000
171.850000
172.000000
172.150000
172.250000
172.350000
172.400000
172.450000
172.500000
172.550000
172.600000
172.700000
172.750000
172.800000
172.900000
173.000000
173.100000
173.200000
173.250000
173.300000
173.450000
173.500000
173.600000
173.700000
173.800000
173.900000
174.000000
174.150000
174.300000
174.450000
174.650000
174.800000
175.000000
175.250000
175.400000
175.600000
175.800000
176.000000
176.200000
176.400000
176.550000
176.750000
176.950000
177.150000
177.350000
177.550000
177.750000
177.900000
178.050000
178.200000
178.300000
178.400000
178.450000
178.500000
178.600000
178.650000
178.700000
178.750000
178.800000
178.850000
178.900000
178.950000
178.950000
178.950000
178.950000
178.950000
178.950000
178.950000
178.950000
178.950000
178.950000
178.950000
179.000000
179.000000
179.000000
179.000000
179.000000
179.000000
179.000000
179.000000
178.950000
178.950000
178.950000
178.950000
178.950000
178.950000
178.950000
178.950000
178.900000
178.850000
178.850000
178.850000
178.850000
178.850000
178.850000
178.850000
178.850000
178.850000
178.850000
178.850000
178.850000
178.800000
178.750000
178.750000
178.750000
178.700000
178.650000
178.600000
178.600000
178.550000
178.400000
178.250000
178.100000
177.900000
177.650000
177.400000
177.100000
176.750000
176.400000
176.000000
175.600000
175.100000
174.500000
173.800000
173.100000
172.350000
171.500000
170.600000
169.700000
168.750000
167.750000
166.650000
165.500000
164.300000
163.050000
161.750000
160.350000
158.950000
157.450000
155.950000
154.350000
152.800000
151.250000
149.650000
147.950000
146.250000
144.600000
142.800000
140.900000
139.000000
137.100000
135.150000
133.150000
131.150000
129.100000
127.000000
124.950000
122.900000
120.850000
118.650000
116.500000
114.250000
112.000000
109.750000
107.500000
105.200000
102.850000
100.600000
98.300000
96.050000
93.800000
91.600000
89.400000
87.200000
85.050000
82.900000
80.750000
78.600000
76.500000
74.500000
72.500000
70.550000
68.650000
66.800000
64.950000
63.150000
61.400000
59.700000
58.050000
56.350000
54.700000
53.050000
51.500000
50.000000
48.550000
47.100000
45.650000
44.200000
42.750000
41.300000
39.900000
38.550000
37.200000
35.850000
34.550000
33.300000
32.100000
30.850000
29.650000
28.500000
27.350000
26.200000
24.950000
23.700000
22.500000
21.300000
20.150000
18.900000
17.650000
16.500000
15.350000
14.200000
13.050000
11.900000
10.750000
9.650000
8.550000
7.550000
6.600000
5.700000
4.850000
4.100000
3.450000
2.850000
2.250000
1.750000
1.300000
1.000000
0.750000
0.500000
0.300000
0.150000
0.050000
0.000000
0.000000
0.000000
0.000000
0.000000
0.000000
0.000000
0.000000
0.000000
0.000000
0.000000
0.000000
0.000000
0.000000
0.000000
0.000000
0.000000
0.000000
0.000000
0.000000
0.000000
0.000000
0.000000
0.000000
0.000000
0.000000
0.000000
0.000000
0.000000
0.000000
0.000000
0.000000
0.000000
0.000000
0.000000
0.000000
0.000000
0.000000
0.000000
0.000000
0.000000
0.000000
0.000000
0.000000
0.000000
0.000000
0.000000
0.000000
0.000000
0.000000
0.000000
0.000000
0.000000
0.000000
0.000000
0.000000
0.000000
0.000000
0.000000
0.000000
0.000000
0.000000
0.000000
0.000000
0.000000
0.000000
0.000000
0.000000
0.000000
0.050000
0.200000
0.450000
0.800000
1.350000
1.950000
2.650000
3.500000
4.450000
5.500000
6.600000
7.750000
8.950000
10.250000
11.650000
13.150000
14.750000
16.450000
18.250000
20.150000
22.050000
23.950000
25.800000
27.650000
29.350000
31.100000
32.800000
34.450000
36.050000
37.600000
39.150000
40.700000
42.300000
43.800000
45.250000
46.700000
48.100000
49.450000
50.700000
51.950000
53.200000
54.400000
55.650000
56.850000
58.050000
59.200000
60.400000
61.600000
62.800000
64.000000
65.150000
66.300000
67.400000
68.550000
69.750000
70.900000
72.000000
73.100000
74.250000
75.300000
76.350000
77.400000
78.400000
79.350000
80.300000
81.250000
82.100000
82.900000
83.700000
84.450000
85.250000
86.000000
86.750000
87.500000
88.200000
88.900000
89.600000
90.300000
90.950000
91.600000
92.250000
92.900000
93.600000
94.350000
95.050000
95.750000
96.450000
97.100000
97.700000
98.300000
98.900000
99.500000
100.050000
100.550000
101.050000
101.500000
102.000000
102.500000
103.000000
103.550000
104.050000
104.550000
104.950000
105.350000
105.800000
106.250000
106.750000
107.300000
107.900000
108.500000
109.150000
109.850000
110.550000
111.350000
112.150000
113.000000
113.800000
114.600000
115.450000
116.250000
117.100000
117.950000
118.850000
119.750000
120.600000
121.450000
122.300000
123.100000
123.900000
124.750000
125.550000
126.300000
127.100000
127.850000
128.600000
129.300000
130.050000
130.750000
131.450000
132.200000
132.950000
133.750000
134.500000
135.250000
136.000000
136.700000
137.350000
138.050000
138.700000
139.300000
139.900000
140.550000
141.200000
141.800000
142.400000
143.000000
143.550000
144.150000
144.750000
145.350000
145.950000
146.450000
146.950000
147.450000
147.950000
148.500000
149.050000
149.600000
150.150000
150.750000
151.300000
151.800000
152.300000
152.800000
153.250000
153.750000
154.250000
154.700000
155.150000
155.550000
155.900000
156.300000
156.700000
157.050000
157.400000
157.750000
158.100000
158.400000
158.700000
158.950000
159.200000
159.500000
159.750000
160.000000
160.300000
160.550000
160.850000
161.150000
161.400000
161.700000
162.000000
162.250000
162.500000
162.750000
163.000000
163.250000
163.500000
163.750000
164.000000
164.250000
164.550000
164.800000
165.050000
165.300000
165.550000
165.800000
166.050000
166.300000
166.550000
166.800000
167.050000
167.350000
167.650000
167.950000
168.300000
168.600000
168.900000
169.250000
169.550000
169.850000
170.150000
170.450000
170.750000
171.050000
171.300000
171.550000
171.700000
171.900000
172.100000
172.250000
172.450000
172.600000
172.750000
172.900000
172.950000
173.050000
173.150000
173.200000
173.350000
173.450000
173.500000
173.600000
173.700000
173.800000
173.900000
174.000000
174.150000
174.300000
174.400000
174.500000
174.600000
174.700000
174.800000
174.900000
175.050000
175.150000
175.250000
175.350000
175.400000
175.500000
175.600000
175.700000
175.800000
175.850000
175.950000
176.050000
176.150000
176.200000
176.300000
176.400000
176.450000
176.500000
176.550000
176.650000
176.750000
176.850000
176.900000
176.950000
177.050000
177.150000
177.250000
177.300000
177.350000
177.450000
177.500000
177.550000
177.600000
177.650000
177.700000
177.750000
177.800000
177.850000
177.900000
177.900000
177.900000
177.900000
177.950000
178.000000
178.000000
178.000000
178.000000
178.000000
178.000000
178.000000
178.000000
178.000000
178.000000
178.000000
178.000000
178.000000
178.000000
178.000000
178.000000
178.000000
178.000000
178.000000
178.000000
178.000000
178.000000
178.000000
178.000000
178.000000
178.000000
178.000000
178.000000
178.000000
178.000000
178.000000
178.000000
178.000000
178.000000
178.000000
178.000000
178.000000
178.000000
178.000000
178.000000
178.000000
178.000000
178.000000
178.000000
178.000000
178.000000
178.000000
178.000000
177.950000
177.900000
177.850000
177.800000
177.750000
177.650000
177.550000
177.450000
177.300000
177.150000
177.000000
176.750000
176.500000
176.250000
175.950000
175.650000
175.250000
174.850000
174.350000
173.800000
173.250000
172.650000
172.000000
171.300000
170.550000
169.800000
169.050000
168.250000
167.500000
166.700000
165.800000
164.950000
164.050000
163.100000
162.150000
161.150000
160.200000
159.150000
158.150000
157.150000
156.150000
155.100000
154.100000
153.100000
152.100000
151.100000
150.000000
148.900000
147.750000
146.600000
145.500000
144.400000
143.250000
142.050000
140.850000
139.650000
138.400000
137.150000
135.900000
134.600000
133.250000
131.950000
130.550000
129.100000
127.650000
126.200000
124.750000
123.250000
121.750000
120.200000
118.650000
117.100000
115.600000
114.100000
112.500000
110.900000
109.300000
107.700000
106.100000
104.500000
102.950000
101.300000
99.650000
98.050000
96.400000
94.700000
93.000000
91.350000
89.650000
87.950000
86.250000
84.500000
82.700000
80.900000
79.150000
77.400000
75.700000
74.050000
72.300000
70.600000
68.850000
67.200000
65.600000
63.950000
62.350000
60.750000
59.200000
57.650000
56.050000
54.500000
52.950000
51.450000
50.000000
48.550000
47.100000
45.600000
44.100000
42.550000
41.100000
39.650000
38.200000
36.750000
35.300000
33.900000
32.500000
31.150000
29.800000
28.400000
27.100000
25.750000
24.400000
23.050000
21.700000
20.350000
19.000000
17.700000
16.400000
15.150000
13.900000
12.650000
11.450000
10.300000
9.200000
8.150000
7.150000
6.200000
5.300000
4.500000
3.750000
3.100000
2.500000
1.950000
1.450000
1.050000
0.750000
0.500000
0.300000
0.150000
0.050000
0.000000
0.000000
0.000000
0.000000
0.000000
0.000000
0.000000
0.000000
0.000000
0.000000
0.000000
0.000000
0.000000
0.000000
0.000000
0.000000
0.000000
0.000000
0.000000
0.000000
0.000000
0.000000
0.000000
0.000000
0.000000
0.000000
0.000000
0.000000
0.000000
0.000000
0.000000
0.000000
0.000000
0.000000
0.000000
0.000000
0.000000
0.000000
0.000000
0.000000
0.000000
0.000000
0.000000
0.000000
0.000000
0.000000
0.000000
0.000000
0.000000
0.000000
0.000000
0.000000
0.000000
0.000000
0.000000
0.000000
0.000000
0.000000
0.000000
0.000000
0.000000
0.000000
0.000000
0.000000
0.000000
0.000000
0.000000
0.000000
0.000000
0.000000
0.000000
0.000000
0.000000
0.000000
0.000000
0.000000
0.000000
0.000000
0.000000
0.000000
0.000000
0.000000
0.000000
0.000000
0.000000
0.000000
0.000000
0.000000
0.000000
0.000000
0.100000
0.300000
0.600000
1.000000
1.550000
2.150000
2.850000
3.650000
4.550000
5.550000
6.650000
7.800000
9.000000
10.300000
11.650000
13.100000
14.650000
16.250000
18.000000
19.850000
21.650000
23.450000
25.250000
27.050000
28.750000
30.450000
32.100000
33.750000
35.400000
37.000000
38.550000
40.150000
41.750000
43.300000
44.900000
46.450000
47.950000
49.450000
50.900000
52.300000
53.750000
55.200000
56.600000
57.950000
59.400000
60.850000
62.300000
63.700000
65.050000
66.450000
67.850000
69.200000
70.600000
72.000000
73.350000
74.700000
76.050000
77.350000
78.650000
79.900000
81.100000
82.250000
83.400000
84.600000
85.700000
86.750000
87.800000
88.900000
90.050000
91.200000
92.300000
93.350000
94.350000
95.300000
96.200000
97.150000
98.050000
99.000000
99.900000
100.850000
101.750000
102.600000
103.450000
104.250000
105.050000
105.900000
106.700000
107.400000
108.050000
108.600000
109.200000
109.800000
110.350000
111.000000
111.650000
112.200000
112.800000
113.350000
113.900000
114.400000
114.950000
115.500000
116.050000
116.550000
117.000000
117.400000
117.850000
118.300000
118.700000
119.150000
119.550000
119.950000
120.400000
120.750000
121.100000
121.450000
121.750000
122.050000
122.350000
122.700000
123.000000
123.350000
123.700000
124.050000
124.400000
124.750000
125.050000
125.400000
125.750000
126.100000
126.500000
126.900000
127.300000
127.700000
128.150000
128.700000
129.250000
129.800000
130.350000
130.850000
131.350000
131.850000
132.350000
132.900000
133.500000
134.150000
134.850000
135.500000
136.200000
136.850000
137.500000
138.150000
138.800000
139.500000
140.200000
140.800000
141.450000
142.150000
142.850000
143.550000
144.300000
145.050000
145.750000
146.400000
147.050000
147.700000
148.300000
148.950000
149.550000
150.200000
150.800000
151.450000
152.100000
152.700000
153.300000
153.900000
154.450000
154.950000
155.450000
155.950000
156.400000
156.850000
157.300000
157.750000
158.150000
158.550000
158.950000
159.350000
159.800000
160.200000
160.650000
161.050000
161.400000
161.750000
162.100000
162.450000
162.850000
163.300000
163.700000
164.150000
164.650000
165.150000
165.650000
166.200000
166.750000
167.300000
167.850000
168.350000
168.800000
169.300000
169.750000
170.250000
170.750000
171.250000
171.750000
172.250000
172.700000
173.150000
173.600000
174.050000
174.450000
174.800000
175.200000
175.550000
175.900000
176.200000
176.500000
176.850000
177.150000
177.450000
177.750000
178.000000
178.250000
178.500000
178.750000
179.000000
179.250000
179.450000
179.650000
179.800000
179.950000
180.150000
180.300000
180.450000
180.600000
180.750000
180.900000
181.000000
181.150000
181.250000
181.350000
181.450000
181.600000
181.700000
181.750000
181.800000
181.850000
181.900000
182.000000
182.050000
182.150000
182.200000
182.200000
182.200000
182.250000
182.300000
182.350000
182.400000
182.400000
182.450000
182.500000
182.500000
182.450000
182.500000
182.550000
182.550000
182.550000
182.600000
182.550000
182.600000
182.600000
182.600000
182.600000
182.650000
182.600000
182.600000
182.600000
182.550000
182.550000
182.550000
182.550000
182.550000
182.550000
182.550000
182.550000
182.600000
182.600000
182.550000
182.550000
182.500000
182.450000
182.400000
182.350000
182.250000
182.150000
182.050000
181.900000
181.800000
181.650000
181.450000
181.200000
181.000000
180.700000
180.350000
179.950000
179.450000
179.000000
178.500000
177.950000
177.300000
176.600000
175.800000
175.000000
174.150000
173.250000
172.250000
171.250000
170.200000
169.100000
167.900000
166.650000
165.350000
164.050000
162.650000
161.200000
159.800000
158.300000
156.750000
155.200000
153.650000
152.050000
150.500000
148.900000
147.300000
145.700000
144.050000
142.350000
140.600000
138.850000
137.100000
135.350000
133.550000
131.750000
129.950000
128.150000
126.300000
124.500000
122.700000
120.850000
119.050000
117.200000
115.250000
113.300000
111.300000
109.300000
107.250000
105.250000
103.200000
101.200000
99.200000
97.150000
95.150000
93.150000
91.150000
89.150000
87.200000
85.200000
83.150000
81.100000
79.050000
77.100000
75.200000
73.300000
71.400000
69.500000
67.700000
65.850000
64.050000
62.250000
60.450000
58.700000
56.900000
55.150000
53.450000
51.750000
50.000000
48.250000
46.600000
44.950000
43.250000
41.550000
39.850000
38.200000
36.600000
35.050000
33.450000
31.900000
30.350000
28.800000
27.200000
25.700000
24.200000
22.600000
21.000000
19.450000
17.900000
16.350000
14.800000
13.350000
12.000000
10.700000
9.500000
8.350000
7.250000
6.200000
5.250000
4.350000
3.550000
2.800000
2.200000
1.600000
1.100000
0.750000
0.450000
0.200000
0.050000
0.000000
0.000000
0.000000
0.000000
0.000000
0.000000
0.000000
0.000000
0.000000
0.000000
0.000000
0.000000
0.000000
0.000000
0.000000
0.000000
0.000000
0.000000
0.000000
0.000000
0.000000
0.000000
0.000000
0.000000
0.000000
0.000000
0.000000
0.000000
0.000000
0.000000
0.000000
0.000000
0.000000
0.000000
0.000000
0.000000
0.000000
0.000000
0.000000
0.000000
0.000000
0.000000
0.000000
0.000000
0.000000
0.000000
0.000000
0.000000
0.000000
0.000000
0.000000
0.000000
0.000000
0.000000
0.000000
0.000000
0.000000
0.000000
0.000000
0.000000
0.000000
0.000000
0.000000
0.000000
0.000000
0.000000
0.000000
0.000000
0.000000
0.000000
0.000000
0.000000
0.000000
0.000000
0.000000
0.000000
0.000000
0.000000
0.000000
0.000000
0.000000
0.000000
0.000000
0.000000
0.000000
0.000000
0.000000
0.000000
0.000000
0.000000
0.000000
0.000000
0.000000
0.000000
0.000000
0.000000
0.000000
0.000000
0.000000
0.000000
0.000000
0.000000
0.000000
0.000000
0.000000
0.000000
0.000000
0.000000
0.000000
0.000000
0.000000
0.000000
0.000000
0.000000
0.000000
0.000000
0.000000
0.000000
0.000000
0.000000
0.000000
0.000000
0.000000
0.000000
0.000000
0.000000
0.000000
0.000000
0.000000
0.000000
0.000000
0.000000
0.000000
0.000000
0.000000
0.000000
0.000000
0.000000
0.000000
0.000000
0.000000
0.000000
0.000000
0.000000
0.000000
0.000000
0.000000
0.000000
0.000000
0.000000
0.000000
0.000000
0.000000
0.000000
0.000000
0.000000
0.000000
0.000000
0.000000
0.000000
0.000000
0.000000
0.000000
0.000000
0.000000
0.000000
0.000000
0.000000
0.000000
0.000000
0.000000
0.000000
0.000000
0.000000
0.000000
0.000000
0.000000
0.000000
0.000000
0.000000
0.000000
0.000000
0.000000
0.000000
0.000000
0.000000
0.000000
0.000000
0.000000
0.000000
0.000000
0.000000
0.000000
0.000000
0.000000
0.000000
0.000000
0.000000
0.000000
0.000000
0.000000
0.000000
0.000000
0.000000
0.000000
0.000000
0.000000
0.000000
0.000000
0.000000
0.000000
0.000000
0.000000
0.000000
0.000000
0.000000
0.000000
0.000000
0.000000
0.000000
0.000000
0.000000
0.000000
0.000000
0.000000
0.000000
0.000000
0.000000
0.000000
0.000000
0.000000
0.000000
0.000000
0.000000
0.000000
0.000000
0.000000
0.000000
0.000000
0.000000
0.000000
0.000000
0.000000
0.000000
0.000000
0.000000
0.000000
0.000000
0.000000
0.000000
0.000000
0.000000
0.000000
0.000000
0.000000
0.000000
0.000000
0.000000
0.000000
0.000000
0.000000
0.000000
0.000000
0.000000
0.000000
0.000000
0.000000
0.000000
0.000000
0.000000
0.000000
0.000000
0.000000
0.000000
0.000000
0.000000
0.000000
0.000000
0.000000
0.000000
0.000000
0.000000
0.000000
0.000000
0.000000
0.000000
0.000000
0.000000
0.000000
0.000000
0.000000
0.000000
0.000000
0.000000
0.000000
0.000000
0.000000
0.000000
0.000000
0.000000
0.000000
0.000000
0.000000
0.000000
0.000000
0.000000
0.000000
0.000000
0.000000
0.000000
0.000000
0.000000
0.000000
0.000000
0.000000
0.000000
0.000000
0.000000
0.000000
0.000000
0.000000
0.000000
0.000000
0.000000
0.000000
0.000000
0.000000
0.000000
0.000000
0.000000
0.000000
0.000000
0.000000
0.000000
0.000000
0.000000
0.000000
0.000000
0.000000
0.000000
0.000000
0.000000
0.000000
0.000000
0.000000
0.000000
0.000000
0.000000
0.000000
0.000000
0.000000
0.000000
0.000000
0.000000
0.000000
0.000000
0.000000
0.000000
0.000000
0.000000
0.000000
0.000000
0.000000
0.000000
0.000000
0.000000
0.000000
0.000000
0.000000
0.000000
0.000000
0.000000
0.000000
0.000000
0.000000
0.000000
0.000000
0.000000
0.000000
0.000000
0.000000
0.000000
0.000000
0.000000
0.000000
0.000000
0.000000
0.000000
0.000000
0.000000
0.000000
0.000000
0.000000
0.000000
0.000000
0.000000
0.000000
0.000000
0.000000
0.000000
0.000000
0.000000
0.000000
0.000000
0.000000
0.000000
0.000000
0.000000
0.000000
0.000000
0.000000
0.000000
0.000000
0.000000
0.000000
0.000000
0.000000
0.000000
0.000000
0.000000
0.000000
0.000000
0.000000
0.000000
0.000000
0.000000
0.000000
0.000000
0.000000
0.000000
0.000000
0.000000
0.000000
0.000000
0.000000
0.000000
0.000000
0.000000
0.000000
0.000000
0.000000
0.000000
0.000000
0.000000
0.000000
0.000000
0.000000
0.000000
0.000000
0.000000
0.000000
0.000000
0.000000
0.000000
0.000000
0.000000
0.000000
0.000000
0.000000
0.000000
0.000000
0.000000
0.000000
0.000000
0.000000
0.000000
0.000000
0.000000
0.000000
0.000000
0.000000
0.000000
0.000000
0.000000
0.000000
0.000000
0.000000
0.000000
0.000000
0.000000
0.000000
0.000000
0.000000
0.000000
0.000000
0.000000
0.000000
0.000000
0.000000
0.000000
0.000000
0.000000
0.000000
0.000000
0.000000
0.000000
0.000000
0.000000
0.000000
0.000000
0.000000
0.000000
0.000000
0.000000
0.000000
0.000000
0.000000
0.000000
0.000000
0.000000
0.000000
0.000000
0.000000
0.000000
0.000000
0.000000
0.000000
0.000000
0.000000
0.000000
0.000000
0.000000
0.000000
0.000000
0.000000
0.000000
0.000000
0.000000
0.000000
0.000000
0.000000
0.000000
0.000000
0.000000
0.000000
0.000000
0.000000
0.000000
0.000000
0.000000
0.000000
0.000000
0.000000
0.000000
0.000000
0.000000
0.000000
0.000000
0.000000
0.000000
0.000000
0.000000
0.000000
0.000000
0.000000
0.000000
0.000000
0.000000
0.000000
0.000000
0.000000
0.000000
0.000000
0.000000
0.000000
0.000000
0.000000
0.000000
0.000000
0.000000
0.000000
0.000000
0.000000
0.000000
0.000000
0.000000
0.000000
0.000000
0.000000
0.000000
0.000000
0.000000
0.000000
0.000000
0.000000
0.000000
0.000000
0.000000
0.000000
0.000000
0.000000
0.000000
0.000000
0.000000
0.000000
0.000000
0.000000
0.000000
0.000000
0.000000
0.000000
0.000000
0.000000
0.000000
0.000000
0.000000
0.000000
0.000000
0.000000
0.000000
0.000000
0.000000
0.000000
0.000000
0.000000
0.000000
0.000000
0.000000
0.000000
0.000000
0.000000
0.000000
0.000000
0.000000
0.000000
0.000000
0.000000
0.000000
0.000000
0.000000
0.000000
0.000000
0.000000
0.000000
0.000000
0.000000
0.000000
0.000000
0.000000
0.000000
0.000000
0.000000
0.000000
0.000000
0.000000
0.000000
0.000000
0.000000
0.000000
0.000000
0.000000
0.000000
0.000000
0.000000
0.000000
0.000000
0.000000
0.000000
0.000000
0.000000
0.000000
0.000000
0.000000
0.000000
0.000000
0.000000
0.000000
0.000000
0.000000
0.000000
0.000000
0.000000
0.000000
0.000000
0.000000
0.000000
0.000000
0.000000
0.000000
0.000000
0.000000
0.000000
0.000000
0.000000
0.000000
0.000000
0.000000
0.000000
0.000000
0.000000
0.000000
0.000000
0.000000
0.000000
0.000000
0.000000
0.000000
0.000000
0.000000
0.000000
0.000000
0.000000
0.000000
0.000000
0.000000
0.000000
0.000000
0.000000
0.000000
0.000000
0.000000
0.000000
0.000000
0.000000
0.000000
0.000000
0.000000
0.000000
0.000000
0.000000
0.000000
0.000000
0.000000
0.000000
0.000000
0.000000
0.000000
0.000000
0.000000
0.000000
0.000000
0.000000
0.000000
0.000000
0.000000
0.000000
0.000000
0.000000
0.000000
0.000000
0.000000
0.000000
0.000000
0.000000
0.000000
0.000000
0.000000
0.000000
0.000000
0.000000
0.000000
0.000000
0.000000
0.000000
0.000000
0.000000
0.000000
0.000000
0.000000
0.000000
0.000000
0.000000
0.000000
0.000000
0.000000
0.000000
0.000000
0.000000
0.000000
0.000000
0.000000
0.000000
0.000000
0.000000
0.000000
0.000000
0.000000
Trigger de alvo atingido para sinal de força
0
0
0
0
0
0
0
0
0
0
0
0
0
0
0
0
0
0
0
0
0
0
0
0
0
0
0
0
0
0
0
0
0
0
0
0
0
0
0
0
0
0
0
0
0
0
0
0
0
0
0
0
0
0
0
0
0
0
0
0
0
0
0
0
0
0
0
0
0
0
0
0
0
0
0
0
0
0
0
0
0
0
0
0
0
0
0
0
0
0
0
0
0
0
0
0
0
0
0
0
0
0
0
0
0
0
0
0
0
0
0
0
0
0
0
0
0
0
0
0
0
0
0
0
0
0
0
0
0
0
0
0
0
0
0
0
0
0
0
0
0
0
0
0
0
0
0
0
0
0
0
0
0
0
0
0
0
0
0
0
0
0
0
0
0
0
0
0
0
0
0
0
0
0
0
0
0
0
0
0
0
0
0
0
0
0
0
0
0
0
0
0
0
0
0
0
0
0
0
0
0
0
0
0
0
0
0
0
0
0
0
0
0
0
0
0
0
0
0
0
0
0
0
0
0
0
0
0
0
0
0
0
0
0
0
0
0
0
0
0
0
0
0
0
0
0
0
0
0
0
0
0
0
0
0
0
0
0
0
0
0
0
0
0
0
0
0
0
0
0
0
0
0
0
0
0
0
0
0
0
0
0
0
0
0
0
0
0
0
0
0
0
0
0
0
0
0
0
0
0
0
0
0
0
0
0
0
0
0
0
0
0
0
0
0
0
0
0
0
0
0
0
0
0
0
0
0
0
0
0
0
0
0
0
0
0
0
0
0
0
0
0
0
0
0
0
0
0
0
0
0
0
0
0
0
0
0
0
0
0
0
0
0
0
0
0
0
0
0
0
0
0
0
0
0
0
0
0
0
0
0
0
0
0
0
0
0
0
0
0
0
0
0
0
0
0
0
0
0
0
0
0
0
0
0
0
0
0
0
0
0
0
0
0
0
0
0
0
0
0
0
0
0
0
0
0
0
0
0
0
0
0
0
0
0
0
0
0
0
0
0
0
0
0
0
0
0
0
0
0
0
0
0
0
0
0
0
0
0
0
0
0
0
0
0
0
0
0
0
0
0
0
0
0
0
0
0
0
0
0
0
0
0
0
0
0
0
0
0
0
0
0
0
0
0
0
0
0
0
0
0
0
0
0
0
0
0
0
0
0
0
0
0
0
0
0
0
0
0
0
0
0
0
0
0
0
0
0
0
0
0
0
0
0
0
0
0
0
0
0
0
0
0
0
0
0
0
0
0
0
0
0
0
0
0
0
0
0
0
0
0
0
0
0
0
0
0
0
0
0
0
0
0
0
0
0
0
0
0
0
0
0
0
0
0
0
0
0
0
0
0
0
0
0
0
0
0
0
0
0
0
0
0
0
0
0
0
0
0
0
0
0
0
0
0
0
0
0
0
0
0
0
0
0
0
0
0
0
0
0
0
0
0
0
0
0
0
0
0
0
0
0
0
0
0
0
0
0
0
0
0
0
0
0
0
0
0
0
0
0
0
0
0
0
0
0
0
0
0
0
0
0
0
0
0
0
0
0
0
0
0
0
0
0
0
0
0
0
0
0
0
0
0
0
0
0
0
0
0
0
0
0
0
0
0
0
0
0
0
0
0
0
0
0
0
0
0
0
0
0
0
0
0
0
0
0
0
0
0
0
0
0
0
0
0
0
0
0
0
0
0
0
0
0
0
0
0
0
0
0
0
0
0
0
0
0
0
0
0
0
0
0
0
0
0
0
0
0
0
0
0
0
0
0
0
0
0
0
0
0
0
0
0
0
0
0
0
0
0
0
0
0
0
0
0
0
0
0
0
0
0
0
0
0
0
0
0
0
0
0
0
0
0
0
0
0
0
0
0
0
0
0
0
0
0
0
0
0
0
0
0
0
0
0
0
0
0
0
0
0
0
0
0
0
0
0
0
0
0
0
0
0
0
0
0
0
0
0
0
0
0
0
0
0
0
0
0
0
0
0
0
0
0
0
0
0
0
0
0
0
0
0
0
0
0
0
0
0
0
0
0
0
0
0
0
0
0
0
0
0
0
0
0
0
0
0
0
0
0
0
0
0
0
0
0
0
0
0
0
0
0
0
0
0
0
0
0
0
0
0
0
0
0
0
0
0
0
0
0
0
0
0
0
0
0
0
0
0
0
0
0
0
0
0
0
0
0
0
0
0
0
0
0
0
0
0
0
0
0
0
0
0
0
0
0
0
0
0
0
0
0
0
0
0
0
0
0
0
0
0
0
0
0
0
0
0
0
0
0
0
0
0
0
0
0
0
0
0
0
0
0
0
0
0
0
0
0
0
0
0
0
0
0
0
0
0
0
0
0
0
0
0
0
0
0
0
0
0
0
0
0
0
0
0
0
0
0
0
0
0
0
0
0
0
0
0
0
0
0
0
0
0
0
0
0
0
0
0
0
0
0
0
0
0
0
0
0
0
0
0
0
0
0
0
0
0
0
0
0
0
0
0
0
0
0
0
0
0
0
0
0
0
0
0
0
0
0
0
0
0
0
0
0
0
0
0
0
0
0
0
0
0
0
0
0
0
0
0
0
0
0
0
0
0
0
0
0
0
0
0
0
0
0
0
0
0
0
0
0
0
0
0
0
0
0
0
0
0
0
0
0
0
0
0
0
0
0
0
0
0
0
0
0
0
0
0
0
0
0
0
0
0
0
0
0
0
0
0
0
0
0
0
0
0
0
0
0
0
0
0
0
0
0
0
0
0
0
0
0
0
0
0
0
0
0
0
0
0
0
0
0
0
0
0
0
1
0
0
0
0
0
0
0
0
0
0
0
0
0
0
0
0
0
0
0
0
0
0
0
0
0
0
0
0
0
0
0
0
0
0
0
0
0
0
0
0
0
0
0
0
0
0
0
0
0
0
0
0
0
0
0
0
0
0
0
0
0
0
0
0
0
0
0
0
0
0
0
0
0
0
0
0
0
0
0
0
0
0
0
0
0
0
0
0
0
0
0
0
0
0
0
0
0
0
0
0
0
0
0
0
0
0
0
0
0
0
0
0
0
0
0
0
0
0
0
0
0
0
0
0
0
0
0
0
0
0
0
0
0
0
0
0
0
0
0
0
0
0
0
0
0
0
0
0
0
0
0
0
0
0
0
0
0
0
0
0
0
0
0
0
0
0
0
0
0
0
0
0
0
0
0
0
0
0
0
0
0
0
0
0
0
0
0
0
0
0
0
0
0
0
0
0
0
0
0
0
0
0
0
0
0
0
0
0
0
0
0
0
0
0
0
0
0
0
0
0
0
0
0
0
0
0
0
0
0
0
0
0
0
0
0
0
0
0
0
0
0
0
0
0
0
0
0
0
0
0
0
0
0
0
0
0
0
0
0
0
0
0
0
0
0
0
0
0
0
0
0
0
0
0
0
0
0
0
0
0
0
0
0
0
0
0
0
0
0
0
0
0
0
0
0
0
0
0
0
0
0
0
0
0
0
0
0
0
0
0
0
0
0
0
0
0
0
0
0
0
0
0
0
0
0
0
0
0
0
0
0
0
0
0
0
0
0
0
0
0
0
0
0
0
0
0
0
0
0
0
0
0
0
0
0
0
0
0
0
0
0
0
0
0
0
0
0
0
0
0
0
0
0
0
0
0
0
0
0
0
0
0
0
0
0
0
0
0
0
0
0
0
0
0
0
0
0
0
0
0
0
0
0
0
0
0
0
0
0
0
0
0
0
0
0
0
0
0
0
0
0
0
0
0
0
0
0
0
0
0
0
0
0
0
0
0
0
0
0
0
0
0
0
0
0
0
0
0
0
0
0
0
0
0
0
0
0
0
0
0
0
0
0
0
0
0
0
0
0
0
0
0
0
0
0
0
0
0
0
0
0
0
0
0
0
0
0
0
0
0
0
0
0
0
0
0
0
0
0
0
0
0
0
0
0
0
0
0
0
0
0
0
0
0
0
0
0
0
0
0
0
0
0
0
0
0
0
0
0
0
0
0
0
0
0
0
0
0
0
0
0
0
0
0
0
0
0
0
0
0
0
0
0
0
0
0
0
0
0
0
0
0
0
0
0
0
0
0
0
0
0
0
0
0
0
0
0
0
0
0
0
0
0
0
0
0
0
0
0
0
0
0
0
0
0
0
0
0
0
0
0
0
0
0
0
0
0
0
0
0
0
0
0
0
0
0
0
0
0
0
0
0
0
0
0
0
0
0
0
0
0
0
0
0
0
0
0
0
0
0
0
0
0
0
0
0
0
0
0
0
0
0
0
0
0
0
0
0
0
0
0
0
0
0
0
0
0
0
0
0
0
0
0
0
0
0
0
0
0
0
0
0
0
0
0
0
0
0
0
0
0
0
0
0
0
0
0
0
0
0
0
0
0
0
0
0
0
0
0
0
0
0
0
0
0
0
0
0
0
0
0
0
0
0
0
0
0
0
0
0
0
0
0
0
0
0
0
0
0
0
0
0
0
0
0
0
0
0
0
0
0
0
0
0
0
0
0
0
0
0
0
0
0
0
0
0
0
0
0
0
0
0
0
0
0
0
0
0
0
0
0
0
0
0
0
0
0
0
0
0
0
0
0
0
0
0
0
0
0
0
0
0
0
0
0
0
0
0
0
0
0
0
0
0
0
0
0
0
0
0
0
0
0
0
0
0
0
0
0
0
0
0
0
0
0
0
0
0
0
0
0
0
0
0
0
0
0
0
0
0
0
0
0
0
0
0
0
0
0
0
0
0
0
0
0
0
0
0
0
0
0
0
0
0
0
0
0
0
0
0
0
0
0
0
0
0
0
0
0
0
0
0
0
0
0
0
0
0
0
0
0
0
0
0
0
0
0
0
0
0
0
0
0
0
0
0
0
0
0
0
0
0
0
0
0
0
0
0
0
0
0
0
0
0
0
0
0
0
0
0
0
0
0
0
0
0
0
0
0
0
0
0
0
0
0
0
0
0
0
0
0
0
0
0
0
0
0
0
0
0
0
0
0
0
0
0
0
0
0
0
0
0
0
0
0
0
0
0
0
0
0
0
0
0
0
0
0
0
0
0
0
0
0
0
0
0
0
0
0
0
0
0
0
0
0
0
0
0
0
0
0
0
0
0
0
0
0
0
0
0
0
0
0
0
0
0
0
0
0
0
0
0
0
0
0
0
0
0
0
0
0
0
0
0
0
0
0
0
0
0
0
0
0
0
0
0
0
0
0
0
0
0
0
0
0
0
0
0
0
0
0
0
0
0
0
0
0
0
0
0
0
0
0
0
0
0
0
0
0
0
0
0
0
0
0
0
0
0
0
0
0
0
0
0
0
0
0
0
0
0
0
0
0
0
0
0
0
0
0
0
0
0
0
0
0
0
0
0
0
0
0
0
0
0
0
0
0
0
0
0
0
0
0
0
0
0
0
0
0
0
0
0
0
0
0
0
0
0
0
0
0
0
0
0
0
0
0
0
0
0
0
0
0
0
0
0
0
0
0
0
0
0
0
0
0
0
0
0
0
0
0
0
0
0
0
0
0
0
0
0
0
0
0
0
0
0
0
0
0
0
0
0
0
0
0
0
0
0
0
0
0
0
0
0
0
0
0
0
0
0
0
0
0
0
0
0
0
0
0
0
0
0
0
0
0
0
0
0
0
0
0
0
0
0
0
0
0
0
0
0
0
0
0
0
0
0
0
0
0
0
0
0
0
0
0
0
0
0
0
0
0
0
0
0
0
0
0
0
0
0
0
0
0
0
0
0
0
0
0
0
0
0
0
0
0
0
0
0
0
0
0
0
0
0
0
0
0
0
0
0
0
0
0
0
0
0
0
0
0
0
0
0
0
0
0
0
0
0
0
0
0
0
0
0
0
0
0
0
0
0
0
0
0
0
0
0
0
0
0
0
0
0
0
0
0
0
0
0
0
0
0
0
0
0
0
0
0
0
0
0
0
0
0
0
0
0
0
0
0
0
0
0
0
0
0
0
0
0
0
0
0
0
0
0
0
0
0
0
0
0
0
0
0
0
0
0
0
0
0
0
0
0
0
0
0
0
0
0
0
0
0
0
0
0
0
0
0
0
0
0
0
0
0
0
0
0
0
0
0
0
0
0
0
0
0
0
0
0
0
0
0
0
0
0
0
0
0
0
0
0
0
0
0
0
0
0
0
0
0
0
0
0
0
0
0
0
0
0
0
0
0
0
0
0
0
0
0
0
0
0
0
0
0
0
0
0
0
0
0
0
0
0
0
0
0
0
0
0
0
0
0
0
0
0
0
0
0
0
0
0
0
0
0
0
0
0
0
0
0
0
0
0
0
0
0
0
0
0
0
0
0
0
0
0
0
0
0
0
0
0
0
0
0
0
0
0
0
0
0
0
0
0
0
0
0
0
0
0
0
0
0
0
0
0
0
0
0
0
0
0
0
0
0
0
0
0
0
0
0
0
0
0
0
0
0
0
0
0
0
0
0
0
0
0
0
0
0
0
0
0
0
0
0
0
0
0
0
0
0
0
0
0
0
0
0
0
0
0
0
0
0
0
0
0
0
0
0
0
0
0
0
0
0
0
0
0
0
0
0
0
0
0
0
0
0
0
0
0
0
0
0
0
0
0
0
0
0
0
0
0
0
0
0
0
0
0
0
0
0
0
0
0
0
0
0
0
0
0
0
0
0
0
0
0
0
0
0
0
0
0
0
0
0
0
0
0
0
0
0
0
1
0
0
0
0
0
0
0
0
0
0
0
0
0
0
0
0
0
0
0
0
0
0
0
0
0
0
0
0
0
0
0
0
0
0
0
0
0
0
0
0
0
0
0
0
0
0
0
0
0
0
0
0
0
0
0
0
0
0
0
0
0
0
0
0
0
0
0
0
0
0
0
0
0
0
0
0
0
0
0
0
0
0
0
0
0
0
0
0
0
0
0
0
0
0
0
0
0
0
0
0
0
0
0
0
0
0
0
0
0
0
0
0
0
0
0
0
0
0
0
0
0
0
0
0
0
0
0
0
0
0
0
0
0
0
0
0
0
0
0
0
0
0
0
0
0
0
0
0
0
0
0
0
0
0
0
0
0
0
0
0
0
0
0
0
0
0
0
0
0
0
0
0
0
0
0
0
0
0
0
0
0
0
0
0
0
0
0
0
0
0
0
0
0
0
0
0
0
0
0
0
0
0
0
0
0
0
0
0
0
0
0
0
0
0
0
0
0
0
0
0
0
0
0
0
0
0
0
0
0
0
0
0
0
0
0
0
0
0
0
0
0
0
0
0
0
0
0
0
0
0
0
0
0
0
0
0
0
0
0
0
0
0
0
0
0
0
0
0
0
0
0
0
0
0
0
0
0
0
0
0
0
0
0
0
0
0
0
0
0
0
0
0
0
0
0
0
0
0
0
0
0
0
0
0
0
0
0
0
0
0
0
0
0
0
0
0
0
0
0
0
0
0
0
0
0
0
0
0
0
0
0
0
0
0
0
0
0
0
0
0
0
0
0
0
0
0
0
0
0
0
0
0
0
0
0
0
0
0
0
0
0
0
0
0
0
0
0
0
0
0
0
0
0
0
0
0
0
0
0
0
0
0
0
0
0
0
0
0
0
0
0
0
0
0
0
0
0
0
0
0
0
0
0
0
0
0
0
0
0
0
0
0
0
0
0
0
0
0
0
0
0
0
0
0
0
0
0
0
0
0
0
0
0
0
0
0
0
0
0
0
0
0
0
0
0
0
0
0
0
0
0
0
0
0
0
0
0
0
0
0
0
0
0
0
0
0
0
0
0
0
0
0
0
0
0
0
0
0
0
0
0
0
0
0
0
0
0
0
0
0
0
0
0
0
0
0
0
0
0
0
0
0
0
0
0
0
0
0
0
0
0
0
0
0
0
0
0
0
0
0
0
0
0
0
0
0
0
0
0
0
0
0
0
0
0
0
0
0
0
0
0
0
0
0
0
0
0
0
0
0
0
0
0
0
0
0
0
0
0
0
0
0
0
0
0
0
0
0
0
0
0
0
0
0
0
0
0
0
0
0
0
0
0
0
0
0
0
0
0
0
0
0
0
0
0
0
0
0
0
0
1
0
0
0
0
0
0
0
0
0
0
0
0
0
0
0
0
0
0
0
0
0
0
0
0
0
0
0
0
0
0
0
0
0
0
0
0
0
0
0
0
0
0
0
0
0
0
0
0
0
0
0
0
0
0
0
0
0
0
0
0
0
0
0
0
0
0
0
0
0
0
0
0
0
0
0
0
0
0
0
0
0
0
0
0
0
0
0
0
0
0
0
0
0
0
0
0
0
0
0
0
0
0
0
0
0
0
0
0
0
0
0
0
0
0
0
0
0
0
0
0
0
0
0
0
0
0
0
0
0
0
0
0
0
0
0
0
0
0
0
0
0
0
0
0
0
0
0
0
0
0
0
0
0
0
0
0
0
0
0
0
0
0
0
0
0
0
0
0
0
0
0
0
0
0
0
0
0
0
0
0
0
0
0
0
0
0
0
0
0
0
0
0
0
0
0
0
0
0
0
0
0
0
0
0
0
0
0
0
0
0
0
0
0
0
0
0
0
0
0
0
0
0
0
0
0
0
0
0
0
0
0
0
0
0
0
0
0
0
0
0
0
0
0
0
0
0
0
0
0
0
0
0
0
0
0
0
0
0
0
0
0
0
0
0
0
0
0
0
0
0
0
0
0
0
0
0
0
0
0
0
0
0
0
0
0
0
0
0
0
0
0
0
0
0
0
0
0
0
0
0
0
0
0
0
0
0
0
0
0
0
0
0
0
0
0
0
0
0
0
0
0
0
0
0
0
0
0
0
0
0
0
0
0
0
0
0
0
0
0
0
0
0
0
0
0
0
0
0
0
0
0
0
0
0
0
0
0
0
0
0
0
0
0
0
0
0
0
0
0
0
0
0
0
0
0
0
0
0
0
0
0
0
0
0
0
0
0
0
0
0
0
0
0
0
0
0
0
0
0
0
0
0
0
0
0
0
0
0
0
0
0
0
0
0
0
0
0
0
0
0
0
0
0
0
0
0
0
0
0
0
0
0
0
0
0
0
0
0
0
0
0
0
0
0
0
0
0
0
0
0
0
0
0
0
0
0
0
0
0
0
0
0
0
0
0
0
0
0
0
0
0
0
0
0
0
0
0
0
0
0
0
0
0
0
0
0
0
0
0
0
0
0
0
0
0
0
0
0
0
0
0
0
0
0
0
0
0
0
0
0
0
0
0
0
0
0
0
0
0
0
0
0
0
0
0
0
0
0
0
0
0
0
0
0
0
0
0
0
0
0
0
0
0
0
0
0
0
0
0
0
1
0
0
0
0
0
0
0
0
0
0
0
0
0
0
0
0
0
0
0
0
0
0
0
0
0
0
0
0
0
0
0
0
0
0
0
0
0
0
0
0
0
0
0
0
0
0
0
0
0
0
0
0
0
0
0
0
0
0
0
0
0
0
0
0
0
0
0
0
0
0
0
0
0
0
0
0
0
0
0
0
0
0
0
0
0
0
0
0
0
0
0
0
0
0
0
0
0
0
0
0
0
0
0
0
0
0
0
0
0
0
0
0
0
0
0
0
0
0
0
0
0
0
0
0
0
0
0
0
0
0
0
0
0
0
0
0
0
0
0
0
0
0
0
0
0
0
0
0
0
0
0
0
0
0
0
0
0
0
0
0
0
0
0
0
0
0
0
0
0
0
0
0
0
0
0
0
0
0
0
0
0
0
0
0
0
0
0
0
0
0
0
0
0
0
0
0
0
0
0
0
0
0
0
0
0
0
0
0
0
0
0
0
0
0
0
0
0
0
0
0
0
0
0
0
0
0
0
0
0
0
0
0
0
0
0
0
0
0
0
0
0
0
0
0
0
0
0
0
0
0
0
0
0
0
0
0
0
0
0
0
0
0
0
0
0
0
0
0
0
0
0
0
0
0
0
0
0
0
0
0
0
0
0
0
0
0
0
0
0
0
0
0
0
0
0
0
0
0
0
0
0
0
0
0
0
0
0
0
0
0
0
0
0
0
0
0
0
0
0
0
0
0
0
0
0
0
0
0
0
0
0
0
0
0
0
0
0
0
0
0
0
0
0
0
0
0
0
0
0
0
0
0
0
0
0
0
0
0
0
0
0
0
0
0
0
0
0
0
0
0
0
0
0
0
0
0
0
0
0
0
0
0
0
0
0
0
0
0
0
0
0
0
0
0
0
0
0
0
0
0
0
0
0
0
0
0
0
0
0
0
0
0
0
0
0
0
0
0
0
0
0
0
0
0
0
0
0
0
0
0
0
0
0
0
0
0
0
0
0
0
0
0
0
0
0
0
0
0
0
0
0
0
0
0
0
0
0
0
0
0
0
0
0
0
0
0
0
0
0
0
0
0
0
0
0
0
0
0
0
0
0
0
0
0
0
0
0
0
0
0
0
0
0
0
0
0
0
0
0
0
0
0
0
0
0
0
0
0
0
0
0
0
0
0
0
0
0
0
0
0
0
0
0
0
0
0
0
0
0
0
0
0
0
0
0
0
0
0
0
0
0
0
0
0
0
0
0
0
0
0
0
0
0
0
0
0
0
0
0
0
0
0
0
0
0
0
0
0
0
0
0
0
0
0
0
0
0
0
0
0
0
0
0
0
0
0
0
0
0
0
1
0
0
0
0
0
0
0
0
0
0
0
0
0
0
0
0
0
0
0
0
0
0
0
0
0
0
0
0
0
0
0
0
0
0
0
0
0
0
0
0
0
0
0
0
0
0
0
0
0
0
0
0
0
0
0
0
0
0
0
0
0
0
0
0
0
0
0
0
0
0
0
0
0
0
0
0
0
0
0
0
0
0
0
0
0
0
0
0
0
0
0
0
0
0
0
0
0
0
0
0
0
0
0
0
0
0
0
0
0
0
0
0
0
0
0
0
0
0
0
0
0
0
0
0
0
0
0
0
0
0
0
0
0
0
0
0
0
0
0
0
0
0
0
0
0
0
0
0
0
0
0
0
0
0
0
0
0
0
0
0
0
0
0
0
0
0
0
0
0
0
0
0
0
0
0
0
0
0
0
0
0
0
0
0
0
0
0
0
0
0
0
0
0
0
0
0
0
0
0
0
0
0
0
0
0
0
0
0
0
0
0
0
0
0
0
0
0
0
0
0
0
0
0
0
0
0
0
0
0
0
0
0
0
0
0
0
0
0
0
0
0
0
0
0
0
0
0
0
0
0
0
0
0
0
0
0
0
0
0
0
0
0
0
0
0
0
0
0
0
0
0
0
0
0
0
0
0
0
0
0
0
0
0
0
0
0
0
0
0
0
0
0
0
0
0
0
0
0
0
0
0
0
0
0
0
0
0
0
0
0
0
0
0
0
0
0
0
0
0
0
0
0
0
0
0
0
0
0
0
0
0
0
0
0
0
0
0
0
0
0
0
0
0
0
0
0
0
0
0
0
0
0
0
0
0
0
0
0
0
0
0
0
0
0
0
0
0
0
0
0
0
0
0
0
0
0
0
0
0
0
0
0
0
0
0
0
0
0
0
0
0
0
0
0
0
0
0
0
0
0
0
0
0
0
0
0
0
0
0
0
0
0
0
0
0
0
0
0
0
0
0
0
0
0
0
0
0
0
0
0
0
0
0
0
0
0
0
0
0
0
0
0
0
0
0
0
0
0
0
0
0
0
0
0
0
0
0
0
0
0
0
0
0
0
0
0
0
0
0
0
0
0
0
0
0
0
0
0
0
0
0
0
0
0
0
0
0
0
0
0
0
0
0
0
0
0
0
0
0
0
0
0
0
0
0
0
0
0
0
0
0
0
0
0
0
0
0
0
0
0
0
0
0
0
0
0
0
0
0
0
0
0
0
0
0
0
0
0
0
0
0
0
0
0
0
0
0
0
0
0
0
0
0
0
0
0
0
0
0
0
0
0
0
0
0
0
0
0
0
0
0
0
0
0
0
0
0
0
0
0
0
0
0
0
0
0
0
0
0
0
0
0
0
0
0
0
0
0
0
0
0
0
0
0
0
0
0
0
0
0
0
0
0
0
0
0
0
0
0
0
0
0
0
0
0
0
0
0
0
0
0
0
0
0
0
0
0
0
0
0
0
0
0
0
0
0
0
0
0
0
0
0
0
0
0
0
0
0
0
0
0
0
0
0
0
0
0
0
0
0
0
0
0
0
0
0
0
0
0
0
0
0
0
0
0
0
0
0
0
0
0
0
0
0
0
0
0
0
0
0
0
0
0
0
0
0
0
0
0
0
0
0
0
0
0
0
0
0
0
0
0
0
0
0
0
0
0
0
0
0
0
0
0
0
0
0
0
0
0
0
0
0
0
0
0
0
0
0
0
0
0
0
0
0
0
0
0
0
0
0
0
0
0
0
0
0
0
0
0
0
0
0
0
0
0
0
0
0
0
0
0
0
0
0
0
0
0
0
0
0
0
0
0
0
0
0
0
0
0
0
0
0
0
0
0
0
0
0
0
0
0
0
0
0
0
0
0
0
0
0
0
0
0
0
0
0
0
0
0
0
0
0
0
0
0
0
0
0
0
0
0
0
0
0
0
0
0
0
0
0
0
0
0
0
0
0
0
0
0
0
0
0
0
0
0
0
0
0
0
0
0
0
0
0
0
0
0
0
0
0
0
0
0
0
0
0
0
0
0
0
0
0
0
0
0
0
0
0
0
0
0
0
0
0
0
0
0
0
0
0
0
0
0
0
0
0
0
0
0
0
0
0
0
0
0
0
0
0
0
0
0
0
0
0
0
0
0
0
0
0
0
0
0
0
0
0
0
0
0
0
0
0
0
0
0
0
0
0
0
0
0
0
0
0
0
0
0
0
0
0
0
0
0
0
0
0
0
0
0
0
0
0
0
0
0
0
0
0
0
0
0
0
0
0
0
0
0
0
0
0
Trigger quando alvo volta para home
0
0
0
0
0
0
0
0
0
0
0
0
0
0
0
0
0
0
0
0
0
0
0
0
0
0
0
0
0
0
0
0
0
0
0
0
0
0
0
0
0
0
0
0
0
0
0
0
0
0
0
0
0
0
0
0
0
0
0
0
0
0
0
0
0
0
0
0
0
0
0
0
0
0
0
0
0
0
0
0
0
0
0
0
0
0
0
0
0
0
0
0
0
0
0
0
0
0
0
0
0
0
0
0
0
0
0
0
0
0
0
0
0
0
0
0
0
0
0
0
0
0
0
0
0
0
0
0
0
0
0
0
0
0
0
0
0
0
0
0
0
0
0
0
0
0
0
0
0
0
0
0
0
0
0
0
0
0
0
0
0
0
0
0
0
0
0
0
0
0
0
0
0
0
0
0
0
0
0
0
0
0
0
0
0
0
0
0
0
0
0
0
0
0
0
0
0
0
0
0
0
0
0
0
0
0
0
0
0
0
0
0
0
0
0
0
0
0
0
0
0
0
0
0
0
0
0
0
0
0
0
0
0
0
0
0
0
0
0
0
0
0
0
0
0
0
0
0
0
0
0
0
0
0
0
0
0
0
0
0
0
0
0
0
0
0
0
0
0
0
0
0
0
0
0
0
0
0
0
0
0
0
0
0
0
0
0
0
0
0
0
0
0
0
0
0
0
0
0
0
0
0
0
0
0
0
0
0
0
0
0
0
0
0
0
0
0
0
0
0
0
0
0
0
0
0
0
0
0
0
0
0
0
0
0
0
0
0
0
0
0
0
0
0
0
0
0
0
0
0
0
0
0
0
0
0
0
0
0
0
0
0
0
0
0
0
0
0
0
0
0
0
0
0
0
0
0
0
0
0
0
0
0
0
0
0
0
0
0
0
0
0
0
0
0
0
0
0
0
0
0
0
0
0
0
0
0
0
0
0
0
0
0
0
0
0
0
0
0
0
0
0
0
0
0
0
0
0
0
0
0
0
0
0
0
0
0
0
0
0
0
0
0
0
0
0
0
0
0
0
0
0
0
0
0
0
0
0
0
0
0
0
0
0
0
0
0
0
0
0
0
0
0
0
0
0
0
0
0
0
0
0
0
0
0
0
0
0
0
0
0
0
0
0
0
0
0
0
0
0
0
0
0
0
0
0
0
0
0
0
0
0
0
0
0
0
0
0
0
0
0
0
0
0
0
0
0
0
0
0
0
0
0
0
0
0
0
0
0
0
0
0
0
0
0
0
0
0
0
0
0
0
0
0
0
0
0
0
0
0
0
0
0
0
0
0
0
0
0
0
0
0
0
0
0
0
0
0
0
0
0
0
0
0
0
0
0
0
0
0
0
0
0
0
0
0
0
0
0
0
0
0
0
0
0
0
0
0
0
0
0
0
0
0
0
0
0
0
0
0
0
0
0
0
0
0
0
0
0
0
0
0
0
0
0
0
0
0
0
0
0
0
0
0
0
0
0
0
0
0
0
0
0
0
0
0
0
0
0
0
0
0
0
0
0
0
0
0
0
0
0
0
0
0
0
0
0
0
0
0
0
0
0
0
0
0
0
0
0
0
0
0
0
0
0
0
0
0
0
0
0
0
0
0
0
0
0
0
0
0
0
0
0
0
0
0
0
0
0
0
0
0
0
0
0
0
0
0
0
0
0
0
0
0
0
0
0
0
0
0
0
0
0
0
0
0
0
0
0
0
0
0
0
0
0
0
0
0
0
0
0
0
0
0
0
0
0
0
0
0
0
0
0
0
0
0
0
0
0
0
0
0
0
0
0
0
0
0
0
0
0
0
0
0
0
0
0
0
0
0
0
0
0
0
0
0
0
0
0
0
0
0
0
0
0
0
0
0
0
0
0
0
0
0
0
0
0
0
0
0
0
0
0
0
0
0
0
0
0
0
0
0
0
0
0
0
0
0
0
0
0
0
0
0
0
0
0
0
0
0
0
0
0
0
0
0
0
0
0
0
0
0
0
0
0
0
0
0
0
0
0
0
0
0
0
0
0
0
0
0
0
0
0
0
0
0
0
0
0
0
0
0
0
0
0
0
0
0
0
0
0
0
0
0
0
0
0
0
0
0
0
0
0
0
0
0
0
0
0
0
0
0
0
0
0
0
0
0
0
0
0
0
0
0
0
0
0
0
0
0
0
0
0
0
0
0
0
0
0
0
0
0
0
0
0
0
0
0
0
0
0
0
0
0
0
0
0
0
0
0
0
0
0
0
0
0
0
0
0
0
0
0
0
0
0
0
0
0
0
0
0
0
0
0
0
0
0
0
0
0
0
0
0
0
0
0
0
0
0
0
0
0
0
0
0
0
0
0
0
0
0
0
0
0
0
0
0
0
0
0
0
0
0
0
0
0
0
0
0
0
0
0
0
0
0
0
0
0
0
0
0
0
0
0
0
0
0
0
0
0
0
0
0
0
0
0
0
0
0
0
0
0
0
0
0
0
0
0
0
0
0
0
0
0
0
0
0
0
0
0
0
0
0
0
0
0
0
0
0
0
0
0
0
0
0
0
0
0
0
0
0
0
0
0
0
0
0
0
0
0
0
0
0
0
0
0
0
0
0
0
0
0
0
0
0
0
0
0
0
0
0
0
0
0
0
0
0
0
0
0
0
0
0
0
0
0
0
0
0
0
0
0
0
0
0
0
0
0
0
0
0
0
0
0
0
0
0
0
0
0
0
0
0
0
0
0
0
0
0
0
0
0
0
0
0
0
0
0
0
0
0
0
0
0
0
0
0
0
0
0
0
0
0
0
0
0
0
0
0
0
0
0
0
0
0
0
0
0
0
0
0
0
0
0
0
0
0
0
0
0
0
0
0
0
0
0
0
0
0
0
0
0
0
0
0
0
0
0
0
0
0
0
0
0
0
0
0
0
0
0
0
0
0
0
0
0
0
0
0
0
0
0
0
0
0
0
0
0
0
0
0
0
0
0
0
0
0
0
0
0
0
0
0
0
0
0
0
0
0
0
0
0
0
0
0
0
0
0
0
0
0
0
0
0
0
0
0
0
0
0
0
0
0
0
0
0
0
0
0
0
0
0
0
0
0
0
0
0
0
0
0
0
0
0
0
0
0
0
0
0
0
0
0
0
0
0
0
0
0
0
0
0
0
0
0
0
0
0
0
0
0
0
0
0
0
0
0
0
0
0
0
0
0
0
0
0
0
0
0
0
0
0
0
0
0
0
0
0
0
0
0
0
0
0
0
0
0
0
0
0
0
0
0
0
0
0
0
0
0
0
0
0
0
0
0
0
0
0
0
0
0
0
0
0
0
0
0
0
0
0
0
0
0
0
0
0
0
0
0
0
0
0
0
0
0
0
0
0
0
0
0
0
0
0
0
0
0
0
0
0
0
0
0
0
0
0
0
0
0
0
0
0
0
0
0
0
0
0
0
0
0
0
0
0
0
0
0
0
0
0
0
0
0
0
0
0
0
0
0
0
0
0
0
0
0
0
0
0
0
0
0
0
0
0
0
0
0
0
0
0
0
0
0
0
0
0
0
0
0
0
0
0
0
0
0
0
0
0
0
0
0
0
0
0
0
0
0
0
0
0
0
0
0
0
0
0
0
0
0
0
0
0
0
0
0
0
0
0
0
0
0
0
0
0
0
0
0
0
0
0
0
0
0
0
0
0
0
0
0
0
0
0
0
0
0
0
0
0
0
0
0
0
0
0
0
0
0
0
0
0
0
0
0
0
0
0
0
0
0
0
0
0
0
0
0
0
0
0
0
0
0
0
0
0
0
0
0
0
0
0
0
0
0
0
0
0
0
0
0
0
0
0
0
0
0
0
0
0
0
0
0
0
0
0
0
0
0
0
0
0
0
0
0
0
0
0
0
0
0
0
0
0
0
0
0
0
0
0
0
0
0
0
0
0
0
1
0
0
0
0
0
0
0
0
0
0
0
0
0
0
0
0
0
0
0
0
0
0
0
0
0
0
0
0
0
0
0
0
0
0
0
0
0
0
0
0
0
0
0
0
0
0
0
0
0
0
0
0
0
0
0
0
0
0
0
0
0
0
0
0
0
0
0
0
0
0
0
0
0
0
0
0
0
0
0
0
0
0
0
0
0
0
0
0
0
0
0
0
0
0
0
0
0
0
0
0
0
0
0
0
0
0
0
0
0
0
0
0
0
0
0
0
0
0
0
0
0
0
0
0
0
0
0
0
0
0
0
0
0
0
0
0
0
0
0
0
0
0
0
0
0
0
0
0
0
0
0
0
0
0
0
0
0
0
0
0
0
0
0
0
0
0
0
0
0
0
0
0
0
0
0
0
0
0
0
0
0
0
0
0
0
0
0
0
0
0
0
0
0
0
0
0
0
0
0
0
0
0
0
0
0
0
0
0
0
0
0
0
0
0
0
0
0
0
0
0
0
0
0
0
0
0
0
0
0
0
0
0
0
0
0
0
0
0
0
0
0
0
0
0
0
0
0
0
0
0
0
0
0
0
0
0
0
0
0
0
0
0
0
0
0
0
0
0
0
0
0
0
0
0
0
0
0
0
0
0
0
0
0
0
0
0
0
0
0
0
0
0
0
0
0
0
0
0
0
0
0
0
0
0
0
0
0
0
0
0
0
0
0
0
0
0
0
0
0
0
0
0
0
0
0
0
0
0
0
0
0
0
0
0
0
0
0
0
0
0
0
0
0
0
0
0
0
0
0
0
0
0
0
0
0
0
0
0
0
0
0
0
0
0
0
0
0
0
0
0
0
0
0
0
0
0
0
0
0
0
0
0
0
0
0
0
0
0
0
0
0
0
0
0
0
0
0
0
0
0
0
0
0
0
0
0
0
0
0
0
0
0
0
0
0
0
0
0
0
0
0
0
0
0
0
0
0
0
0
0
0
0
0
0
0
0
0
0
0
0
0
0
0
0
0
0
0
0
0
0
0
0
0
0
0
0
0
0
0
0
0
0
0
0
0
0
0
0
0
0
0
0
0
0
0
0
0
0
0
0
0
0
0
0
0
0
0
0
0
0
0
0
0
0
0
0
0
0
0
0
0
0
0
0
0
0
0
0
0
0
0
0
0
0
0
0
0
0
0
0
0
0
0
0
0
0
0
0
0
0
0
0
0
0
0
0
0
0
0
0
0
0
0
0
0
0
0
0
0
0
0
0
0
0
0
0
0
0
0
0
0
0
0
0
0
0
0
0
0
0
0
0
0
0
0
0
0
0
0
0
0
0
0
0
0
0
0
0
0
0
0
0
0
0
0
0
0
0
0
0
0
0
0
0
0
0
0
0
0
0
0
0
0
0
0
0
0
0
0
0
0
0
0
0
0
0
0
0
0
0
0
0
0
0
0
0
0
0
0
0
0
0
0
0
0
0
0
0
0
0
0
0
0
0
0
0
0
0
0
0
0
0
0
0
0
0
0
0
0
0
0
0
0
0
0
0
0
0
0
0
0
0
0
0
0
0
0
0
0
0
0
0
0
0
0
0
0
0
0
0
0
0
0
0
0
0
0
0
0
0
0
0
0
0
0
0
0
0
0
0
0
0
0
0
0
0
0
0
0
0
0
0
0
0
0
0
0
0
0
0
0
0
0
0
0
0
0
0
0
0
0
0
0
0
0
0
0
0
0
0
0
0
0
0
0
0
0
0
0
0
0
0
0
0
0
0
0
0
0
0
0
0
0
0
0
0
0
0
0
0
0
0
0
0
0
0
0
0
0
0
0
0
0
0
0
0
0
0
0
0
0
0
0
0
0
0
0
0
0
0
0
0
0
0
0
0
0
0
0
0
0
0
0
0
0
0
0
0
0
0
0
0
0
0
0
0
0
0
0
0
0
0
0
0
0
0
0
0
0
0
0
0
0
0
0
0
0
0
0
0
0
0
0
0
0
0
0
0
0
0
0
0
0
0
0
0
0
0
0
0
0
0
0
0
0
0
0
0
0
0
0
0
0
0
0
0
0
0
0
0
0
0
0
0
0
0
0
0
0
0
0
0
0
0
0
0
0
0
0
0
0
0
0
0
0
0
0
0
0
0
0
0
0
0
0
0
0
0
0
0
0
0
0
0
0
0
0
0
0
0
0
0
0
0
0
0
0
0
0
0
0
0
0
0
0
0
0
0
0
0
0
0
0
0
0
0
0
0
0
0
0
0
0
0
0
0
0
0
0
0
0
0
0
0
0
0
0
0
0
0
0
0
0
0
0
0
0
0
0
0
0
0
0
0
0
0
0
0
0
0
0
0
0
0
0
0
0
0
0
0
0
0
0
0
0
0
0
0
0
0
0
0
0
0
0
0
0
0
0
0
0
0
0
0
0
0
0
0
0
0
0
0
0
0
0
0
0
0
0
0
0
0
0
0
0
0
0
0
0
0
0
0
0
0
0
0
0
0
0
0
0
0
0
0
0
0
0
0
0
0
0
0
0
0
0
0
0
0
0
0
0
0
0
0
0
0
0
0
0
0
0
0
0
0
0
0
0
0
0
0
0
0
0
0
0
0
0
0
0
0
0
0
0
0
0
0
0
0
0
0
0
0
0
0
0
0
0
0
0
0
0
0
0
0
0
0
0
0
0
0
0
0
0
0
0
0
0
0
0
0
0
0
0
0
0
0
0
0
0
0
0
0
0
0
0
0
0
0
0
0
0
0
0
0
0
0
0
0
0
0
0
0
0
0
0
0
0
0
0
0
0
0
0
0
0
0
0
0
0
0
0
0
0
0
0
0
0
0
0
0
0
0
0
0
0
0
0
0
0
0
0
0
0
0
0
0
0
0
0
0
0
0
0
0
0
0
0
0
0
0
0
0
0
0
0
0
0
0
0
0
0
0
0
0
0
0
0
0
0
0
0
0
0
0
0
0
0
0
0
0
0
0
0
0
0
0
0
0
0
0
0
0
0
0
0
0
0
0
0
0
0
0
0
0
0
0
0
0
0
0
0
0
0
0
0
0
0
0
0
0
0
0
0
0
0
0
0
0
0
0
0
0
0
0
0
0
0
0
0
0
0
0
0
0
0
0
0
0
0
0
0
0
0
0
0
0
0
0
0
0
0
0
0
0
0
0
0
0
0
0
0
0
0
0
0
0
0
0
0
0
0
0
0
0
0
0
0
0
0
0
0
0
0
0
0
0
0
0
0
0
0
0
0
0
0
0
0
0
0
0
0
0
0
0
0
0
0
0
0
0
0
0
0
0
0
0
0
0
0
0
0
0
0
0
0
0
0
0
0
0
0
0
0
0
0
0
0
0
0
0
0
0
0
0
0
0
0
0
0
0
0
0
0
0
0
0
0
0
0
0
1
0
0
0
0
0
0
0
0
0
0
0
0
0
0
0
0
0
0
0
0
0
0
0
0
0
0
0
0
0
0
0
0
0
0
0
0
0
0
0
0
0
0
0
0
0
0
0
0
0
0
0
0
0
0
0
0
0
0
0
0
0
0
0
0
0
0
0
0
0
0
0
0
0
0
0
0
0
0
0
0
0
0
0
0
0
0
0
0
0
0
0
0
0
0
0
0
0
0
0
0
0
0
0
0
0
0
0
0
0
0
0
0
0
0
0
0
0
0
0
0
0
0
0
0
0
0
0
0
0
0
0
0
0
0
0
0
0
0
0
0
0
0
0
0
0
0
0
0
0
0
0
0
0
0
0
0
0
0
0
0
0
0
0
0
0
0
0
0
0
0
0
0
0
0
0
0
0
0
0
0
0
0
0
0
0
0
0
0
0
0
0
0
0
0
0
0
0
0
0
0
0
0
0
0
0
0
0
0
0
0
0
0
0
0
0
0
0
0
0
0
0
0
0
0
0
0
0
0
0
0
0
0
0
0
0
0
0
0
0
0
0
0
0
0
0
0
0
0
0
0
0
0
0
0
0
0
0
0
0
0
0
0
0
0
0
0
0
0
0
0
0
0
0
0
0
0
0
0
0
0
0
0
0
0
0
0
0
0
0
0
0
0
0
0
0
0
0
0
0
0
0
0
0
0
0
0
0
0
0
0
0
0
0
0
0
0
0
0
0
0
0
0
0
0
0
0
0
0
0
0
0
0
0
0
0
0
0
0
0
0
0
0
0
0
0
0
0
0
0
0
0
0
0
0
0
0
0
0
0
0
0
0
0
0
0
0
0
0
0
0
0
0
0
0
0
0
0
0
0
0
0
0
0
0
0
0
0
0
0
0
0
0
0
0
0
0
0
0
0
0
0
0
0
0
0
0
0
0
0
0
0
0
0
0
0
0
0
0
0
0
0
0
0
0
0
0
0
0
0
0
0
0
0
0
0
0
0
0
0
0
0
0
0
0
0
0
0
0
0
0
0
0
0
0
0
0
0
0
0
0
0
0
0
0
0
0
0
0
0
0
0
0
0
0
0
0
0
0
0
0
0
0
0
0
0
0
0
0
0
0
0
0
0
0
0
0
0
0
0
0
0
0
0
0
0
0
0
0
0
0
0
0
0
0
0
0
0
0
0
0
0
0
0
0
0
0
0
0
0
0
0
0
0
0
0
0
0
0
0
0
0
0
0
0
0
0
0
0
0
0
0
0
0
0
0
0
0
0
0
0
0
0
0
0
0
0
0
0
0
0
0
0
0
0
0
0
0
0
0
0
0
0
0
0
0
0
0
0
0
0
1
0
0
0
0
0
0
0
0
0
0
0
0
0
0
0
0
0
0
0
0
0
0
0
0
0
0
0
0
0
0
0
0
0
0
0
0
0
0
0
0
0
0
0
0
0
0
0
0
0
0
0
0
0
0
0
0
0
0
0
0
0
0
0
0
0
0
0
0
0
0
0
0
0
0
0
0
0
0
0
0
0
0
0
0
0
0
0
0
0
0
0
0
0
0
0
0
0
0
0
0
0
0
0
0
0
0
0
0
0
0
0
0
0
0
0
0
0
0
0
0
0
0
0
0
0
0
0
0
0
0
0
0
0
0
0
0
0
0
0
0
0
0
0
0
0
0
0
0
0
0
0
0
0
0
0
0
0
0
0
0
0
0
0
0
0
0
0
0
0
0
0
0
0
0
0
0
0
0
0
0
0
0
0
0
0
0
0
0
0
0
0
0
0
0
0
0
0
0
0
0
0
0
0
0
0
0
0
0
0
0
0
0
0
0
0
0
0
0
0
0
0
0
0
0
0
0
0
0
0
0
0
0
0
0
0
0
0
0
0
0
0
0
0
0
0
0
0
0
0
0
0
0
0
0
0
0
0
0
0
0
0
0
0
0
0
0
0
0
0
0
0
0
0
0
0
0
0
0
0
0
0
0
0
0
0
0
0
0
0
0
0
0
0
0
0
0
0
0
0
0
0
0
0
0
0
0
0
0
0
0
0
0
0
0
0
0
0
0
0
0
0
0
0
0
0
0
0
0
0
0
0
0
0
0
0
0
0
0
0
0
0
0
0
0
0
0
0
0
0
0
0
0
0
0
0
0
0
0
0
0
0
0
0
0
0
0
0
0
0
0
0
0
0
0
0
0
0
0
0
0
0
0
0
0
0
0
0
0
0
0
0
0
0
0
0
0
0
0
0
0
0
0
0
0
0
0
0
0
0
0
0
0
0
0
0
0
0
0
0
0
0
0
0
0
0
0
0
0
0
0
0
0
0
0
0
0
0
0
0
0
0
0
0
0
0
0
0
0
0
0
0
0
0
0
0
0
0
0
0
0
0
0
0
0
0
0
0
0
0
0
0
0
0
0
0
0
0
0
0
0
0
0
0
0
0
0
0
0
0
0
0
0
0
0
0
0
0
0
0
0
0
0
0
0
0
0
0
0
0
0
0
0
0
0
0
0
0
0
0
0
0
0
0
0
0
0
0
0
0
0
0
0
0
0
0
0
0
0
0
0
0
0
0
0
0
0
0
0
0
0
0
0
0
0
0
0
0
0
0
0
0
0
0
0
0
0
0
0
0
0
0
0
0
0
0
0
0
0
0
0
1
0
0
0
0
0
0
0
0
0
0
0
0
0
0
0
0
0
0
0
0
0
0
0
0
0
0
0
0
0
0
0
0
0
0
0
0
0
0
0
0
0
0
0
0
0
0
0
0
0
0
0
0
0
0
0
0
0
0
0
0
0
0
0
0
0
0
0
0
0
0
0
0
0
0
0
0
0
0
0
0
0
0
0
0
0
0
0
0
0
0
0
0
0
0
0
0
0
0
0
0
0
0
0
0
0
0
0
0
0
0
0
0
0
0
0
0
0
0
0
0
0
0
0
0
0
0
0
0
0
0
0
0
0
0
0
0
0
0
0
0
0
0
0
0
0
0
0
0
0
0
0
0
0
0
0
0
0
0
0
0
0
0
0
0
0
0
0
0
0
0
0
0
0
0
0
0
0
0
0
0
0
0
0
0
0
0
0
0
0
0
0
0
0
0
0
0
0
0
0
0
0
0
0
0
0
0
0
0
0
0
0
0
0
0
0
0
0
0
0
0
0
0
0
0
0
0
0
0
0
0
0
0
0
0
0
0
0
0
0
0
0
0
0
0
0
0
0
0
0
0
0
0
0
0
0
0
0
0
0
0
0
0
0
0
0
0
0
0
0
0
0
0
0
0
0
0
0
0
0
0
0
0
0
0
0
0
0
0
0
0
0
0
0
0
0
0
0
0
0
0
0
0
0
0
0
0
0
0
0
0
0
0
0
0
0
0
0
0
0
0
0
0
0
0
0
0
0
0
0
0
0
0
0
0
0
0
0
0
0
0
0
0
0
0
0
0
0
0
0
0
0
0
0
0
0
0
0
0
0
0
0
0
0
0
0
0
0
0
0
0
0
0
0
0
0
0
0
0
0
0
0
0
0
0
0
0
0
0
0
0
0
0
0
0
0
0
0
0
0
0
0
0
0
0
0
0
0
0
0
0
0
0
0
0
0
0
0
0
0
0
0
0
0
0
0
0
0
0
0
0
0
0
0
0
0
0
0
0
0
0
0
0
0
0
0
0
0
0
0
0
0
0
0
0
0
0
0
0
0
0
0
0
0
0
0
0
0
0
0
0
0
0
0
0
0
0
0
0
0
0
0
0
0
0
0
0
0
0
0
0
0
0
0
0
0
0
0
0
0
0
0
0
0
0
0
0
0
0
0
0
0
0
0
0
0
0
0
0
0
0
0
0
0
0
0
0
0
0
0
0
1
0
0
0
0
0
0
0
0
0
0
0
0
0
0
0
0
0
0
0
0
0
0
0
0
0
0
0
0
0
0
0
0
0
0
0
0
0
0
0
0
0
0
0
0
0
0
0
0
0
0
0
0
0
0
0
0
0
0
0
0
0
0
0
0
0
0
0
0
0
0
0
0
0
0
0
0
0
0
0
0
0
0
0
0
0
0
0
0
0
0
0
0
0
0
0
0
0
0
0
0
0
0
0
0
0
0
0
0
0
0
0
0
0
0
0
0
0
0
0
0
0
0
0
0
0
0
0
0
0
0
0
0
0
0
0
0
0
0
0
0
0
0
0
0
0
0
0
0
0
0
0
0
0
0
0
0
0
0
0
0
0
0
0
0
0
0
0
0
0
0
0
0
0
0
0
0
0
0
0
0
0
0
0
0
0
0
0
0
0
0
0
0
0
0
0
0
0
0
0
0
0
0
0
0
0
0
0
0
0
0
0
0
0
0
0
0
0
0
0
0
0
0
0
0
0
0
0
0
0
0
0
0
0
0
0
0
0
0
0
0
0
0
0
0
0
0
0
0
0
0
0
0
0
0
0
0
0
0
0
0
0
0
0
0
0
0
0
0
0
0
0
0
0
0
0
0
0
0
0
0
0
0
0
0
0
0
0
0
0
0
0
0
0
0
0
0
0
0
0
0
0
0
0
0
0
0
0
0
0
0
0
0
0
0
0
0
0
0
0
0
0
0
0
0
0
0
0
0
0
0
0
0
0
0
0
0
0
0
0
0
0
0
0
0
0
0
0
0
0
0
0
0
0
0
0
0
0
0
0
0
0
0
0
0
0
0
0
0
0
0
0
0
0
0
0
0
0
0
0
0
0
0
0
0
0
0
0
0
0
0
0
0
0
0
0
0
0
0
0
0
0
0
0
0
0
0
0
0
0
0
0
0
0
0
0
0
0
0
0
0
0
0
0
0
0
0
0
0
0
0
0
0
0
0
0
0
0
0
0
0
0
0
0
0
0
0
0
0
0
0
0
0
0
0
0
0
0
0
0
0
0
0
0
0
0
0
0
0
0
0
0
0
0
0
0
0
0
0
0
0
0
0
0
0
0
0
0
0
0
0
0
0
0
0
0
0
0
0
0
0
0
0
0
0
0
0
0
0
0
0
0
0
0
0
0
0
0
0
0
0
0
0
0
0
0
0
0
0
0
0
0
0
0
0
0
0
0
0
0
0
0
0
0
0
0
0
0
0
0
0
0
0
0
0
0
0
0
0
0
0
0
0
0
0
0
0
0
0
0
0
0
0
0
0
0
0
0
0
0
0
0
0
0
0
0
0
0
0
0
0
0
0
0
0
0
0
0
0
0
0
0
0
0
0
0
0
0
0
0
0
0
0
0
0
0
0
0
0
0
0
0
0
0
0
0
0
0
0
0
0
0
0
0
0
0
0
0
0
0
0
0
0
0
0
0
0
0
0
0
0
0
0
0
0
0
0
0
0
0
0
0
0
0
0
0
0
0
0
0
0
0
0
0
0
0
0
0
0
0
0
0
0
0
0
0
0
0
0
0
0
0
0
0
0
0
0
0
0
0
0
0
0
0
0
0
0
0
0
0
0
0
0
0
0
0
0
0
0
0
0
0
0
0
0
0
0
0
0
0
0
0
0
0
0
0
0
0
0
0
0
0
0
0
0
0
0
0
0
0
0
0
0
0
0
0
0
0
0
0
0
0
0
0
0
0
0
0
0
0
0
NumSamples tab Epoch40
10	10
10	10
10	10
10	10
10	10
10	10
10	10
10	10
10	10
10	10
10	10
10	10
10	10
10	10
10	10
10	10
10	10
10	10
10	10
10	10
10	10
10	10
10	10
10	10
10	10
10	10
10	10
10	10
10	10
10	10
10	10
10	10
10	10
10	10
10	10
10	10
10	10
10	10
10	10
10	10
10	10
10	10
10	10
10	10
10	10
10	10
10	10
10	10
10	10
10	10
10	10
10	10
10	10
10	10
10	10
10	10
10	10
10	10
10	10
10	10
10	10
10	10
10	10
10	10
10	10
10	10
10	10
10	10
10	10
10	10
10	10
10	10
10	10
10	10
10	10
10	10
10	10
10	10
10	10
10	10
10	10
10	10
10	10
10	10
10	10
10	10
10	10
10	10
10	10
10	10
10	10
10	10
10	10
10	10
10	10
10	10
10	10
10	10
10	10
10	10
10	10
10	10
10	10
10	10
10	10
10	10
10	10
10	10
10	10
10	10
10	10
10	10
10	10
10	10
10	10
10	10
10	10
10	10
10	10
10	10
10	10
10	10
10	10
10	10
10	10
10	10
10	10
10	10
10	10
10	10
10	10
10	10
10	10
10	10
10	10
10	10
10	10
10	10
10	10
10	10
10	10
10	10
10	10
10	10
10	10
10	10
10	10
10	10
10	10
10	10
10	10
10	10
10	10
10	10
10	10
10	10
10	10
10	10
10	10
10	10
10	10
10	10
10	10
10	10
10	10
10	10
10	10
10	10
10	10
10	10
10	10
10	10
10	10
10	10
10	10
10	10
10	10
10	10
10	10
10	10
10	10
10	10
10	10
10	10
10	10
10	10
10	10
10	10
10	10
10	10
10	10
10	10
10	10
10	10
10	10
10	10
10	10
10	10
10	10
10	10
10	10
10	10
10	10
10	10
10	10
10	10
10	10
10	10
10	10
10	10
10	10
10	10
10	10
10	10
10	10
10	10
10	10
10	10
10	10
10	10
10	10
10	10
10	10
10	10
10	10
10	10
10	10
10	10
10	10
10	10
10	10
10	10
10	10
10	10
10	10
10	10
10	10
10	10
10	10
10	10
10	10
10	10
10	10
10	10
10	10
10	10
10	10
10	10
10	10
10	10
10	10
10	10
10	10
10	10
10	10
10	10
10	10
10	10
10	10
10	10
10	10
10	10
10	10
10	10
10	10
10	10
10	10
10	10
10	10
10	10
10	10
10	10
10	10
10	10
10	10
10	10
10	10
10	10
10	10
10	10
10	10
10	10
10	10
10	10
10	10
10	10
10	10
10	10
10	10
10	10
10	10
10	10
10	10
10	10
10	10
10	10
10	10
10	10
10	10
10	10
10	10
10	10
10	10
10	10
10	10
10	10
10	10
10	10
10	10
10	10
10	10
10	10
10	10
10	10
10	10
10	10
10	10
10	10
10	10
10	10
10	10
10	10
10	10
10	10
10	10
10	10
10	10
10	10
10	10
10	10
10	10
10	10
10	10
10	10
10	10
10	10
10	10
10	10
10	10
10	10
10	10
10	10
10	10
10	10
10	10
10	10
10	10
10	10
10	10
10	10
10	10
10	10
10	10
10	10
10	10
10	10
10	10
10	10
10	10
10	10
10	10
10	10
10	10
10	10
10	10
10	10
10	10
10	10
10	10
10	10
10	10
10	10
10	10
10	10
10	10
10	10
10	10
10	10
10	10
10	10
10	10
10	10
10	10
10	10
10	10
10	10
10	10
10	10
10	10
10	10
10	10
10	10
10	10
10	10
10	10
10	10
10	10
10	10
10	10
10	10
10	10
10	10
10	10
10	10
10	10
10	10
10	10
10	10
10	10
10	10
10	10
10	10
10	10
10	10
10	10
10	10
10	10
10	10
10	10
10	10
10	10
10	10
10	10
10	10
10	10
10	10
10	10
10	10
10	10
10	10
10	10
10	10
10	10
10	10
10	10
10	10
10	10
10	10
10	10
10	10
10	10
10	10
10	10
10	10
10	10
10	10
10	10
10	10
10	10
10	10
10	10
10	10
10	10
10	10
10	10
10	10
10	10
10	10
10	10
10	10
10	10
10	10
10	10
10	10
10	10
10	10
10	10
10	10
10	10
10	10
10	10
10	10
10	10
10	10
10	10
10	10
10	10
10	10
10	10
10	10
10	10
10	10
10	10
10	10
10	10
10	10
10	10
10	10
10	10
10	10
10	10
10	10
10	10
10	10
10	10
10	10
10	10
10	10
10	10
10	10
10	10
10	10
10	10
10	10
10	10
10	10
10	10
10	10
10	10
10	10
10	10
10	10
10	10
10	10
10	10
10	10
10	10
10	10
10	10
10	10
10	10
10	10
10	10
10	10
10	10
10	10
10	10
10	10
10	10
10	10
10	10
10	10
10	10
10	10
10	10
10	10
10	10
10	10
10	10
10	10
10	10
10	10
10	10
10	10
10	10
10	10
10	10
10	10
10	10
10	10
10	10
10	10
10	10
10	10
10	10
10	10
10	10
10	10
10	10
10	10
10	10
10	10
10	10
10	10
10	10
10	10
10	10
Localizacao:
0	70
0	70
0	70
0	70
0	70
0	70
0	70
0	70
0	70
0	70
0	70
0	70
0	70
0	70
0	70
0	70
0	70
0	70
0	70
0	70
0	70
0	70
0	70
0	70
0	70
0	70
0	70
0	70
0	70
0	70
0	70
0	70
0	70
0	70
0	70
0	70
0	70
0	70
0	70
0	70
0	70
0	70
0	70
0	70
0	70
0	70
0	70
0	70
0	70
0	70
0	70
0	70
0	70
0	70
0	70
0	70
0	70
0	70
0	70
0	70
0	70
0	80
0	111
0	153
0	194
0	231
0	261
0	274
0	276
0	276
0	276
0	276
0	276
0	276
0	276
0	276
0	276
0	276
0	280
0	288
0	296
0	308
0	327
0	347
0	369
0	390
0	407
0	421
0	428
0	430
0	435
0	441
0	451
0	470
0	496
0	529
0	564
0	600
0	641
0	678
0	709
0	738
0	768
0	794
0	815
0	832
0	846
0	861
0	876
0	893
0	913
0	932
0	952
0	971
0	989
0	1007
0	1020
0	1034
0	1044
0	1048
0	1051
0	1054
0	1058
0	1065
0	1072
0	1079
0	1085
0	1090
0	1093
0	1095
0	1097
0	1100
0	1103
0	1104
0	1106
0	1108
0	1111
0	1114
0	1119
0	1124
0	1127
0	1130
0	1134
0	1137
0	1138
0	1138
0	1138
0	1138
0	1137
0	1129
0	1109
0	1082
0	1048
0	1011
0	972
0	933
0	894
0	847
0	788
0	720
0	649
0	581
0	523
0	473
0	425
0	377
0	328
0	277
0	230
0	186
0	139
0	94
0	72
1	70
1	70
1	70
1	70
1	70
1	70
1	70
1	70
1	70
1	70
1	70
1	70
1	70
1	70
1	70
1	70
1	70
1	70
1	70
1	70
1	70
1	70
1	70
1	70
1	70
1	70
1	70
1	70
1	70
1	70
1	70
1	70
1	70
1	70
1	70
1	70
1	70
1	70
1	70
1	70
1	70
1	70
1	70
1	70
1	70
1	70
1	70
1	70
1	76
1	98
1	133
1	169
1	200
1	228
1	255
1	277
1	290
1	293
1	294
1	294
1	294
1	294
1	294
1	294
1	294
1	294
1	296
1	306
1	325
1	344
1	364
1	381
1	394
1	410
1	425
1	443
1	465
1	486
1	504
1	519
1	534
1	551
1	567
1	583
1	598
1	612
1	627
1	645
1	667
1	687
1	705
1	725
1	743
1	762
1	782
1	799
1	814
1	828
1	837
1	846
1	857
1	867
1	874
1	880
1	889
1	900
1	910
1	917
1	924
1	937
1	951
1	963
1	976
1	988
1	1002
1	1012
1	1017
1	1022
1	1029
1	1038
1	1045
1	1051
1	1062
1	1075
1	1087
1	1099
1	1113
1	1125
1	1132
1	1137
1	1140
1	1143
1	1145
1	1145
1	1144
1	1144
1	1140
1	1125
1	1087
1	1025
1	940
1	832
1	703
1	564
1	437
1	331
1	233
1	139
1	81
1	70
2	70
2	70
2	70
2	70
2	70
2	70
2	70
2	70
2	70
2	78
2	149
2	284
2	422
2	539
2	632
2	697
2	740
2	770
2	790
2	804
2	817
2	825
2	835
2	854
2	885
2	924
2	959
2	985
2	1006
2	1021
2	1034
2	1047
2	1061
2	1077
2	1086
2	1090
2	1095
2	1105
2	1116
2	1124
2	1126
2	1126
2	1126
2	1125
2	1125
2	1118
2	1092
2	1035
2	947
2	837
2	710
2	578
2	459
2	361
2	278
2	206
2	137
2	86
2	70
3	70
3	70
3	70
3	70
3	70
3	70
3	74
3	121
3	216
3	314
3	394
3	464
3	529
3	579
3	620
3	658
3	688
3	721
3	769
3	817
3	861
3	901
3	935
3	967
3	993
3	1012
3	1028
3	1043
3	1059
3	1077
3	1089
3	1095
3	1101
3	1107
3	1112
3	1116
3	1119
3	1120
3	1120
3	1120
3	1120
3	1120
3	1117
3	1102
3	1065
3	1012
3	951
3	883
3	801
3	710
3	614
3	512
3	415
3	326
3	242
3	163
3	100
3	72
4	70
4	70
4	70
4	70
4	70
4	70
4	70
4	70
4	70
4	96
4	172
4	273
4	365
4	449
4	529
4	598
4	657
4	704
4	740
4	769
4	791
4	811
4	837
4	872
4	911
4	951
4	985
4	1012
4	1035
4	1065
4	1093
4	1114
4	1129
4	1138
4	1144
4	1146
4	1147
4	1147
4	1147
4	1142
4	1120
4	1070
4	990
4	894
4	788
4	673
4	555
4	443
4	340
4	244
4	154
4	90
4	70
5	70
5	70
5	70
5	70
5	70
5	70
5	70
5	70
5	70
5	70
5	70
5	70
5	70
5	70
5	70
5	70
5	70
5	70
5	70
5	70
5	70
5	70
5	70
5	70
5	70
5	70
5	70
5	70
5	70
5	70
5	70
5	70
5	70
5	70
5	70
5	70
5	70
5	70
5	70
5	70
5	70
5	70
5	70
5	70
5	70
5	70
5	70
5	70
5	70
5	70
5	70
5	70
5	70
5	70
5	70
5	70
5	70
5	70
5	70
5	70
5	70
5	70
5	70
5	70
5	70
5	70
5	70
5	70
5	70
5	70
5	70
5	70
5	70
5	70