SVIPT Data File
Session: 
ID_Volunteer: 
Task: Linear[Home-1-Home-2-Home-3-Home-4-Home-5]
TaskRepetitions: 30
Sampling_Rate: 200.000000
Force_Unity: Volts
BaseLineForce_Val: 0.000000
MaxVoluntForce_Val: 4.995117
ConversionFunction: 4.115494X +0.933400 = Y
MaxForce_Percentage: 40
MinForce_Percentage: 1
TaskMaxForce_Percentage: 20
Limites de movimento do cursor: 90	1298
Cursor
Location: 70	272
Size: 40	68
Home
Location: 68	221
Size: 44	170
ForceSignal: 
51.150000
102.300000
153.450000
204.600000
255.750000
306.900000
358.050000
409.200000
460.350000
511.500000
562.650000
613.800000
664.950000
716.100000
767.250000
818.400000
869.550000
920.700000
971.850000
1,023.000000
1,023.000000
1,023.000000
1,023.000000
1,023.000000
1,023.000000
1,023.000000
1,023.000000
1,023.000000
1,023.000000
1,023.000000
1,023.000000
1,023.000000
1,023.000000
1,023.000000
1,023.000000
1,023.000000
1,023.000000
1,023.000000
1,023.000000
1,023.000000
1,023.000000
1,023.000000
1,023.000000
1,023.000000
1,023.000000
1,023.000000
1,023.000000
1,023.000000
1,023.000000
1,023.000000
1,023.000000
1,023.000000
1,023.000000
1,023.000000
1,023.000000
1,023.000000
1,023.000000
1,023.000000
1,023.000000
1,023.000000
1,023.000000
1,023.000000
1,023.000000
1,023.000000
1,023.000000
1,023.000000
1,023.000000
1,023.000000
1,023.000000
1,023.000000
1,023.000000
1,023.000000
1,023.000000
1,023.000000
1,023.000000
1,023.000000
1,023.000000
1,023.000000
1,023.000000
1,023.000000
1,023.000000
1,023.000000
1,023.000000
1,023.000000
1,023.000000
1,023.000000
1,023.000000
1,023.000000
1,023.000000
1,023.000000
1,023.000000
1,023.000000
1,023.000000
1,023.000000
1,023.000000
1,023.000000
1,023.000000
1,023.000000
1,023.000000
1,023.000000
1,023.000000
1,023.000000
1,023.000000
1,023.000000
1,023.000000
1,023.000000
1,023.000000
1,023.000000
1,023.000000
1,023.000000
1,023.000000
1,023.000000
1,023.000000
1,023.000000
1,023.000000
1,023.000000
1,023.000000
1,023.000000
1,023.000000
1,023.000000
1,023.000000
1,023.000000
1,023.000000
1,023.000000
1,023.000000
1,023.000000
1,023.000000
1,023.000000
1,023.000000
1,023.000000
1,023.000000
1,023.000000
1,023.000000
1,023.000000
1,023.000000
1,023.000000
1,023.000000
1,023.000000
1,023.000000
1,023.000000
1,023.000000
1,023.000000
1,023.000000
1,023.000000
1,023.000000
1,023.000000
1,023.000000
1,023.000000
1,023.000000
1,023.000000
1,023.000000
1,023.000000
1,023.000000
1,023.000000
1,023.000000
1,023.000000
1,023.000000
1,023.000000
1,023.000000
1,023.000000
1,023.000000
1,023.000000
1,023.000000
1,023.000000
1,023.000000
1,023.000000
1,023.000000
1,023.000000
1,023.000000
1,023.000000
1,023.000000
1,023.000000
1,023.000000
1,023.000000
1,023.000000
1,023.000000
1,023.000000
1,023.000000
1,023.000000
1,023.000000
1,023.000000
1,023.000000
1,023.000000
1,023.000000
1,023.000000
1,023.000000
1,023.000000
1,023.000000
1,023.000000
1,023.000000
1,023.000000
1,023.000000
1,023.000000
1,023.000000
1,023.000000
1,023.000000
1,023.000000
1,023.000000
1,023.000000
1,023.000000
971.850000
920.700000
869.550000
818.400000
767.250000
716.100000
664.950000
613.800000
562.650000
511.500000
460.350000
409.200000
358.050000
306.900000
255.750000
204.600000
153.450000
102.300000
51.150000
0.000000
0.000000
0.000000
0.000000
0.000000
0.000000
0.000000
0.000000
0.000000
0.000000
0.000000
0.000000
0.000000
0.000000
0.000000
0.000000
0.000000
0.000000
0.000000
0.000000
0.000000
0.000000
0.000000
0.000000
0.000000
0.000000
0.000000
0.000000
0.000000
0.000000
0.000000
0.000000
0.000000
0.000000
0.000000
0.000000
0.000000
0.000000
0.000000
0.000000
0.000000
0.000000
0.000000
0.000000
0.000000
0.000000
0.000000
0.000000
0.000000
0.000000
0.000000
0.000000
0.000000
0.000000
0.000000
0.000000
0.000000
0.000000
0.000000
0.000000
0.000000
0.000000
0.000000
0.000000
0.000000
0.000000
0.000000
0.000000
0.000000
0.000000
0.000000
0.000000
0.000000
0.000000
0.000000
0.000000
0.000000
0.000000
0.000000
0.000000
0.000000
0.000000
0.000000
0.000000
0.000000
0.000000
0.000000
0.000000
0.000000
0.000000
0.000000
0.000000
0.000000
0.000000
0.000000
0.000000
0.000000
0.000000
0.000000
0.000000
0.000000
0.000000
0.000000
0.000000
0.000000
0.000000
0.000000
0.000000
0.000000
0.000000
0.000000
0.000000
0.000000
0.000000
0.000000
0.000000
0.000000
0.000000
0.000000
0.000000
0.000000
0.000000
0.000000
0.000000
0.000000
0.000000
0.000000
0.000000
0.000000
0.000000
0.000000
0.000000
0.000000
0.000000
0.000000
0.000000
0.000000
0.000000
0.000000
0.000000
0.000000
0.000000
0.000000
0.000000
0.000000
0.000000
0.000000
0.000000
0.000000
0.000000
0.000000
0.000000
0.000000
0.000000
0.000000
0.000000
0.000000
0.000000
0.000000
0.000000
0.000000
0.000000
0.000000
0.000000
0.000000
0.000000
0.000000
0.000000
0.000000
0.000000
0.000000
0.000000
0.000000
0.000000
0.000000
0.000000
0.000000
0.000000
0.000000
0.000000
0.000000
0.000000
0.000000
0.000000
0.000000
0.000000
0.000000
0.000000
0.000000
0.000000
0.000000
0.000000
0.000000
0.000000
0.000000
0.000000
0.000000
0.000000
0.000000
0.000000
0.000000
0.000000
0.000000
0.000000
0.000000
0.000000
0.000000
0.000000
0.000000
0.000000
0.000000
0.000000
0.000000
0.000000
0.000000
0.000000
0.000000
0.000000
0.000000
0.000000
0.000000
0.000000
0.000000
0.000000
0.000000
0.000000
0.000000
0.000000
0.000000
0.000000
0.000000
0.000000
0.000000
0.000000
0.000000
0.000000
0.000000
0.000000
0.000000
0.000000
0.000000
0.000000
0.000000
0.000000
0.000000
0.000000
0.000000
0.000000
0.000000
0.000000
0.000000
0.000000
0.000000
0.000000
0.000000
0.000000
0.000000
0.000000
0.000000
0.000000
0.000000
0.000000
0.000000
0.000000
0.000000
0.000000
0.000000
0.000000
0.000000
0.000000
0.000000
0.000000
0.000000
0.000000
0.000000
0.000000
0.000000
0.000000
0.000000
0.000000
0.000000
0.000000
0.000000
0.000000
0.000000
0.000000
0.000000
0.000000
0.000000
0.000000
0.000000
0.000000
0.000000
0.000000
0.000000
0.000000
0.000000
0.000000
0.000000
0.000000
0.000000
0.000000
0.000000
0.000000
0.000000
0.000000
0.000000
0.000000
0.000000
0.000000
0.000000
0.000000
0.000000
0.000000
0.000000
0.000000
0.000000
0.000000
0.000000
0.000000
0.000000
0.000000
0.000000
0.000000
0.000000
0.000000
0.000000
0.000000
0.000000
0.000000
0.000000
0.000000
0.000000
0.000000
0.000000
0.000000
0.000000
0.000000
0.000000
0.000000
0.000000
0.000000
0.000000
0.000000
0.000000
0.000000
0.000000
0.000000
0.000000
0.000000
0.000000
0.000000
0.000000
0.000000
0.000000
0.000000
0.000000
0.000000
0.000000
0.000000
0.000000
0.000000
0.000000
0.000000
0.000000
0.000000
0.000000
0.000000
0.000000
0.000000
0.000000
0.000000
0.000000
0.000000
0.000000
0.000000
0.000000
0.000000
0.000000
0.000000
0.000000
0.000000
0.000000
0.000000
0.000000
0.000000
0.000000
0.000000
0.000000
0.000000
0.000000
0.000000
0.000000
0.000000
0.000000
0.000000
0.000000
0.000000
0.000000
0.000000
0.000000
0.000000
0.000000
0.000000
0.000000
0.000000
0.000000
0.000000
0.000000
0.000000
0.000000
0.000000
0.000000
0.000000
0.000000
0.000000
0.000000
0.000000
0.000000
0.000000
0.000000
0.000000
0.000000
0.000000
0.000000
0.000000
0.000000
0.000000
0.000000
0.000000
0.000000
0.000000
0.000000
0.000000
0.000000
0.000000
0.000000
0.000000
0.000000
0.000000
0.000000
0.000000
0.000000
0.000000
0.000000
0.000000
0.000000
0.000000
0.000000
0.000000
0.000000
0.000000
0.000000
0.000000
0.000000
0.000000
0.000000
0.000000
0.000000
0.000000
0.000000
0.000000
0.000000
0.000000
0.000000
0.000000
0.000000
0.000000
0.000000
0.000000
0.000000
0.000000
0.000000
0.000000
0.000000
0.000000
0.000000
0.000000
0.000000
0.000000
0.000000
0.000000
0.000000
0.000000
0.000000
0.000000
0.000000
0.000000
0.000000
0.000000
0.000000
0.000000
0.000000
0.000000
0.000000
0.000000
0.000000
0.000000
0.000000
0.000000
0.000000
0.000000
0.000000
0.000000
0.000000
0.000000
0.000000
0.000000
0.000000
0.000000
0.000000
0.000000
0.000000
0.000000
0.000000
0.000000
0.000000
0.000000
0.000000
0.000000
0.000000
0.000000
0.000000
0.000000
0.000000
0.000000
0.000000
0.000000
0.000000
0.000000
0.000000
0.000000
0.000000
0.000000
0.000000
0.000000
0.000000
0.000000
0.000000
0.000000
0.000000
0.000000
0.000000
0.000000
0.000000
0.000000
0.000000
0.000000
0.000000
0.000000
0.000000
0.000000
0.000000
0.000000
0.000000
0.000000
0.000000
0.000000
0.000000
0.000000
0.000000
0.000000
0.000000
0.000000
0.000000
0.000000
0.000000
0.000000
0.000000
0.000000
0.000000
0.000000
0.000000
0.000000
0.000000
0.000000
0.000000
0.000000
0.000000
0.000000
0.000000
0.000000
0.000000
0.000000
0.000000
0.000000
0.000000
0.000000
0.000000
0.000000
0.000000
0.000000
0.000000
0.000000
0.000000
0.000000
0.000000
0.000000
0.000000
0.000000
0.000000
0.000000
0.000000
0.000000
0.000000
0.000000
0.000000
0.000000
0.000000
0.000000
0.000000
0.000000
0.000000
0.000000
0.000000
0.000000
0.000000
0.000000
0.000000
0.000000
0.000000
0.000000
0.000000
0.000000
0.000000
0.000000
0.000000
0.000000
0.000000
0.000000
0.000000
0.000000
0.000000
0.000000
0.000000
0.000000
0.000000
0.000000
0.000000
0.000000
0.000000
0.000000
0.000000
0.000000
0.000000
0.000000
0.000000
0.000000
0.000000
0.000000
0.000000
0.000000
0.000000
0.000000
0.000000
0.000000
0.000000
0.000000
0.000000
0.000000
0.000000
0.000000
0.000000
0.000000
0.000000
0.000000
0.000000
0.000000
0.000000
0.000000
0.000000
0.000000
0.000000
0.000000
0.000000
0.000000
0.000000
0.000000
0.000000
0.000000
0.000000
0.000000
0.000000
0.000000
0.000000
0.000000
0.000000
0.000000
0.000000
0.000000
0.000000
0.000000
0.000000
0.000000
0.000000
0.000000
0.000000
0.000000
0.000000
0.000000
0.000000
0.000000
0.000000
0.000000
0.000000
0.000000
0.000000
0.000000
0.000000
0.000000
0.000000
0.000000
0.000000
0.000000
0.000000
0.000000
0.000000
0.000000
0.000000
0.000000
0.000000
0.000000
0.000000
0.000000
0.000000
0.000000
0.000000
0.000000
0.000000
0.000000
0.000000
0.000000
0.000000
0.000000
0.000000
0.000000
0.000000
0.000000
0.000000
0.000000
0.000000
0.000000
0.000000
0.000000
0.000000
0.000000
0.000000
0.000000
0.000000
0.000000
0.000000
0.000000
0.000000
0.000000
0.000000
0.000000
0.000000
0.000000
0.000000
0.000000
0.000000
0.000000
0.000000
0.000000
0.000000
0.000000
0.000000
0.000000
0.000000
0.000000
0.000000
0.000000
0.000000
0.000000
0.000000
0.000000
0.000000
0.000000
0.000000
0.000000
0.000000
0.000000
0.000000
0.000000
0.000000
0.000000
0.000000
0.000000
0.000000
0.000000
0.000000
0.000000
0.000000
0.000000
0.000000
0.000000
0.000000
0.000000
0.000000
0.000000
0.000000
0.000000
0.000000
0.000000
0.000000
0.000000
0.000000
0.000000
0.000000
0.000000
0.000000
0.000000
0.000000
0.000000
0.000000
0.000000
0.000000
0.000000
0.000000
0.000000
0.000000
0.000000
0.000000
0.000000
0.000000
0.000000
0.000000
0.000000
0.000000
0.000000
0.000000
0.000000
0.000000
0.000000
0.000000
0.000000
0.000000
0.000000
0.000000
0.000000
0.000000
0.000000
0.000000
0.000000
0.000000
0.000000
0.000000
0.000000
0.000000
0.000000
0.000000
0.000000
0.000000
0.000000
0.000000
0.000000
0.000000
0.000000
0.000000
0.000000
0.000000
0.000000
0.000000
0.000000
0.000000
0.000000
0.000000
0.000000
0.000000
0.000000
0.000000
0.000000
0.000000
0.000000
0.000000
0.000000
0.000000
0.000000
0.000000
0.000000
0.000000
0.000000
0.000000
0.000000
0.000000
0.000000
0.000000
0.000000
0.000000
0.000000
0.000000
0.000000
0.000000
0.000000
0.000000
0.000000
0.000000
0.000000
0.000000
0.000000
0.000000
0.000000
0.000000
0.000000
0.000000
0.000000
0.000000
0.000000
0.000000
0.000000
0.000000
0.000000
0.000000
0.000000
0.000000
0.000000
0.000000
0.000000
0.000000
0.000000
0.000000
0.000000
0.000000
0.000000
0.000000
0.000000
0.000000
0.000000
0.000000
0.000000
0.000000
0.000000
0.000000
0.000000
0.000000
0.000000
0.000000
0.000000
0.000000
0.000000
0.000000
0.000000
0.000000
0.000000
0.000000
0.000000
0.000000
0.000000
0.000000
0.000000
0.000000
0.000000
0.000000
0.000000
0.000000
0.000000
0.000000
0.000000
0.000000
0.000000
0.000000
0.000000
0.000000
0.000000
0.000000
0.000000
0.000000
0.000000
0.000000
0.000000
0.000000
0.000000
0.000000
0.000000
0.000000
0.000000
0.000000
0.000000
0.000000
0.000000
0.000000
0.000000
0.000000
0.000000
0.000000
0.000000
0.000000
0.000000
0.000000
0.000000
0.000000
0.000000
0.000000
0.000000
0.000000
0.000000
0.000000
0.000000
0.000000
0.000000
0.000000
0.000000
0.000000
0.000000
0.000000
0.000000
0.000000
0.000000
0.000000
0.000000
0.000000
0.000000
0.000000
0.000000
0.000000
0.000000
0.000000
0.000000
0.000000
0.000000
0.000000
0.000000
0.000000
0.000000
0.000000
0.000000
0.000000
0.000000
0.000000
0.000000
0.000000
0.000000
0.000000
0.000000
0.000000
0.000000
0.000000
0.000000
0.000000
0.000000
0.000000
0.000000
0.000000
0.000000
0.000000
0.000000
0.000000
0.000000
0.000000
0.000000
0.000000
0.000000
0.000000
0.000000
0.000000
0.000000
0.000000
0.000000
0.000000
0.000000
0.000000
0.000000
0.000000
0.000000
0.000000
0.000000
0.000000
0.000000
0.000000
0.000000
0.000000
0.000000
0.000000
0.000000
0.000000
0.000000
0.000000
0.000000
0.000000
0.000000
0.000000
0.000000
0.000000
0.000000
0.000000
0.000000
0.000000
0.000000
0.000000
0.000000
0.000000
0.000000
0.000000
0.000000
0.000000
0.000000
0.050000
0.150000
0.300000
0.500000
0.750000
1.050000
1.400000
1.900000
2.450000
3.050000
3.700000
4.450000
5.250000
6.150000
7.100000
8.100000
9.200000
10.300000
11.450000
12.650000
13.850000
15.050000
16.250000
17.500000
18.800000
20.100000
21.450000
22.700000
24.000000
25.300000
26.550000
27.800000
29.050000
30.250000
31.450000
32.650000
33.850000
35.050000
36.250000
37.500000
38.800000
40.050000
41.300000
42.500000
43.650000
44.850000
46.000000
47.200000
48.350000
49.500000
50.700000
51.850000
53.050000
54.250000
55.500000
56.750000
58.000000
59.350000
60.700000
62.000000
63.200000
64.450000
65.750000
67.050000
68.350000
69.600000
70.800000
71.950000
73.100000
74.250000
75.350000
76.450000
77.450000
78.450000
79.400000
80.300000
81.150000
81.900000
82.650000
83.350000
84.100000
84.800000
85.400000
86.000000
86.600000
87.150000
87.700000
88.250000
88.750000
89.250000
89.800000
90.300000
90.800000
91.300000
91.750000
92.250000
92.750000
93.300000
93.850000
94.450000
95.000000
95.550000
96.150000
96.700000
97.200000
97.700000
98.200000
98.700000
99.200000
99.650000
100.050000
100.500000
100.950000
101.350000
101.800000
102.200000
102.550000
102.850000
103.150000
103.450000
103.750000
104.050000
104.350000
104.650000
105.000000
105.300000
105.650000
105.950000
106.300000
106.650000
107.050000
107.400000
107.750000
108.150000
108.500000
108.850000
109.200000
109.600000
109.900000
110.200000
110.500000
110.850000
111.150000
111.500000
111.800000
112.150000
112.450000
112.800000
113.150000
113.500000
113.800000
114.100000
114.400000
114.700000
115.000000
115.300000
115.600000
115.900000
116.250000
116.550000
116.900000
117.200000
117.550000
117.850000
118.200000
118.550000
118.950000
119.300000
119.600000
119.900000
120.250000
120.600000
121.000000
121.400000
121.850000
122.300000
122.750000
123.200000
123.650000
124.100000
124.500000
124.950000
125.350000
125.800000
126.200000
126.600000
127.000000
127.400000
127.850000
128.350000
128.800000
129.300000
129.800000
130.250000
130.700000
131.150000
131.600000
132.000000
132.450000
132.900000
133.400000
133.850000
134.350000
134.850000
135.400000
135.950000
136.450000
137.000000
137.500000
137.950000
138.450000
138.950000
139.400000
139.900000
140.350000
140.850000
141.350000
141.850000
142.300000
142.750000
143.200000
143.650000
144.050000
144.450000
144.850000
145.250000
145.650000
146.050000
146.500000
146.950000
147.400000
147.800000
148.200000
148.600000
149.000000
149.400000
149.800000
150.250000
150.700000
151.150000
151.600000
152.000000
152.450000
152.900000
153.300000
153.750000
154.200000
154.600000
155.000000
155.350000
155.700000
156.100000
156.500000
156.850000
157.200000
157.500000
157.850000
158.100000
158.400000
158.700000
158.950000
159.250000
159.500000
159.700000
159.900000
160.050000
160.200000
160.350000
160.500000
160.700000
160.850000
160.950000
161.050000
161.200000
161.300000
161.450000
161.550000
161.700000
161.850000
162.000000
162.150000
162.300000
162.450000
162.600000
162.750000
162.900000
163.050000
163.200000
163.300000
163.400000
163.550000
163.700000
163.850000
163.950000
164.150000
164.300000
164.400000
164.550000
164.650000
164.750000
164.900000
165.050000
165.200000
165.350000
165.500000
165.700000
165.900000
166.100000
166.300000
166.500000
166.650000
166.800000
167.000000
167.200000
167.350000
167.500000
167.700000
167.850000
168.000000
168.150000
168.300000
168.450000
168.600000
168.750000
168.900000
169.000000
169.100000
169.200000
169.300000
169.400000
169.500000
169.600000
169.700000
169.800000
169.900000
170.000000
170.050000
170.150000
170.250000
170.300000
170.350000
170.400000
170.450000
170.500000
170.550000
170.600000
170.650000
170.700000
170.750000
170.800000
170.900000
171.000000
171.050000
171.100000
171.150000
171.200000
171.300000
171.350000
171.400000
171.500000
171.550000
171.600000
171.600000
171.650000
171.700000
171.750000
171.800000
171.850000
171.900000
171.950000
171.950000
171.950000
171.950000
171.900000
171.900000
171.900000
171.900000
171.900000
171.900000
171.900000
171.900000
171.950000
172.000000
172.000000
172.000000
172.000000
172.050000
172.100000
172.100000
172.100000
172.100000
172.100000
172.100000
172.200000
172.200000
172.200000
172.250000
172.300000
172.350000
172.400000
172.450000
172.450000
172.450000
172.450000
172.500000
172.550000
172.550000
172.500000
172.500000
172.550000
172.600000
172.650000
172.700000
172.700000
172.750000
172.800000
172.800000
172.800000
172.800000
172.800000
172.800000
172.800000
172.850000
172.950000
172.950000
172.950000
173.000000
173.050000
173.100000
173.100000
173.100000
173.100000
173.150000
173.200000
173.250000
173.250000
173.250000
173.300000
173.300000
173.350000
173.400000
173.450000
173.500000
173.500000
173.550000
173.600000
173.600000
173.700000
173.750000
173.800000
173.900000
174.000000
174.050000
174.050000
174.100000
174.200000
174.300000
174.350000
174.450000
174.500000
174.600000
174.700000
174.800000
174.900000
175.000000
175.100000
175.150000
175.200000
175.300000
175.400000
175.450000
175.500000
175.550000
175.700000
175.750000
175.800000
175.850000
175.950000
176.050000
176.200000
176.300000
176.400000
176.500000
176.600000
176.700000
176.800000
176.950000
177.050000
177.150000
177.300000
177.400000
177.550000
177.700000
177.800000
177.950000
178.100000
178.300000
178.450000
178.600000
178.700000
178.800000
178.900000
179.000000
179.100000
179.200000
179.300000
179.400000
179.500000
179.600000
179.650000
179.750000
179.800000
179.850000
179.900000
179.950000
180.000000
180.000000
180.000000
180.000000
180.000000
180.000000
180.000000
180.000000
180.000000
180.000000
180.000000
180.000000
180.000000
180.000000
180.000000
180.000000
180.000000
180.000000
180.000000
180.000000
180.000000
180.000000
180.000000
180.050000
180.050000
180.050000
180.050000
180.050000
180.050000
180.050000
180.050000
180.050000
180.050000
180.000000
179.900000
179.800000
179.650000
179.450000
179.250000
178.950000
178.500000
178.000000
177.400000
176.700000
175.900000
175.000000
174.050000
173.000000
171.850000
170.600000
169.250000
167.800000
166.200000
164.550000
162.900000
161.150000
159.400000
157.500000
155.500000
153.550000
151.650000
149.650000
147.700000
145.700000
143.650000
141.650000
139.550000
137.400000
135.200000
133.050000
130.850000
128.700000
126.550000
124.400000
122.250000
120.050000
117.700000
115.450000
113.150000
110.800000
108.400000
106.000000
103.550000
101.050000
98.650000
96.250000
93.900000
91.550000
89.250000
86.800000
84.400000
81.950000
79.500000
77.050000
74.500000
72.000000
69.550000
67.100000
64.650000
62.150000
59.750000
57.350000
54.850000
52.350000
49.850000
47.250000
44.650000
42.000000
39.250000
36.500000
33.650000
30.750000
27.950000
25.250000
22.700000
20.250000
17.950000
15.750000
13.700000
11.800000
9.950000
8.250000
6.750000
5.400000
4.150000
3.050000
2.050000
1.250000
0.650000
0.250000
0.050000
0.000000
0.000000
0.000000
0.000000
0.000000
0.000000
0.000000
0.000000
0.000000
0.000000
0.000000
0.000000
0.000000
0.000000
0.000000
0.000000
0.000000
0.000000
0.000000
0.000000
0.000000
0.000000
0.000000
0.000000
0.000000
0.000000
0.000000
0.000000
0.000000
0.000000
0.000000
0.000000
0.000000
0.000000
0.000000
0.000000
0.000000
0.000000
0.000000
0.000000
0.000000
0.000000
0.000000
0.000000
0.000000
0.000000
0.000000
0.000000
0.000000
0.000000
0.000000
0.000000
0.000000
0.000000
0.000000
0.000000
0.000000
0.000000
0.000000
0.000000
0.000000
0.000000
0.000000
0.000000
0.000000
0.000000
0.000000
0.000000
0.000000
0.000000
0.000000
0.000000
0.000000
0.000000
0.000000
0.000000
0.000000
0.000000
0.000000
0.000000
0.000000
0.000000
0.000000
0.000000
0.000000
0.000000
0.000000
0.000000
0.000000
0.000000
0.000000
0.000000
0.000000
0.000000
0.000000
0.000000
0.000000
0.000000
0.100000
0.300000
0.750000
1.350000
2.150000
3.150000
4.250000
5.500000
6.850000
8.400000
10.150000
12.000000
14.050000
16.250000
18.600000
21.100000
23.700000
26.400000
29.250000
32.250000
35.250000
38.350000
41.300000
44.300000
47.200000
50.000000
52.850000
55.650000
58.500000
61.300000
64.000000
66.700000
69.300000
71.900000
74.550000
77.150000
79.750000
82.350000
84.900000
87.350000
89.850000
92.200000
94.650000
97.000000
99.400000
101.800000
104.200000
106.600000
108.900000
111.200000
113.500000
115.750000
117.950000
120.150000
122.250000
124.300000
126.350000
128.350000
130.250000
132.150000
134.000000
135.900000
137.650000
139.350000
141.000000
142.600000
144.100000
145.600000
147.100000
148.500000
149.850000
151.150000
152.500000
153.700000
154.850000
156.000000
157.050000
158.100000
159.200000
160.300000
161.400000
162.400000
163.400000
164.350000
165.200000
166.050000
166.900000
167.700000
168.450000
169.150000
169.850000
170.550000
171.150000
171.750000
172.350000
172.900000
173.450000
173.950000
174.450000
174.900000
175.200000
175.550000
175.850000
176.150000
176.450000
176.700000
176.900000
177.050000
177.200000
177.350000
177.450000
177.550000
177.650000
177.750000
177.850000
177.900000
177.950000
178.050000
178.050000
178.050000
178.150000
178.150000
178.200000
178.200000
178.200000
178.200000
178.200000
178.250000
178.300000
178.300000
178.300000
178.300000
178.300000
178.300000
178.250000
178.300000
178.300000
178.250000
178.250000
178.250000
178.250000
178.250000
178.200000
178.200000
178.200000
178.200000
178.200000
178.150000
178.150000
178.150000
178.200000
178.200000
178.200000
178.200000
178.250000
178.200000
178.250000
178.300000
178.300000
178.350000
178.350000
178.400000
178.450000
178.450000
178.450000
178.450000
178.450000
178.450000
178.400000
178.400000
178.350000
178.350000
178.350000
178.400000
178.350000
178.350000
178.300000
178.250000
178.250000
178.250000
178.250000
178.200000
178.150000
178.150000
178.150000
178.150000
178.150000
178.150000
178.150000
178.150000
178.150000
178.150000
178.150000
178.100000
178.100000
178.100000
178.100000
178.100000
178.050000
177.950000
177.850000
177.700000
177.550000
177.350000
177.050000
176.700000
176.250000
175.700000
175.050000
174.300000
173.450000
172.500000
171.400000
170.150000
168.800000
167.300000
165.700000
163.950000
162.150000
160.150000
158.050000
155.850000
153.550000
151.100000
148.600000
145.950000
143.150000
140.300000
137.450000
134.450000
131.400000
128.150000
124.850000
121.500000
118.100000
114.650000
111.100000
107.500000
103.800000
100.100000
96.300000
92.550000
88.750000
85.000000
81.150000
77.350000
73.600000
69.900000
65.950000
62.050000
58.150000
54.350000
50.500000
46.600000
42.600000
38.650000
34.900000
31.350000
28.000000
24.850000
21.900000
19.100000
16.450000
13.950000
11.700000
9.600000
7.700000
5.900000
4.450000
3.200000
2.100000
1.200000
0.550000
0.150000
0.000000
0.000000
0.000000
0.000000
0.000000
0.000000
0.000000
0.000000
0.000000
0.000000
0.000000
0.000000
0.000000
0.000000
0.000000
0.000000
0.000000
0.000000
0.000000
0.000000
0.000000
0.000000
0.000000
0.000000
0.000000
0.000000
0.000000
0.000000
0.000000
0.000000
0.000000
0.000000
0.000000
0.000000
0.000000
0.000000
0.000000
0.000000
0.000000
0.000000
0.000000
0.000000
0.000000
0.000000
0.000000
0.000000
0.000000
0.000000
0.000000
0.000000
0.000000
0.000000
0.000000
0.000000
0.000000
0.000000
0.000000
0.000000
0.000000
0.000000
0.000000
0.000000
0.000000
0.000000
0.000000
0.000000
0.000000
0.000000
0.000000
0.000000
0.000000
0.000000
0.000000
0.000000
0.000000
0.000000
0.000000
0.000000
0.000000
0.000000
0.000000
0.000000
0.000000
0.000000
0.000000
0.000000
0.000000
0.000000
0.000000
0.000000
0.000000
0.000000
0.000000
0.000000
0.000000
0.000000
0.000000
0.000000
0.000000
0.000000
0.000000
0.100000
0.350000
0.700000
1.200000
1.800000
2.600000
3.500000
4.500000
5.600000
6.800000
8.050000
9.350000
10.750000
12.250000
13.900000
15.700000
17.550000
19.400000
21.300000
23.350000
25.300000
27.150000
29.000000
30.700000
32.350000
33.900000
35.450000
36.950000
38.400000
39.750000
41.100000
42.450000
43.750000
45.000000
46.200000
47.300000
48.450000
49.650000
50.900000
52.050000
53.350000
54.700000
56.000000
57.400000
58.800000
60.150000
61.450000
62.800000
64.250000
65.750000
67.300000
68.850000
70.450000
72.100000
73.700000
75.300000
76.850000
78.400000
79.900000
81.400000
82.850000
84.250000
85.750000
87.200000
88.650000
90.050000
91.450000
92.800000
94.000000
95.200000
96.350000
97.500000
98.600000
99.600000
100.600000
101.600000
102.600000
103.600000
104.600000
105.550000
106.500000
107.450000
108.300000
109.200000
110.100000
111.000000
111.850000
112.750000
113.650000
114.500000
115.350000
116.150000
116.900000
117.700000
118.500000
119.250000
120.050000
120.850000
121.600000
122.400000
123.150000
123.850000
124.550000
125.150000
125.750000
126.400000
127.050000
127.650000
128.250000
128.900000
129.550000
130.200000
130.900000
131.550000
132.150000
132.800000
133.400000
133.950000
134.600000
135.250000
135.850000
136.450000
137.100000
137.800000
138.500000
139.150000
139.850000
140.550000
141.350000
142.100000
142.900000
143.700000
144.500000
145.350000
146.250000
147.150000
148.000000
148.900000
149.700000
150.500000
151.300000
152.150000
152.900000
153.600000
154.250000
154.950000
155.600000
156.200000
156.700000
157.250000
157.650000
158.100000
158.500000
158.850000
159.150000
159.400000
159.650000
159.850000
160.050000
160.200000
160.350000
160.450000
160.550000
160.650000
160.750000
160.800000
160.850000
160.900000
160.950000
161.000000
161.050000
161.050000
161.050000
161.050000
161.050000
161.050000
161.100000
161.100000
161.150000
161.200000
161.250000
161.300000
161.350000
161.400000
161.450000
161.550000
161.650000
161.700000
161.800000
161.850000
161.950000
162.000000
162.100000
162.200000
162.300000
162.400000
162.450000
162.550000
162.600000
162.650000
162.700000
162.750000
162.800000
162.850000
162.900000
162.900000
162.950000
163.000000
163.050000
163.100000
163.150000
163.250000
163.300000
163.350000
163.400000
163.450000
163.550000
163.650000
163.750000
163.850000
163.950000
164.100000
164.200000
164.350000
164.500000
164.650000
164.800000
165.000000
165.150000
165.350000
165.550000
165.750000
165.950000
166.150000
166.350000
166.600000
166.850000
167.100000
167.400000
167.700000
168.000000
168.300000
168.700000
169.050000
169.450000
169.850000
170.300000
170.700000
171.150000
171.550000
171.950000
172.350000
172.750000
173.150000
173.600000
174.000000
174.400000
174.800000
175.150000
175.500000
175.850000
176.150000
176.450000
176.750000
177.000000
177.250000
177.450000
177.700000
177.850000
178.050000
178.250000
178.400000
178.600000
178.800000
178.900000
179.050000
179.150000
179.250000
179.350000
179.450000
179.550000
179.650000
179.700000
179.750000
179.800000
179.850000
179.850000
179.850000
179.900000
179.900000
179.900000
179.950000
179.950000
179.950000
180.000000
180.000000
180.000000
180.000000
180.000000
180.000000
180.000000
180.000000
180.000000
180.000000
180.000000
180.000000
180.000000
180.000000
180.000000
179.950000
179.950000
179.950000
179.900000
179.900000
179.850000
179.850000
179.850000
179.800000
179.750000
179.700000
179.600000
179.450000
179.250000
179.050000
178.800000
178.550000
178.200000
177.750000
177.250000
176.700000
176.000000
175.200000
174.350000
173.400000
172.350000
171.100000
169.700000
168.200000
166.550000
164.700000
162.800000
160.800000
158.650000
156.400000
154.050000
151.550000
149.000000
146.400000
143.650000
140.850000
138.000000
135.150000
132.300000
129.350000
126.350000
123.300000
120.200000
117.100000
113.950000
110.800000
107.550000
104.350000
101.150000
97.750000
94.350000
90.950000
87.550000
84.150000
80.800000
77.400000
74.000000
70.500000
67.000000
63.300000
59.700000
56.100000
52.600000
49.050000
45.450000
41.800000
38.150000
34.500000
31.050000
27.900000
24.900000
22.050000
19.350000
16.800000
14.400000
12.200000
10.150000
8.300000
6.550000
5.150000
3.850000
2.750000
1.750000
0.950000
0.400000
0.100000
0.000000
0.000000
0.000000
0.000000
0.000000
0.000000
0.000000
0.000000
0.000000
0.000000
0.000000
0.000000
0.000000
0.000000
0.000000
0.000000
0.000000
0.000000
0.000000
0.000000
0.000000
0.000000
0.000000
0.000000
0.000000
0.000000
0.000000
0.000000
0.000000
0.000000
0.000000
0.000000
0.000000
0.000000
0.000000
0.000000
0.000000
0.000000
0.000000
0.000000
0.000000
0.000000
0.000000
0.000000
0.000000
0.000000
0.000000
0.000000
0.000000
0.000000
0.000000
0.000000
0.000000
0.000000
0.000000
0.000000
0.000000
0.000000
0.000000
0.000000
0.000000
0.000000
0.000000
0.000000
0.000000
0.000000
0.000000
0.000000
0.000000
0.000000
0.000000
0.000000
0.000000
0.000000
0.000000
0.000000
0.000000
0.000000
0.000000
0.000000
0.000000
0.000000
0.000000
0.000000
0.000000
0.000000
0.000000
0.150000
0.450000
0.950000
1.600000
2.450000
3.450000
4.550000
5.800000
7.150000
8.750000
10.550000
12.450000
14.500000
16.750000
19.200000
21.750000
24.400000
27.150000
30.100000
33.150000
36.200000
39.300000
42.350000
45.350000
48.250000
51.100000
54.000000
56.900000
59.800000
62.600000
65.300000
68.000000
70.650000
73.350000
76.000000
78.600000
81.250000
83.850000
86.400000
88.900000
91.350000
93.750000
96.200000
98.650000
101.100000
103.550000
106.000000
108.400000
110.750000
113.100000
115.400000
117.750000
120.100000
122.250000
124.300000
126.350000
128.350000
130.350000
132.300000
134.250000
136.150000
137.950000
139.650000
141.300000
142.900000
144.450000
145.900000
147.300000
148.700000
150.050000
151.350000
152.550000
153.700000
154.850000
156.050000
157.250000
158.400000
159.550000
160.650000
161.750000
162.850000
163.950000
164.950000
165.950000
166.900000
167.850000
168.750000
169.650000
170.500000
171.250000
172.000000
172.750000
173.450000
174.100000
174.650000
175.150000
175.600000
176.050000
176.450000
176.800000
177.100000
177.350000
177.600000
177.800000
178.000000
178.150000
178.300000
178.400000
178.550000
178.650000
178.800000
178.900000
179.000000
179.100000
179.150000
179.250000
179.350000
179.400000
179.450000
179.450000
179.500000
179.550000
179.600000
179.650000
179.650000
179.700000
179.750000
179.800000
179.800000
179.900000
179.950000
179.950000
179.950000
180.000000
180.050000
180.100000
180.150000
180.150000
180.200000
180.250000
180.250000
180.300000
180.350000
180.400000
180.450000
180.450000
180.500000
180.550000
180.600000
180.550000
180.550000
180.600000
180.600000
180.600000
180.600000
180.600000
180.550000
180.600000
180.600000
180.600000
180.650000
180.650000
180.600000
180.550000
180.550000
180.550000
180.500000
180.450000
180.400000
180.400000
180.350000
180.300000
180.300000
180.250000
180.250000
180.200000
180.150000
180.050000
179.900000
179.750000
179.550000
179.300000
179.050000
178.700000
178.300000
177.800000
177.250000
176.600000
175.850000
175.050000
174.150000
173.150000
172.050000
170.750000
169.300000
167.700000
166.000000
164.150000
162.200000
160.100000
157.850000
155.500000
153.000000
150.350000
147.500000
144.550000
141.500000
138.400000
135.200000
131.700000
128.100000
124.400000
120.550000
116.650000
112.750000
108.800000
104.700000
100.600000
96.400000
92.250000
88.100000
83.800000
79.450000
75.200000
70.850000
66.550000
62.200000
57.800000
53.300000
48.900000
44.450000
40.150000
36.100000
32.300000
28.650000
25.200000
22.050000
19.050000
16.300000
13.700000
11.250000
9.100000
7.200000
5.450000
4.050000
2.800000
1.750000
0.900000
0.350000
0.050000
0.000000
0.000000
0.000000
0.000000
0.000000
0.000000
0.000000
0.000000
0.000000
0.000000
0.000000
0.000000
0.000000
0.000000
0.000000
0.000000
0.000000
0.000000
0.000000
0.000000
0.000000
0.000000
0.000000
0.000000
0.000000
0.000000
0.000000
0.000000
0.000000
0.000000
0.000000
0.000000
0.000000
0.000000
0.000000
0.000000
0.000000
0.000000
0.000000
0.000000
0.000000
0.000000
0.000000
0.000000
0.000000
0.000000
0.000000
0.000000
0.000000
0.000000
0.000000
0.000000
0.000000
0.000000
0.000000
0.000000
0.000000
0.000000
0.000000
0.000000
0.000000
0.000000
0.000000
0.000000
0.000000
0.000000
0.000000
0.000000
0.000000
0.000000
0.000000
0.000000
0.000000
0.000000
0.000000
0.000000
0.000000
0.000000
0.000000
0.000000
0.000000
0.100000
0.300000
0.650000
1.150000
1.750000
2.500000
3.350000
4.300000
5.300000
6.350000
7.500000
8.750000
10.050000
11.450000
13.000000
14.750000
16.600000
18.500000
20.500000
22.600000
24.750000
26.900000
29.100000
31.200000
33.250000
35.250000
37.200000
39.200000
41.250000
43.350000
45.450000
47.550000
49.700000
51.900000
54.000000
55.900000
57.800000
59.700000
61.600000
63.550000
65.400000
67.300000
69.050000
70.850000
72.650000
74.450000
76.300000
78.100000
79.900000
81.700000
83.500000
85.250000
86.950000
88.550000
90.150000
91.800000
93.400000
95.000000
96.550000
97.950000
99.350000
100.650000
101.900000
103.050000
104.200000
105.300000
106.300000
107.250000
108.150000
108.950000
109.650000
110.400000
111.150000
111.850000
112.550000
113.250000
113.900000
114.500000
115.050000
115.650000
116.200000
116.750000
117.300000
117.850000
118.400000
118.900000
119.400000
119.900000
120.300000
120.750000
121.200000
121.550000
121.850000
122.200000
122.500000
122.750000
123.000000
123.250000
123.500000
123.750000
124.050000
124.300000
124.550000
124.850000
125.100000
125.350000
125.600000
125.850000
126.200000
126.500000
126.800000
127.150000
127.500000
127.800000
128.150000
128.450000
128.800000
129.200000
129.600000
129.950000
130.250000
130.600000
130.950000
131.300000
131.650000
132.050000
132.450000
132.850000
133.200000
133.550000
133.950000
134.300000
134.650000
135.050000
135.450000
135.900000
136.300000
136.700000
137.100000
137.500000
137.900000
138.250000
138.650000
138.950000
139.350000
139.700000
140.050000
140.350000
140.700000
141.050000
141.350000
141.650000
142.000000
142.300000
142.550000
142.850000
143.150000
143.450000
143.800000
144.150000
144.550000
144.950000
145.350000
145.800000
146.200000
146.600000
147.050000
147.500000
147.950000
148.400000
148.850000
149.300000
149.750000
150.200000
150.650000
151.100000
151.550000
151.950000
152.300000
152.650000
153.000000
153.300000
153.600000
153.900000
154.150000
154.450000
154.700000
154.950000
155.150000
155.350000
155.550000
155.800000
155.950000
156.100000
156.300000
156.400000
156.550000
156.700000
156.850000
157.000000
157.150000
157.350000
157.500000
157.650000
157.800000
157.900000
158.000000
158.150000
158.300000
158.450000
158.600000
158.700000
158.900000
159.100000
159.250000
159.500000
159.700000
159.900000
160.100000
160.300000
160.450000
160.600000
160.750000
160.900000
161.050000
161.200000
161.350000
161.500000
161.650000
161.800000
161.950000
162.050000
162.150000
162.250000
162.350000
162.400000
162.450000
162.500000
162.550000
162.600000
162.650000
162.700000
162.750000
162.850000
162.900000
162.950000
163.000000
163.000000
163.050000
163.100000
163.150000
163.250000
163.300000
163.350000
163.400000
163.450000
163.500000
163.550000
163.600000
163.700000
163.800000
163.900000
164.000000
164.100000
164.250000
164.400000
164.550000
164.750000
164.900000
165.050000
165.200000
165.350000
165.550000
165.750000
165.950000
166.150000
166.400000
166.650000
166.900000
167.150000
167.400000
167.650000
167.950000
168.200000
168.450000
168.750000
169.050000
169.300000
169.600000
169.900000
170.200000
170.550000
170.900000
171.250000
171.600000
172.000000
172.350000
172.700000
173.050000
173.350000
173.650000
173.950000
174.250000
174.500000
174.800000
175.050000
175.300000
175.550000
175.750000
175.950000
176.150000
176.300000
176.400000
176.450000
176.550000
176.600000
176.650000
176.700000
176.750000
176.800000
176.850000
176.900000
176.900000
176.950000
176.950000
176.950000
176.950000
176.950000
176.950000
176.950000
176.950000
176.950000
176.950000
177.000000
177.000000
177.000000
177.000000
177.000000
177.000000
177.000000
177.000000
177.000000
177.000000
177.000000
177.000000
177.000000
177.000000
177.050000
177.050000
177.050000
177.100000
177.100000
177.100000
177.100000
177.100000
177.100000
177.100000
177.100000
177.150000
177.150000
177.150000
177.200000
177.200000
177.200000
177.200000
177.200000
177.200000
177.150000
177.150000
177.150000
177.100000
177.100000
177.150000
177.150000
177.150000
177.150000
177.150000
177.150000
177.100000
177.100000
177.100000
177.050000
177.050000
177.050000
177.000000
176.950000
176.850000
176.700000
176.450000
176.200000
175.850000
175.450000
174.950000
174.450000
173.800000
173.100000
172.300000
171.400000
170.400000
169.200000
167.850000
166.300000
164.600000
162.750000
160.750000
158.550000
156.200000
153.700000
151.100000
148.200000
145.200000
142.100000
138.850000
135.400000
131.850000
128.100000
124.200000
120.250000
116.100000
112.000000
107.850000
103.650000
99.450000
95.150000
90.900000
86.700000
82.450000
78.200000
74.000000
69.800000
65.600000
61.400000
57.250000
53.150000
49.050000
44.950000
40.900000
36.900000
33.200000
29.650000
26.300000
23.200000
20.250000
17.550000
15.000000
12.600000
10.450000
8.500000
6.700000
5.200000
3.900000
2.750000
1.750000
0.950000
0.400000
0.100000
0.000000
0.000000
0.000000
0.000000
0.000000
0.000000
0.000000
0.000000
0.000000
0.000000
0.000000
0.000000
0.000000
0.000000
0.000000
0.000000
0.000000
0.000000
0.000000
0.000000
0.000000
0.000000
0.000000
0.000000
0.000000
0.000000
0.000000
0.000000
0.000000
0.000000
0.000000
0.000000
0.000000
0.000000
0.000000
0.000000
0.000000
0.000000
0.000000
0.000000
0.000000
0.000000
0.000000
0.000000
0.000000
0.000000
0.000000
0.000000
0.000000
0.000000
0.000000
0.000000
0.000000
0.000000
0.000000
0.000000
0.000000
0.000000
0.000000
0.000000
0.000000
0.000000
0.000000
0.000000
0.000000
0.000000
0.000000
0.000000
0.000000
0.000000
0.000000
0.000000
0.000000
0.000000
0.000000
0.000000
0.000000
0.000000
0.000000
0.000000
0.000000
0.100000
0.400000
0.950000
1.650000
2.500000
3.500000
4.600000
5.800000
7.100000
8.500000
10.050000
11.800000
13.650000
15.550000
17.550000
19.650000
21.800000
24.050000
26.350000
28.850000
31.300000
33.550000
35.650000
37.600000
39.450000
41.250000
43.050000
44.850000
46.600000
48.350000
50.100000
51.750000
53.450000
55.150000
56.850000
58.500000
60.200000
61.950000
63.700000
65.400000
67.200000
69.150000
71.050000
73.100000
75.300000
77.550000
79.800000
82.100000
84.450000
86.850000
89.150000
91.500000
93.950000
96.450000
99.000000
101.600000
104.300000
106.950000
109.650000
112.300000
114.950000
117.500000
120.050000
122.550000
124.900000
127.200000
129.550000
131.800000
134.050000
136.200000
138.350000
140.450000
142.300000
144.150000
145.900000
147.600000
149.150000
150.650000
152.100000
153.500000
154.800000
156.150000
157.500000
158.750000
160.000000
161.200000
162.300000
163.400000
164.450000
165.450000
166.500000
167.450000
168.450000
169.350000
170.200000
171.050000
171.900000
172.750000
173.550000
174.350000
175.100000
175.800000
176.450000
177.100000
177.750000
178.400000
179.000000
179.600000
180.150000
180.700000
181.150000
181.650000
182.100000
182.550000
183.000000
183.450000
183.850000
184.250000
184.700000
185.100000
185.550000
185.950000
186.350000
186.750000
187.100000
187.450000
187.800000
188.100000
188.400000
188.700000
189.050000
189.350000
189.600000
189.900000
190.150000
190.350000
190.600000
190.800000
190.950000
191.100000
191.200000
191.300000
191.400000
191.500000
191.600000
191.600000
191.650000
191.700000
191.700000
191.750000
191.750000
191.750000
191.800000
191.800000
191.850000
191.900000
191.900000
191.900000
191.900000
191.900000
191.900000
191.900000
191.900000
191.900000
191.900000
191.950000
191.950000
191.950000
192.000000
192.000000
192.000000
192.000000
192.000000
192.000000
192.000000
192.000000
192.000000
192.000000
192.000000
192.000000
192.000000
192.000000
192.000000
191.950000
191.950000
191.950000
191.900000
191.850000
191.750000
191.650000
191.450000
191.200000
190.900000
190.500000
190.000000
189.400000
188.700000
187.950000
187.050000
186.050000
184.950000
183.750000
182.350000
180.900000
179.350000
177.650000
175.900000
174.000000
172.000000
169.850000
167.650000
165.350000
163.050000
160.700000
158.300000
155.850000
153.400000
150.850000
148.350000
145.850000
143.300000
140.700000
138.200000
135.650000
133.100000
130.550000
128.050000
125.650000
123.300000
121.000000
118.750000
116.450000
114.100000
111.800000
109.550000
107.300000
105.000000
102.750000
100.450000
98.100000
95.800000
93.600000
91.300000
89.050000
86.700000
84.400000
82.000000
79.500000
77.000000
74.500000
72.000000
69.500000
67.000000
64.450000
61.850000
59.300000
56.650000
53.950000
51.250000
48.600000
45.900000
43.050000
40.200000
37.200000
34.200000
31.150000
28.250000
25.500000
22.850000
20.300000
17.850000
15.600000
13.450000
11.450000
9.600000
7.850000
6.350000
5.000000
3.800000
2.700000
1.750000
1.000000
0.450000
0.150000
0.000000
0.000000
0.000000
0.000000
0.000000
0.000000
0.000000
0.000000
0.000000
0.000000
0.000000
0.000000
0.000000
0.000000
0.000000
0.000000
0.000000
0.000000
0.000000
0.000000
0.000000
0.000000
0.000000
0.000000
0.000000
0.000000
0.000000
0.000000
0.000000
0.000000
0.000000
0.000000
0.000000
0.000000
0.000000
0.000000
0.000000
0.000000
0.000000
0.000000
0.000000
0.000000
0.000000
0.000000
0.000000
0.000000
0.000000
0.000000
0.000000
0.000000
0.000000
0.000000
0.000000
0.000000
0.000000
0.000000
0.000000
0.000000
0.000000
0.000000
0.000000
0.000000
0.000000
0.000000
0.000000
0.000000
0.000000
0.000000
0.000000
0.000000
0.000000
0.000000
0.000000
0.000000
0.000000
0.000000
0.000000
0.000000
0.000000
0.000000
0.000000
0.000000
0.000000
0.000000
0.000000
0.000000
0.000000
0.000000
0.000000
0.000000
0.000000
0.000000
0.000000
0.000000
0.000000
0.000000
0.000000
0.000000
0.000000
0.000000
0.000000
0.000000
0.000000
0.000000
0.000000
0.000000
0.000000
0.000000
0.000000
0.000000
0.000000
0.000000
0.000000
0.000000
0.000000
0.000000
0.000000
0.000000
0.000000
0.000000
0.000000
0.000000
0.000000
0.000000
0.000000
0.000000
0.000000
0.000000
0.000000
0.000000
0.000000
0.000000
0.000000
0.000000
0.000000
0.000000
0.000000
0.000000
0.000000
0.000000
0.000000
0.000000
0.000000
0.000000
0.000000
0.000000
0.000000
0.000000
0.000000
0.000000
0.000000
0.000000
0.000000
0.000000
0.000000
0.000000
0.000000
0.000000
0.000000
0.000000
0.000000
0.000000
0.000000
0.000000
0.000000
0.000000
0.000000
0.000000
0.000000
0.000000
0.000000
0.000000
0.000000
0.000000
0.000000
0.000000
0.000000
0.000000
0.000000
0.000000
0.000000
0.000000
0.000000
0.000000
0.000000
0.000000
0.000000
0.000000
0.000000
0.000000
0.000000
0.000000
0.000000
0.000000
0.000000
0.000000
0.000000
0.000000
0.000000
0.000000
0.000000
0.000000
0.000000
0.000000
0.000000
0.000000
0.000000
0.000000
0.000000
0.000000
0.000000
0.000000
0.000000
0.000000
0.000000
0.000000
0.000000
0.000000
0.000000
0.000000
0.000000
0.000000
0.000000
0.000000
0.000000
0.000000
0.000000
0.000000
0.000000
0.000000
0.000000
0.000000
0.000000
0.000000
0.000000
0.000000
0.000000
0.000000
0.000000
0.000000
0.000000
0.000000
0.000000
0.000000
0.000000
0.000000
0.000000
0.000000
0.000000
0.000000
0.000000
0.000000
0.000000
0.000000
0.000000
0.000000
0.000000
0.000000
0.000000
0.000000
0.000000
0.000000
0.000000
0.000000
0.000000
0.000000
0.000000
0.000000
0.000000
0.000000
0.000000
0.000000
0.000000
0.000000
0.000000
0.000000
0.000000
0.000000
0.000000
0.000000
0.000000
0.000000
0.000000
0.000000
0.000000
0.000000
0.000000
0.000000
0.000000
0.000000
0.000000
0.000000
0.000000
0.000000
0.000000
0.000000
0.000000
0.000000
0.000000
0.000000
0.000000
0.000000
0.000000
0.000000
0.000000
0.000000
0.000000
0.000000
0.000000
0.000000
0.000000
0.000000
0.000000
0.000000
0.000000
0.000000
0.000000
0.000000
0.000000
0.000000
0.000000
0.000000
0.000000
0.000000
0.000000
0.000000
0.000000
0.000000
0.000000
0.000000
0.000000
0.000000
0.000000
0.000000
0.000000
0.000000
0.000000
0.000000
0.000000
0.000000
0.000000
0.000000
0.000000
0.000000
0.000000
0.000000
0.000000
0.000000
0.000000
0.000000
0.000000
0.000000
0.000000
0.000000
0.000000
0.000000
0.000000
0.000000
0.000000
0.000000
0.000000
0.000000
0.000000
0.000000
0.000000
0.000000
0.000000
0.000000
0.000000
0.000000
0.000000
0.000000
0.000000
0.000000
0.000000
0.000000
0.000000
0.000000
0.000000
0.000000
0.000000
0.000000
0.000000
0.000000
0.000000
0.000000
0.000000
0.000000
0.000000
0.000000
0.000000
0.000000
0.000000
0.000000
0.000000
0.000000
0.000000
0.000000
0.000000
0.000000
0.000000
0.000000
0.000000
0.000000
0.000000
0.000000
0.000000
0.000000
0.000000
0.000000
0.000000
0.000000
0.000000
0.000000
0.000000
0.000000
0.000000
0.000000
0.000000
0.000000
0.000000
0.000000
0.000000
0.000000
0.000000
0.000000
0.000000
0.000000
0.000000
0.000000
0.000000
0.000000
0.000000
0.000000
0.000000
0.000000
0.000000
0.000000
0.000000
0.000000
0.000000
0.000000
0.000000
0.000000
0.000000
0.000000
0.000000
0.000000
0.000000
0.000000
0.000000
0.000000
0.000000
0.000000
0.000000
0.000000
0.000000
0.000000
0.000000
0.000000
0.000000
0.000000
0.000000
0.000000
0.000000
0.000000
0.000000
0.000000
0.000000
0.000000
0.000000
0.000000
0.000000
0.000000
0.000000
0.000000
0.000000
0.000000
0.000000
0.000000
0.000000
0.000000
0.000000
0.000000
0.000000
0.000000
0.000000
0.000000
0.000000
0.000000
0.000000
0.000000
0.000000
0.000000
0.000000
0.000000
0.000000
Trigger para sinal de força
0
0
0
0
0
0
0
0
0
0
0
0
0
0
0
0
0
0
0
0
0
0
0
0
0
0
0
0
0
0
0
0
0
0
0
0
0
0
0
0
0
0
0
0
0
0
0
0
0
0
0
0
0
0
0
0
0
0
0
0
0
0
0
0
0
0
0
0
0
0
0
0
0
0
0
0
0
0
0
0
0
0
0
0
0
0
0
0
0
0
0
0
0
0
0
0
0
0
0
0
0
0
0
0
0
0
0
0
0
0
0
0
0
0
0
0
0
0
0
0
0
0
0
0
0
0
0
0
0
0
0
0
0
0
0
0
0
0
0
0
0
0
0
0
0
0
0
0
0
0
0
0
0
0
0
0
0
0
0
0
0
0
0
0
0
0
0
0
0
0
0
0
0
0
0
0
0
0
0
0
0
0
0
0
0
0
0
0
0
0
0
1
1
0
0
0
0
0
0
0
0
0
0
0
0
0
0
0
0
0
0
0
0
0
0
0
0
0
0
0
0
0
0
0
0
0
0
0
0
0
0
0
0
0
0
0
0
0
0
0
0
0
0
0
0
0
0
0
0
0
0
0
0
0
0
0
0
0
0
0
0
0
0
0
0
0
0
0
0
0
0
0
0
0
0
0
0
0
0
0
0
0
0
0
0
0
0
0
0
0
0
0
0
0
0
0
0
0
0
0
0
0
0
0
0
0
0
0
0
0
0
0
0
0
0
0
0
0
0
0
0
0
0
0
0
0
0
0
0
0
0
0
0
0
0
0
0
0
0
0
0
0
0
0
0
0
0
0
0
0
0
0
0
0
0
0
0
0
0
0
0
0
0
0
0
0
0
0
0
0
0
0
0
0
0
0
0
0
0
0
0
0
0
0
0
0
0
0
0
0
0
0
0
0
0
0
0
0
0
0
0
0
0
0
0
0
0
0
0
0
0
0
0
0
0
0
0
0
0
0
0
0
0
0
0
0
0
0
0
0
0
0
0
0
0
0
0
0
0
0
0
0
0
0
0
0
0
0
0
0
0
0
0
0
0
0
0
0
0
0
0
0
0
0
0
0
0
0
0
0
0
0
0
0
0
0
0
0
0
0
0
0
0
0
0
0
0
0
0
0
0
0
0
0
0
0
0
0
0
0
0
0
0
0
0
0
0
0
0
0
0
0
0
0
0
0
0
0
0
0
0
0
0
0
0
0
0
0
0
0
0
0
0
0
0
0
0
0
0
0
0
0
0
0
0
0
0
0
0
0
0
0
0
0
0
0
0
0
0
0
0
0
0
0
0
0
0
0
0
0
0
0
0
0
0
0
0
0
0
0
0
0
0
0
0
0
0
0
0
0
0
0
0
0
0
0
0
0
0
0
0
0
0
0
0
0
0
0
0
0
0
0
0
0
0
0
0
0
0
0
0
0
0
0
0
0
0
0
0
0
0
0
0
0
0
0
0
0
0
0
0
0
0
0
0
0
0
0
0
0
0
0
0
0
0
0
0
0
0
0
0
0
0
0
0
0
0
0
0
0
0
0
0
0
0
0
0
0
0
0
0
0
0
0
0
0
0
0
0
0
0
0
0
0
0
0
0
0
0
0
0
0
0
0
0
0
0
0
0
0
0
0
0
0
0
0
0
0
0
0
0
0
0
0
0
0
0
0
0
0
0
0
0
0
0
0
0
0
0
0
0
0
0
0
0
0
0
0
0
0
0
0
0
0
0
0
0
0
0
0
0
0
0
0
0
0
0
0
0
0
0
0
0
0
0
0
0
0
0
0
0
0
0
0
0
0
0
0
0
0
0
0
0
0
0
0
0
0
0
0
0
0
0
0
0
0
0
0
0
0
0
0
0
0
0
0
0
0
0
0
0
0
0
0
0
0
0
0
0
0
0
0
0
0
0
0
0
0
0
0
0
0
0
0
0
0
0
0
0
0
0
0
0
0
0
0
0
0
0
0
0
0
0
0
0
0
0
0
0
0
0
0
0
0
0
0
0
0
0
0
0
0
0
0
0
0
0
0
0
0
0
0
0
0
0
0
0
0
0
0
0
0
0
0
0
0
0
0
0
0
0
0
0
0
0
0
0
0
0
0
0
0
0
0
0
0
0
0
0
0
0
0
0
0
0
0
0
0
0
0
0
0
0
0
0
0
0
0
0
0
0
0
0
0
0
0
0
0
0
0
0
0
0
0
0
0
0
0
0
0
0
0
0
0
0
0
0
0
0
0
0
0
0
0
0
0
0
0
0
0
0
0
0
0
0
0
0
0
0
0
0
0
0
0
0
0
0
0
0
0
0
0
0
0
0
0
0
0
0
0
0
0
0
0
0
0
0
0
0
0
0
0
0
0
0
0
0
0
0
0
0
0
0
0
0
0
0
0
0
0
0
0
0
0
0
0
0
0
0
0
0
0
0
0
0
0
0
0
0
0
0
0
0
0
0
0
0
0
0
0
0
0
0
0
0
0
0
0
0
0
0
0
0
0
0
0
0
0
0
0
0
0
0
0
0
0
0
0
0
0
0
0
0
0
0
0
0
0
0
0
0
0
0
0
0
0
0
0
0
0
0
0
0
0
0
0
0
0
0
0
0
0
0
0
0
0
0
0
0
0
0
0
0
0
0
0
0
0
0
0
0
0
0
0
0
0
0
0
0
0
0
0
0
0
0
0
0
0
0
0
0
0
0
0
0
0
0
0
0
0
0
0
0
0
0
0
0
0
0
0
0
0
0
0
0
0
0
0
0
0
0
0
0
0
0
0
0
0
0
0
0
0
0
0
0
0
0
0
0
0
0
0
0
0
0
0
0
0
0
0
0
0
0
0
0
0
0
0
0
0
0
0
0
0
0
0
0
0
0
0
0
0
0
0
0
0
0
0
0
0
0
0
0
0
0
0
0
0
0
0
0
0
0
0
0
0
0
0
0
0
0
0
0
0
0
0
0
0
0
0
0
0
0
0
0
0
0
0
0
0
0
0
0
0
0
0
0
0
0
0
0
0
0
0
0
0
0
0
0
0
0
0
0
0
0
0
0
0
0
0
0
0
0
0
0
0
0
0
0
0
0
0
0
0
0
0
0
0
0
0
0
0
0
0
0
0
0
0
0
0
0
0
0
0
0
0
0
0
0
0
0
0
0
0
0
0
0
0
0
0
0
0
0
0
0
0
0
0
0
0
0
0
0
0
0
0
0
0
0
0
0
0
0
0
0
0
0
0
0
0
0
0
0
0
0
0
0
0
0
0
0
0
0
0
0
0
0
0
0
0
0
0
0
0
0
0
0
0
0
0
0
0
0
0
0
0
0
0
0
0
0
0
0
0
0
0
0
0
0
0
0
0
0
0
0
0
0
0
0
0
0
0
0
0
0
0
0
0
0
0
0
0
0
0
0
0
0
0
0
0
0
0
0
0
0
0
0
0
0
0
0
0
0
0
0
0
0
0
0
0
0
0
0
0
0
0
0
0
0
0
0
0
0
0
0
0
0
0
0
0
0
0
0
0
0
0
0
0
0
0
0
0
0
0
0
0
0
0
0
0
0
0
0
0
0
0
0
0
0
0
0
0
0
0
0
0
0
0
0
0
0
0
0
0
0
0
0
0
0
0
0
0
0
0
0
0
0
0
0
0
0
0
0
0
0
0
0
0
0
0
0
0
0
0
0
0
0
0
0
0
0
0
0
0
0
0
0
0
0
0
0
0
0
1
0
0
0
0
0
0
0
0
0
0
0
0
0
0
0
0
0
0
0
0
0
0
0
0
0
0
0
0
0
0
0
0
0
0
0
0
0
0
0
0
0
0
0
0
0
0
0
0
0
0
0
0
0
0
0
0
0
0
0
0
0
0
0
0
0
0
0
0
0
0
0
0
0
0
0
0
0
0
0
0
0
0
0
0
0
0
0
0
0
0
0
0
0
0
0
0
0
0
0
0
0
0
0
0
0
0
0
0
0
0
0
0
0
0
0
0
0
0
0
0
0
0
0
0
0
0
0
0
0
0
0
0
0
0
0
0
0
0
0
0
0
0
0
0
0
0
0
0
0
0
0
0
0
0
0
0
0
0
0
0
0
0
0
0
0
0
0
0
0
0
0
0
0
0
0
0
0
0
0
0
0
0
0
0
0
0
0
0
0
0
0
0
0
0
0
0
0
0
0
0
0
0
0
0
0
0
0
0
0
0
0
0
0
0
0
0
0
0
0
0
0
0
0
0
0
0
0
0
0
0
0
0
0
0
0
0
0
0
0
0
0
0
0
0
0
0
0
0
0
0
0
0
0
0
0
0
0
0
0
0
0
0
0
0
0
0
0
0
0
0
0
0
0
0
0
0
0
0
0
0
0
0
0
0
0
0
0
0
0
0
0
0
0
0
0
0
0
0
0
0
0
0
0
0
0
0
0
0
0
0
0
0
0
0
0
0
0
0
0
0
0
0
0
0
0
0
0
0
0
0
0
0
0
0
0
0
0
0
0
0
0
0
0
0
0
0
0
0
0
0
0
0
0
0
0
0
0
0
0
0
0
0
0
0
0
0
0
0
0
0
0
0
0
0
0
0
0
0
0
0
0
0
0
0
0
0
0
0
0
0
0
0
0
0
0
0
0
0
0
0
0
0
0
0
0
0
0
0
0
0
0
0
0
0
0
0
0
0
0
0
0
0
0
0
0
0
0
0
0
0
0
0
0
0
0
0
0
0
0
0
0
0
0
0
0
0
0
0
0
0
0
0
0
0
0
0
0
0
0
0
0
0
0
0
0
0
0
0
0
0
0
0
0
0
0
0
0
0
0
0
0
0
0
0
0
0
0
0
0
0
0
0
0
0
0
0
0
0
0
0
0
0
0
0
0
0
0
0
0
0
0
0
0
0
0
0
0
0
0
0
1
0
0
0
0
0
0
0
0
0
0
0
0
0
0
0
0
0
0
0
0
0
0
0
0
0
0
0
0
0
0
0
0
0
0
0
0
0
0
0
0
0
0
0
0
0
0
0
0
0
0
0
0
0
0
0
0
0
0
0
0
0
0
0
0
0
0
0
0
0
0
0
0
0
0
0
0
0
0
0
0
0
0
0
0
0
0
0
0
0
0
0
0
0
0
0
0
0
0
0
0
0
0
0
0
0
0
0
0
0
0
0
0
0
0
0
0
0
0
0
0
0
0
0
0
0
0
0
0
0
0
0
0
0
0
0
0
0
0
0
0
0
0
0
0
0
0
0
0
0
0
0
0
0
0
0
0
0
0
0
0
0
0
0
0
0
0
0
0
0
0
0
0
0
0
0
0
0
0
0
0
0
0
0
0
0
0
0
0
0
0
0
0
0
0
0
0
0
0
0
0
0
0
0
0
0
0
0
0
0
0
0
0
0
0
0
0
0
0
0
0
0
0
0
0
0
0
0
0
0
0
0
0
0
0
0
0
0
0
0
0
0
0
0
0
0
0
0
0
0
0
0
0
0
0
0
0
0
0
0
0
0
0
0
0
0
0
0
0
0
0
0
0
0
0
0
0
0
0
0
0
0
0
0
0
0
0
0
0
0
0
0
0
0
0
0
0
0
0
0
0
0
0
0
0
0
0
0
0
0
0
0
0
0
0
0
0
0
0
0
0
0
0
0
0
0
0
0
0
0
0
0
0
0
0
0
0
0
0
0
0
0
0
0
0
0
0
0
0
0
0
0
0
0
0
0
0
0
0
0
0
0
0
0
0
0
0
0
0
0
0
0
0
0
0
0
0
0
0
0
0
0
0
0
0
0
0
0
0
0
0
0
0
0
0
0
0
0
0
0
0
0
0
0
0
0
0
0
0
0
0
0
0
0
0
0
0
0
0
0
0
0
0
0
0
0
0
0
0
0
0
0
0
0
0
0
0
0
0
0
0
0
0
0
0
0
0
0
0
0
0
0
0
0
0
0
0
0
0
0
0
0
0
0
0
0
0
0
0
0
0
0
0
0
0
0
0
0
0
0
0
0
0
0
0
0
0
0
0
0
0
0
0
0
0
0
0
0
0
0
0
0
0
0
0
0
0
0
0
0
0
0
0
0
0
0
0
0
0
0
0
1
0
0
0
0
0
0
0
0
0
0
0
0
0
0
0
0
0
0
0
0
0
0
0
0
0
0
0
0
0
0
0
0
0
0
0
0
0
0
0
0
0
0
0
0
0
0
0
0
0
0
0
0
0
0
0
0
0
0
0
0
0
0
0
0
0
0
0
0
0
0
0
0
0
0
0
0
0
0
0
0
0
0
0
0
0
0
0
0
0
0
0
0
0
0
0
0
0
0
0
0
0
0
0
0
0
0
0
0
0
0
0
0
0
0
0
0
0
0
0
0
0
0
0
0
0
0
0
0
0
0
0
0
0
0
0
0
0
0
0
0
0
0
0
0
0
0
0
0
0
0
0
0
0
0
0
0
0
0
0
0
0
0
0
0
0
0
0
0
0
0
0
0
0
0
0
0
0
0
0
0
0
0
0
0
0
0
0
0
0
0
0
0
0
0
0
0
0
0
0
0
0
0
0
0
0
0
0
0
0
0
0
0
0
0
0
0
0
0
0
0
0
0
0
0
0
0
0
0
0
0
0
0
0
0
0
0
0
0
0
0
0
0
0
0
0
0
0
0
0
0
0
0
0
0
0
0
0
0
0
0
0
0
0
0
0
0
0
0
0
0
0
0
0
0
0
0
0
0
0
0
0
0
0
0
0
0
0
0
0
0
0
0
0
0
0
0
0
0
0
0
0
0
0
0
0
0
0
0
0
0
0
0
0
0
0
0
0
0
0
0
0
0
0
0
0
0
0
0
0
0
0
0
0
0
0
0
0
0
0
0
1
0
0
0
0
0
0
0
0
0
0
0
0
0
0
0
0
0
0
0
0
0
0
0
0
0
0
0
0
0
0
0
0
0
0
0
0
0
0
0
0
0
0
0
0
0
0
0
0
0
0
0
0
0
0
0
0
0
0
0
0
0
0
0
0
0
0
0
0
0
0
0
0
0
0
0
0
0
0
0
0
0
0
0
0
0
0
0
0
0
0
0
0
0
0
0
0
0
0
0
0
0
0
0
0
0
0
0
0
0
0
0
0
0
0
0
0
0
0
0
0
0
0
0
0
0
0
0
0
0
0
0
0
0
0
0
0
0
0
0
0
0
0
0
0
0
0
0
0
0
0
0
0
0
0
0
0
0
0
0
0
0
0
0
0
0
0
0
0
0
0
0
0
0
0
0
0
0
0
0
0
0
0
0
0
0
0
0
0
0
0
0
0
0
0
0
0
0
0
0
0
0
0
0
0
0
0
0
0
0
0
0
0
0
0
0
0
0
0
0
0
0
0
0
0
0
0
0
0
0
0
0
0
0
0
0
0
0
0
0
0
0
0
0
0
0
0
0
0
0
0
0
0
0
0
0
0
0
0
0
0
0
0
0
0
0
0
0
0
0
0
0
0
0
0
0
0
0
0
0
0
0
0
0
0
0
0
0
0
0
0
0
0
0
0
0
0
0
0
0
0
0
0
0
0
0
0
0
0
0
0
0
0
0
0
0
0
0
0
0
0
0
0
0
0
0
0
0
0
0
0
0
0
0
0
0
0
0
0
0
0
0
0
0
0
0
0
0
0
0
0
0
0
0
0
0
0
0
0
0
0
0
0
0
0
0
0
0
0
0
0
0
0
0
0
0
0
0
0
0
0
0
0
0
0
0
0
0
0
0
0
0
0
0
0
0
0
0
0
0
0
0
0
0
0
0
0
0
0
0
0
0
0
0
0
0
0
0
0
0
0
0
0
0
0
0
0
0
0
0
0
0
0
0
0
0
0
0
0
0
0
0
0
0
0
0
0
0
0
0
0
0
0
0
0
0
0
0
0
0
0
0
0
0
0
0
0
0
0
0
0
0
0
0
0
0
0
0
0
0
0
0
0
0
0
0
0
0
0
0
0
0
0
0
0
0
0
0
0
0
0
0
0
0
0
0
0
0
0
0
0
0
0
0
0
0
0
0
0
0
0
1
0
0
0
0
0
0
0
0
0
0
0
0
0
0
0
0
0
0
0
0
0
0
0
0
0
0
0
0
0
0
0
0
0
0
0
0
0
0
0
0
0
0
0
0
0
0
0
0
0
0
0
0
0
0
0
0
0
0
0
0
0
0
0
0
0
0
0
0
0
0
0
0
0
0
0
0
0
0
0
0
0
0
0
0
0
0
0
0
0
0
0
0
0
0
0
0
0
0
0
0
0
0
0
0
0
0
0
0
0
0
0
0
0
0
0
0
0
0
0
0
0
0
0
0
0
0
0
0
0
0
0
0
0
0
0
0
0
0
0
0
0
0
0
0
0
0
0
0
0
0
0
0
0
0
0
0
0
0
0
0
0
0
0
0
0
0
0
0
0
0
0
0
0
0
0
0
0
0
0
0
0
0
0
0
0
0
0
0
0
0
0
0
0
0
0
0
0
0
0
0
0
0
0
0
0
0
0
0
0
0
0
0
0
0
0
0
0
0
0
0
0
0
0
0
0
0
0
0
0
0
0
0
0
0
0
0
0
0
0
0
0
0
0
0
0
0
0
0
0
0
0
0
0
0
0
0
0
0
0
0
0
0
0
0
0
0
0
0
0
0
0
0
0
0
0
0
0
0
0
0
0
0
0
0
0
0
0
0
0
0
0
0
0
0
0
0
0
0
0
0
0
0
0
0
0
0
0
0
0
0
0
0
0
0
0
0
0
0
0
0
0
0
0
0
0
0
0
0
0
0
0
0
0
0
0
0
0
0
0
0
0
0
0
0
0
0
0
0
0
0
1
0
0
0
0
0
0
0
0
0
0
0
0
0
0
0
0
0
0
0
0
0
0
0
0
0
0
0
0
0
0
0
0
0
0
0
0
0
0
0
0
0
0
0
0
0
0
0
0
0
0
1
0
0
0
0
0
0
0
0
0
0
0
0
0
0
0
0
0
0
0
0
0
0
0
0
0
0
0
0
0
0
0
0
0
0
0
0
0
0
0
0
0
0
0
0
0
0
0
0
0
0
0
0
0
0
0
0
0
0
0
0
0
0
0
0
0
0
0
0
0
0
0
0
0
0
0
0
0
0
0
0
0
0
0
0
0
0
0
0
0
0
0
0
0
0
0
0
0
0
0
0
0
0
0
0
0
0
0
0
0
0
0
0
0
0
0
0
0
0
0
0
0
0
0
0
0
0
0
0
0
0
0
0
0
0
0
0
0
0
0
0
0
0
0
0
0
0
0
0
0
0
0
0
0
0
0
0
0
0
0
0
0
0
0
0
0
0
0
0
0
0
0
0
0
0
0
0
0
0
0
0
0
0
0
0
0
0
0
0
0
0
0
0
0
0
0
0
0
0
0
0
0
0
0
0
0
0
0
0
0
0
0
0
0
0
0
0
0
0
0
0
0
0
0
0
0
0
0
0
0
0
0
0
0
0
0
0
0
0
0
0
0
0
0
0
0
0
0
0
0
0
0
0
0
0
0
0
0
0
0
0
0
0
0
0
0
0
0
0
0
0
0
0
0
0
0
0
0
0
0
0
0
0
0
0
0
0
0
0
0
0
0
0
0
0
0
0
0
0
0
0
0
0
0
0
0
0
0
0
0
0
0
0
0
0
0
0
0
0
0
0
0
0
0
0
0
0
0
0
0
0
0
0
0
0
0
0
0
0
0
0
0
0
0
0
0
0
0
0
0
0
0
0
0
0
0
0
0
0
0
0
0
0
0
0
0
0
0
0
0
0
0
0
0
0
0
0
0
0
0
0
0
0
0
0
0
0
0
0
0
0
0
0
0
0
0
0
0
0
0
0
0
0
0
0
0
0
0
0
0
0
0
0
0
0
0
0
0
0
0
0
0
0
0
0
0
0
0
0
0
0
0
0
0
0
0
0
0
0
0
0
0
0
0
0
0
0
0
0
0
0
0
0
0
0
0
0
0
0
0
0
0
0
0
0
0
0
0
0
0
0
0
0
0
0
0
0
0
0
0
0
0
0
0
0
0
0
0
0
0
0
0
0
0
0
0
0
0
0
0
0
0
0
0
0
0
0
0
0
0
0
0
0
0
0
0
0
0
0
0
0
0
0
0
0
0
0
0
0
0
0
0
0
0
0
0
0
0
0
0
0
0
0
0
0
0
0
0
0
0
0
0
0
0
0
0
0
0
0
0
0
0
0
0
0
0
0
0
0
0
0
0
0
0
0
0
0
0
0
0
0
0
0
0
0
0
0
0
0
0
0
0
0
0
0
0
0
0
0
0
0
0
0
0
0
0
0
0
0
0
0
0
0
0
0
0
0
0
0
0
0
0
0
0
0
0
0
0
0
0
0
NumSamples tab Epoch40
10	10
190	10
180	10
170	10
160	10
150	10
140	10
130	10
120	10
110	10
100	10
90	10
80	10
70	10
60	10
50	10
40	10
30	10
20	10
10	10
10	10
10	10
10	10
10	10
10	10
10	10
10	10
10	10
10	10
10	10
10	10
10	10
10	10
10	10
10	10
10	10
10	10
10	10
10	10
10	10
10	10
10	10
10	10
10	10
10	10
10	10
10	10
10	10
10	10
10	10
10	10
10	10
10	10
10	10
10	10
10	10
10	10
10	10
10	10
10	10
10	10
10	10
10	10
10	10
10	10
10	10
10	10
10	10
10	10
10	10
10	10
10	10
10	10
10	10
10	10
10	10
10	10
10	10
10	10
10	10
10	10
10	10
10	10
10	10
10	10
10	10
10	10
10	10
10	10
10	10
10	10
10	10
10	10
10	10
10	10
10	10
10	10
10	10
10	10
10	10
10	10
10	10
10	10
10	10
10	10
10	10
10	10
10	10
10	10
10	10
10	10
10	10
10	10
10	10
10	10
10	10
10	10
10	10
10	10
10	10
10	10
10	10
10	10
10	10
10	10
10	10
10	10
10	10
10	10
10	10
10	10
10	10
10	10
10	10
10	10
10	10
10	10
10	10
10	10
10	10
10	10
10	10
10	10
10	10
10	10
10	10
10	10
10	10
10	10
10	10
10	10
10	10
10	10
10	10
10	10
10	10
10	10
10	10
10	10
10	10
10	10
10	10
10	10
10	10
10	10
10	10
10	10
10	10
10	10
10	10
10	10
10	10
10	10
10	10
10	10
10	10
10	10
10	10
10	10
10	10
10	10
10	10
10	10
10	10
10	10
10	10
10	10
10	10
10	10
10	10
10	10
10	10
10	10
10	10
10	10
10	10
10	10
10	10
10	10
10	10
10	10
10	10
10	10
10	10
10	10
10	10
10	10
10	10
10	10
10	10
10	10
10	10
10	10
10	10
10	10
10	10
10	10
10	10
10	10
10	10
10	10
10	10
10	10
10	10
10	10
10	10
10	10
10	10
10	10
10	10
10	10
10	10
10	10
10	10
10	10
10	10
10	10
10	10
10	10
10	10
10	10
10	10
10	10
10	10
10	10
10	10
10	10
10	10
10	10
10	10
10	10
10	10
10	10
10	10
10	10
10	10
10	10
10	10
10	10
10	10
10	10
10	10
10	10
10	10
10	10
10	10
10	10
10	10
10	10
10	10
10	10
10	10
10	10
10	10
10	10
10	10
10	10
10	10
10	10
10	10
10	10
10	10
10	10
10	10
10	10
10	10
10	10
10	10
10	10
10	10
10	10
10	10
10	10
10	10
10	10
10	10
10	10
10	10
10	10
10	10
10	10
10	10
10	10
10	10
10	10
10	10
10	10
10	10
10	10
10	10
10	10
10	10
10	10
10	10
10	10
10	10
10	10
10	10
10	10
10	10
10	10
10	10
10	10
10	10
10	10
10	10
10	10
10	10
10	10
10	10
10	10
10	10
10	10
10	10
10	10
10	10
10	10
10	10
10	10
10	10
10	10
10	10
10	10
10	10
10	10
10	10
10	10
10	10
10	10
10	10
10	10
10	10
10	10
10	10
10	10
10	10
10	10
10	10
10	10
10	10
10	10
10	10
10	10
10	10
10	10
10	10
10	10
10	10
10	10
10	10
10	10
10	10
10	10
10	10
10	10
10	10
10	10
10	10
10	10
10	10
10	10
10	10
10	10
10	10
10	10
10	10
10	10
10	10
10	10
10	10
10	10
10	10
10	10
10	10
10	10
10	10
10	10
10	10
10	10
10	10
10	10
10	10
10	10
10	10
10	10
10	10
10	10
10	10
10	10
10	10
10	10
10	10
10	10
10	10
10	10
10	10
10	10
10	10
10	10
10	10
10	10
10	10
10	10
10	10
10	10
10	10
10	10
10	10
10	10
10	10
10	10
10	10
10	10
10	10
10	10
10	10
10	10
10	10
10	10
10	10
10	10
10	10
10	10
10	10
10	10
10	10
10	10
10	10
10	10
10	10
10	10
10	10
10	10
10	10
Localizacao:
0	1278
0	1278
0	1278
0	1278
0	1278
0	1278
0	1278
0	1278
0	1278
0	1278
0	1278
0	1278
0	1278
0	1278
0	1278
0	1278
0	1278
0	1278
0	1278
0	1278
0	1278
0	1278
0	70
1	70
1	70
1	70
1	70
1	70
1	70
1	70
1	70
1	70
1	70
1	70
1	70
1	70
1	70
1	70
1	70
1	70
1	70
1	70
1	70
1	70
1	70
1	70
1	70
1	70
1	70
1	70
1	70
1	70
1	70
1	70
1	70
1	70
1	70
1	70
1	70
1	70
1	70
1	70
1	70
1	70
1	70
1	70
1	70
1	70
1	70
1	70
1	70
1	70
1	70
1	70
1	70
1	70
1	70
1	70
1	70
1	70
1	70
1	70
1	70
1	70
1	70
1	70
1	70
1	70
1	70
1	70
1	70
1	70
1	70
1	70
1	70
1	70
1	70
1	70
1	70
1	70
1	70
1	70
1	70
1	70
1	70
1	70
1	70
1	70
1	70
1	70
1	70
1	70
1	70
1	70
1	70
1	70
1	70
1	70
1	70
1	70
1	70
1	70
1	70
1	70
1	70
1	70
1	70
1	70
1	70
1	70
1	70
1	71
1	91
1	148
1	222
1	295
1	365
1	439
1	510
1	563
1	598
1	629
1	659
1	681
1	700
1	721
1	740
1	759
1	779
1	803
1	829
1	856
1	885
1	913
1	938
1	963
1	988
1	1007
1	1018
1	1026
1	1035
1	1043
1	1053
1	1063
1	1070
1	1075
1	1078
1	1082
1	1084
1	1085
1	1086
1	1087
1	1089
1	1090
1	1092
1	1093
1	1096
1	1100
1	1105
1	1110
1	1117
1	1125
1	1130
1	1132
1	1132
1	1132
1	1131
1	1103
1	1025
1	911
1	784
1	645
1	502
1	355
1	199
1	94
1	70
2	70
2	70
2	70
2	70
2	70
2	70
2	70
2	70
2	70
2	95
2	205
2	373
2	532
2	677
2	808
2	915
2	993
2	1052
2	1091
2	1113
2	1120
2	1122
2	1122
2	1122
2	1122
2	1123
2	1122
2	1121
2	1121
2	1109
2	1050
2	921
2	734
2	515
2	290
2	125
2	71
3	70
3	70
3	70
3	70
3	70
3	70
3	70
3	70
3	70
3	73
3	123
3	223
3	315
3	389
3	472
3	563
3	641
3	701
3	752
3	798
3	836
3	874
3	916
3	965
3	1001
3	1016
3	1020
3	1022
3	1026
3	1030
3	1033
3	1038
3	1048
3	1063
3	1086
3	1108
3	1122
3	1130
3	1132
3	1132
3	1132
3	1129
3	1104
3	1022
3	875
3	694
3	495
3	286
3	128
3	71
4	70
4	70
4	70
4	70
4	70
4	70
4	70
4	70
4	85
4	179
4	345
4	510
4	659
4	796
4	907
4	987
4	1051
4	1098
4	1119
4	1127
4	1130
4	1132
4	1135
4	1136
4	1136
4	1134
4	1122
4	1070
4	946
4	745
4	500
4	254
4	103
4	70
5	70
5	70
5	70
5	70
5	70
5	70
5	70
5	78
5	136
5	247
5	369
5	482
5	587
5	673
5	727
5	763
5	789
5	806
5	823
5	844
5	866
5	889
5	909
5	929
5	955
5	977
5	990
5	1000
5	1009
5	1019
5	1027
5	1031
5	1034
5	1038
5	1048
5	1062
5	1080
5	1099
5	1111
5	1114
5	1114
5	1115
5	1115
5	1116
5	1115
5	1115
5	1099
5	1032
5	876
5	644
5	396
5	186
5	82
5	70
6	70
6	70
6	70
6	70
6	70
6	70
6	70
6	96
6	194
6	318
6	420
6	535
6	678
6	827
6	944
6	1023
6	1082
6	1124
6	1154
6	1177
6	1194
6	1201
6	1202
6	1203
6	1203
6	1202
6	1183
6	1111
6	982
6	834
6	696
6	560
6	411
6	247
6	115
6	70
7	70
7	70
7	70
7	70
7	70
7	70
7	70
7	70
7	70
7	70
7	70
7	70
7	70
7	70
7	70
7	70
7	70
7	70
7	70
7	70
7	70
7	70
7	70
7	70
7	70
7	70
7	70
7	70
7	70
7	70
7	70
7	70
7	70
7	70
7	70
7	70
7	70
7	70
7	70
7	70
7	70
7	70
7	70
7	70
7	70
7	70