
1	1.393617
1	0.733803
1	0.954037
1	0.765389
1	0.779310
1	1.828113
1	2.014931
1	1.402555
1	1.841194
1	1.765489
1	1.166018
1	0.986639
1	0.920000
1	0.973510
1	0.875333
1	1.875784
1	1.697850
1	2.081931
1	1.880979
1	1.588566
1	1.075648
1	0.993998
1	0.867729
1	0.834038
1	0.905239
1	0.697161
1	2.349379
1	1.538714
1	2.429545
1	2.212167
1	0.972797
1	0.746145
1	0.877891
1	0.910843
1	0.887994
1	1.539922
1	2.311348
1	1.913080
1	2.172493
1	2.500044
1	1.499137
1	0.952453
1	0.941259
1	0.898645
1	0.878545
1	1.369986
1	1.689646
1	2.500560
1	2.501363
1	2.501305
1	1.002171
1	0.951501
1	0.911997
1	0.918181
1	0.932666
1	1.804530
1	2.323595
1	1.718073
1	2.025625
1	2.500789
1	0.982874
1	0.894907
1	0.886431
1	0.918203
1	0.909828
1	2.079188
1	2.386559
1	2.400241
1	1.085022
1	1.843150