
0	70
0	70
0	75
0	75
0	76
0	77
0	78
0	76
0	75
0	77
0	78
0	78
0	85
0	100
0	121
0	142
0	161
0	177
0	194
0	207
0	216
0	225
0	236
0	246
0	254
0	264
0	275
0	281
0	287
0	297
0	308
0	321
0	341
0	397
0	451
0	494
0	518
0	502
0	467
0	440
0	451
0	479
0	534
0	605
0	652
0	667
0	684
0	693
0	670
0	662
0	685
0	707
0	741
0	776
0	785
0	779
0	764
0	755
0	752
0	761
0	777
0	797
0	835
0	855
0	870
0	871
0	861
0	868
0	854
0	858
0	892
0	935
0	998
0	1028
0	1014
0	989
0	964
0	950
0	917
0	900
0	954
0	1032
0	1023
0	972
0	973
0	990
0	997
0	1022
0	1023
0	1014
0	996
0	992
0	1016
0	1028
0	1030
0	1050
0	1123
0	1153
0	1153
0	1186
0	1188
0	1110
0	1003
0	830
0	505
0	268
0	209
0	184
0	176
0	172
0	164
0	155
0	151
0	145
0	134
0	122
0	110
0	100
1	92
1	85
1	79
1	75
1	74
1	73
1	72
1	70
1	70
1	70
1	70
1	70
1	70
1	70
1	70
1	70
1	70
1	70
1	70
1	70
1	75
1	79
1	83
1	85
1	86
1	91
1	90
1	87
1	85
1	81
1	77
1	75
1	74
1	74
1	71
1	70
1	70
1	70
1	70
1	70
1	70
1	70
1	70
1	70
1	70
1	70
1	70
1	70
1	70
1	70
1	70
1	70
1	70
1	70
1	70
1	70
1	70
1	70
1	70
1	70
1	70
1	71
1	77
1	86
1	94
1	103
1	114
1	123
1	130
1	137
1	146
1	158
1	176
1	194
1	209
1	227
1	249
1	270
1	289
1	306
1	333
1	400
1	464
1	506
1	550
1	616
1	663
1	649
1	618
1	600
1	618
1	663
1	753
1	863
1	932
1	947
1	950
1	965
1	955
1	930
1	942
1	994
1	1009
1	999
1	1000
1	992
1	992
1	976
1	978
1	1004
1	1022
1	1018
1	1011
1	1020
1	1008
1	996
1	1015
1	1050
1	1044
1	1039
1	1055
1	1043
1	1041
1	1059
1	1081
1	1101
1	1128
1	1174
1	1190
1	1166
1	1156
1	1093
1	963
1	807
1	595
1	395
1	291
1	260
1	246
1	225
1	197
1	175
1	156
1	134
1	117
1	104
2	93
2	85
2	81
2	75
2	70
2	70
2	70
2	70
2	70
2	70
2	70
2	70
2	70
2	70
2	70
2	70
2	70
2	72
2	75
2	74
2	73
2	72
2	71
2	70
2	70
2	70
2	70
2	70
2	70
2	70
2	70
2	70
2	70
2	70
2	70
2	70
2	70
2	70
2	70
2	70
2	70
2	70
2	70
2	70
2	70
2	70
2	72
2	72
2	76
2	85
2	100
2	123
2	153
2	179
2	197
2	215
2	229
2	241
2	253
2	264
2	279
2	296
2	311
2	333
2	370
2	410
2	448
2	492
2	546
2	600
2	653
2	694
2	707
2	722
2	738
2	763
2	811
2	844
2	856
2	858
2	875
2	902
2	899
2	869
2	860
2	866
2	870
2	927
2	958
2	954
2	980
2	997
2	1006
2	1002
2	978
2	961
2	961
2	976
2	1021
2	1072
2	1080
2	1070
2	1058
2	1041
2	1019
2	999
2	993
2	1002
2	1031
2	1059
2	1074
2	1097
2	1095
2	1073
2	1064
2	1068
2	1052
2	1030
2	1041
2	1051
2	1037
2	1016
2	1028
2	1031
2	1034
2	1089
2	1114
2	1090
2	1098
2	1123
2	1113
2	1029
2	986
2	1022
2	1048
2	1067
2	1056
2	888
2	573
2	333
2	232
2	179
2	140
2	115
2	99
3	89
3	80
3	71
3	70
3	70
3	70
3	70
3	70
3	70
3	70
3	70
3	70
3	70
3	70
3	70
3	70
3	70
3	70
3	70
3	70
3	70
3	70
3	70
3	70
3	70
3	70
3	70
3	70
3	70
3	70
3	70
3	70
3	70
3	70
3	70
3	70
3	70
3	75
3	83
3	98
3	110
3	116
3	119
3	124
3	132
3	146
3	162
3	178
3	193
3	209
3	227
3	247
3	264
3	273
3	280
3	286
3	298
3	322
3	353
3	393
3	442
3	505
3	579
3	634
3	639
3	624
3	628
3	630
3	645
3	666
3	700
3	766
3	794
3	790
3	777
3	770
3	794
3	807
3	817
3	854
3	874
3	863
3	862
3	883
3	903
3	906
3	919
3	949
3	978
3	1008
3	1032
3	1043
3	1052
3	1031
3	999
3	1002
3	1031
3	1044
3	1053
3	1094
3	1126
3	1123
3	1134
3	1133
3	1093
3	1069
3	1057
3	967
3	680
3	377
3	259
3	214
3	178
3	153
3	128
3	110
3	96
4	84
4	73
4	70
4	70
4	70
4	70
4	70
4	70
4	70
4	70
4	70
4	70
4	70
4	70
4	70
4	70
4	70
4	70
4	77
4	91
4	110
4	132
4	154
4	169
4	182
4	196
4	209
4	225
4	246
4	271
4	300
4	340
4	384
4	430
4	482
4	546
4	603
4	633
4	660
4	668
4	665
4	664
4	665
4	663
4	678
4	721
4	739
4	741
4	742
4	748
4	765
4	791
4	843
4	890
4	938
4	954
4	944
4	948
4	958
4	964
4	963
4	1015
4	1062
4	1061
4	1066
4	1089
4	1107
4	1085
4	1061
4	1039
4	1002
4	994
4	991
4	985
4	1021
4	1038
4	1032
4	1047
4	1047
4	1035
4	1034
4	1034
4	1036
4	1038
4	1046
4	1094
4	1122
4	1115
4	1128
4	1111
4	1086
4	1077
4	1084
4	1002
4	686
4	371
4	245
4	197
4	165
4	148
4	131
4	112
4	99
5	89
5	82
5	76
5	70
5	70
5	70
5	70
5	70
5	70
5	70
5	70
5	70
5	70
5	70
5	70
5	70
5	70
5	70
5	70
5	81
5	98
5	114
5	125
5	131
5	135
5	139
5	145
5	153
5	162
5	172
5	178
5	176
5	173
5	165
5	152
5	141
5	130
5	119
5	112
5	105
6	99
6	93
6	85
6	79
6	73
6	70
6	70
6	74
6	76
6	77
6	79
6	79
6	78
6	78
6	78
6	77
6	77
6	76
6	75
6	77
6	78
6	77
6	76
6	74
6	75
6	74
6	70
6	70
6	70
6	70
6	70
6	70
6	70
6	70
6	70
6	70
6	70
6	70
6	70
6	70
6	71
6	71
6	71
6	71
6	72
6	73
6	73
6	73
6	74
6	74
6	75
6	76
6	81
6	87
6	92
6	98
6	104
6	108
6	112
6	121
6	130
6	146
6	163
6	179
6	198
6	215
6	229
6	233
6	231
6	230
6	234
6	245
6	258
6	272
6	284
6	299
6	322
6	348
6	375
6	404
6	438
6	472
6	508
6	543
6	569
6	603
6	642
6	674
6	710
6	742
6	766
6	776
6	787
6	802
6	840
6	907
6	968
6	1018
6	1049
6	1054
6	1067
6	1097
6	1122
6	1156
6	1183
6	1200
6	1219
6	1235
6	1273
6	1278
6	1278
6	1278
6	1278
6	1278
6	1278
6	1278
6	1278
6	1278
6	1278
6	1278
6	1278
6	1278
6	1278
6	1278
6	1278
6	1278
6	1278
6	1278
6	1278
6	1278
6	1278
6	1278
6	1278
6	1278
6	1278
6	1278
6	1278
6	1278
6	1278
6	1278
6	1278
6	1278
6	1278
6	1278
6	1106
6	733
6	419
6	273
6	223
6	191
6	167
6	147
6	130
6	116
6	105
7	94
7	85
7	77
7	70
7	70
7	70
7	70
7	70
7	70
7	70
7	70
7	70
7	70
7	70
7	70
7	70
7	70
7	70
7	70
7	70
7	70
7	71
7	71
7	71
7	72
7	72
7	73
7	74
7	72
7	70
7	70
7	70
7	70
7	70
7	70
7	70
7	70
7	70
7	70
7	70
7	70
7	70
7	70
7	71
7	75
7	77
7	80
7	83
7	83
7	79
7	75
7	71
7	70
7	70
7	71
7	74
7	75
7	78
7	83
7	90
7	98
7	103
7	109
7	116
7	121
7	124
7	126
7	126
7	124
7	121
7	120
7	125
7	141
7	168
7	198
7	225
7	252
7	278
7	298
7	314
7	334
7	366
7	405
7	457
7	538
7	598
7	622
7	658
7	719
7	798
7	903
7	1006
7	1071
7	1114
7	1143
7	1163
7	1170
7	1174
7	1206
7	1223
7	1210
7	1198
7	1178
7	1160
7	1160
7	1160
7	1175
7	1218
7	1259
7	1266
7	1216
7	1164
7	1169
7	1223
7	1248
7	1268
7	1278
7	1278
7	1278
7	1278
7	1278
7	1278
7	1278
7	1278
7	1278
7	1278
7	1278
7	1278
7	1278
7	1278
7	1278
7	1278
7	1278
7	1278
7	1278
7	1278
7	1278
7	1278
7	1278
7	1278
7	1278
7	1278
7	1278
7	1278
7	1278
7	1278
7	1278
7	1278
7	1278
7	923
7	558
7	343
7	264
7	227
7	197
7	167
7	142
7	124
7	110
7	99
8	91
8	85
8	81
8	76
8	71
8	70
8	70
8	70
8	70
8	70
8	70
8	70
8	70
8	70
8	70
8	70
8	70
8	70
8	70
8	70
8	70
8	70
8	70
8	70
8	70
8	70
8	70
8	70
8	70
8	72
8	79
8	83
8	83
8	84
8	84
8	83
8	82
8	84
8	89
8	93
8	95
8	93
8	90
8	91
8	101
8	114
8	130
8	147
8	163
8	179
8	195
8	209
8	220
8	230
8	236
8	241
8	245
8	251
8	261
8	273
8	287
8	308
8	355
8	432
8	534
8	663
8	784
8	886
8	984
8	1049
8	1077
8	1115
8	1151
8	1162
8	1160
8	1163
8	1199
8	1229
8	1233
8	1266
8	1278
8	1278
8	1278
8	1278
8	1278
8	1278
8	1278
8	1278
8	1278
8	1278
8	1278
8	1278
8	1278
8	1278
8	1278
8	1278
8	1278
8	1278
8	1278
8	1278
8	1278
8	1278
8	1278
8	1278
8	1278
8	1278
8	1278
8	1278
8	1278
8	1278
8	1278
8	1278
8	1278
8	1278
8	1278
8	1278
8	1278
8	1278
8	1215
8	872
8	536
8	339
8	274
8	244
8	220
8	198
8	179
8	161
8	146
8	135
8	125
8	116
8	109
8	101
9	93
9	86
9	79
9	72
9	70
9	70
9	70
9	70
9	70
9	70
9	70
9	70
9	70
9	70
9	70
9	70
9	70
9	70
9	70
9	70
9	70
9	70
9	70
9	70
9	70
9	71
9	78
9	89
9	103
9	118
9	132
9	146
9	156
9	164
9	173
9	185
9	198
9	211
9	224
9	238
9	253
9	271
9	293
9	322
9	364
9	420
9	480
9	547
9	618
9	682
9	739
9	781
9	813
9	857
9	902
9	941
9	991
9	1053
9	1098
9	1140
9	1175
9	1188
9	1217
9	1254
9	1253
9	1229
9	1238
9	1243
9	1228
9	1234
9	1241
9	1237
9	1262
9	1278
9	1278
9	1278
9	1278
9	1278
9	1278
9	1278
9	1278
9	1278
9	1278
9	1278
9	1278
9	1278
9	1278
9	1278
9	1278
9	1278
9	1278
9	1278
9	1278
9	1278
9	1278
9	1278
9	1278
9	1278
9	1278
9	1278
9	1278
9	1278
9	1278
9	1278
9	1278
9	1278
9	1278
9	1278
9	1278
9	1278
9	1278
9	1278
9	1278
9	1278
9	1278
9	1278
9	873
9	503
9	312
9	254
9	221
9	191
9	162
9	140
9	123
9	110
9	99
10	90
10	84
10	81
10	81
10	82
10	82
10	80
10	80
10	80
10	81
10	81
10	80
10	80
10	80
10	80
10	80
10	79
10	79
10	81
10	80
10	79
10	81
10	81
10	80
10	80
10	80
10	80
10	79
10	80
10	81
10	80
10	80
10	81
10	82
10	82
10	81
10	81
10	81
10	81
10	81
10	81
10	82
10	80
10	79
10	79
10	79
10	79
10	79
10	80
10	80
10	79
10	78
10	78
10	78
10	77
10	76
10	76
10	73
10	70
10	70
10	74
10	81
10	86
10	88
10	88
10	88
10	90
10	99
10	121
10	145
10	160
10	182
10	204
10	220
10	238
10	247
10	253
10	259
10	265
10	274
10	296
10	341
10	430
10	556
10	678
10	762
10	794
10	788
10	768
10	789
10	825
10	829
10	842
10	878
10	908
10	917
10	922
10	931
10	934
10	930
10	923
10	920
10	943
10	999
10	1099
10	1235
10	1278
10	1278
10	1278
10	1254
10	1197
10	1096
10	936
10	777
10	691
10	589
10	461
10	368
10	307
10	271
10	241
10	206
10	172
10	145
10	124
10	108
10	96
11	89
11	83
11	79
11	79
11	80
11	84
11	87
11	86
11	85
11	85
11	86
11	88
11	90
11	93
11	94
11	89
11	85
11	85
11	86
11	89
11	95
11	100
11	105
11	111
11	114
11	116
11	122
11	132
11	152
11	183
11	219
11	247
11	272
11	304
11	353
11	411
11	448
11	492
11	580
11	662
11	662
11	632
11	691
11	751
11	753
11	755
11	833
11	901
11	873
11	837
11	825
11	815
11	795
11	802
11	830
11	862
11	896
11	916
11	927
11	954
11	968
11	975
11	980
11	975
11	965
11	961
11	984
11	998
11	1021
11	1051
11	1063
11	1069
11	1041
11	1014
11	1013
11	1027
11	1055
11	1084
11	1114
11	1125
11	1097
11	1067
11	1076
11	1089
11	1039
11	1038
11	1028
11	953
11	879
11	708
11	451
11	270
11	201
11	156
11	129
11	110
11	96
12	89
12	84
12	80
12	78
12	75
12	72
12	70
12	70
12	70
12	70
12	72
12	71
12	73
12	77
12	79
12	80
12	83
12	87
12	95
12	109
12	127
12	153
12	185
12	216
12	244
12	272
12	311
12	368
12	448
12	537
12	624
12	695
12	745
12	780
12	784
12	791
12	830
12	893
12	939
12	953
12	973
12	976
12	950
12	927
12	924
12	912
12	897
12	933
12	972
12	978
12	995
12	1002
12	996
12	1006
12	1027
12	1036
12	1040
12	1062
12	1089
12	1089
12	1077
12	1066
12	1049
12	1041
12	1044
12	1059
12	1068
12	1071
12	1059
12	1050
12	1057
12	1074
12	1077
12	1071
12	1085
12	1110
12	1100
12	1083
12	1095
12	1099
12	1092
12	1132
12	1156
12	1140
12	1160
12	1180
12	1151
12	919
12	538
12	307
12	234
12	179
12	142
12	127
12	114
12	100
13	89
13	80
13	76
13	75
13	74
13	76
13	83
13	92
13	98
13	102
13	100
13	99
13	100
13	105
13	118
13	133
13	144
13	155
13	168
13	184
13	201
13	219
13	233
13	243
13	254
13	264
13	275
13	286
13	299
13	316
13	348
13	403
13	484
13	572
13	630
13	666
13	693
13	709
13	726
13	766
13	817
13	849
13	872
13	886
13	899
13	924
13	939
13	946
13	970
13	1003
13	1006
13	1003
13	1016
13	994
13	968
13	980
13	1026
13	1047
13	1029
13	1034
13	1052
13	1045
13	1028
13	1041
13	1066
13	1085
13	1103
13	1128
13	1131
13	1120
13	1106
13	1067
13	1054
13	1068
13	1049
13	944
13	696
13	405
13	252
13	202
13	169
13	143
13	121
13	105
14	94
14	86
14	79
14	74
14	75
14	80
14	84
14	85
14	82
14	82
14	83
14	83
14	82
14	80
14	75
14	72
14	71
14	70
14	70
14	71
14	72
14	71
14	70
14	72
14	75
14	78
14	79
14	79
14	79
14	80
14	81
14	81
14	80
14	80
14	81
14	81
14	79
14	79
14	79
14	79
14	79
14	78
14	79
14	79
14	79
14	79
14	78
14	76
14	76
14	75
14	75
14	77
14	78
14	78
14	78
14	77
14	78
14	79
14	78
14	77
14	78
14	78
14	75
14	75
14	80
14	79
14	73
14	71
14	72
14	77
14	86
14	93
14	104
14	113
14	119
14	139
14	187
14	242
14	286
14	328
14	383
14	473
14	601
14	751
14	906
14	990
14	1000
14	954
14	885
14	839
14	796
14	786
14	826
14	882
14	937
14	979
14	1023
14	1040
14	1029
14	1027
14	1041
14	1057
14	1067
14	1102
14	1131
14	1145
14	1142
14	1115
14	1073
14	1014
14	941
14	894
14	861
14	782
14	596
14	379
14	262
14	220
14	193
14	167
14	139
14	115
14	100
15	89
15	79
15	73
15	70
15	70
15	70
15	70
15	70
15	70
15	70
15	70
15	70
15	71
15	71
15	75
15	83
15	89
15	94
15	99
15	106
15	115
15	127
15	141
15	160
15	177
15	190
15	196
15	200
15	210
15	225
15	240
15	252
15	262
15	276
15	294
15	316
15	344
15	379
15	421
15	459
15	487
15	504
15	522
15	564
15	626
15	703
15	745
15	750
15	782
15	852
15	924
15	978
15	1023
15	1063
15	1109
15	1150
15	1165
15	1182
15	1215
15	1265
15	1278
15	1278
15	1278
15	1278
15	1278
15	1278
15	1278
15	1278
15	1278
15	1278
15	1014
15	700
15	455
15	315
15	263
15	231
15	206
15	184
15	164
15	151
15	142
15	132
15	123
15	114
15	104
16	94
16	86
16	82
16	78
16	72
16	70
16	70
16	70
16	70
16	70
16	70
16	70
16	70
16	70
16	73
16	78
16	85
16	94
16	103
16	113
16	121
16	130
16	137
16	145
16	159
16	178
16	189
16	192
16	196
16	203
16	213
16	225
16	238
16	250
16	259
16	266
16	277
16	291
16	307
16	326
16	342
16	358
16	377
16	398
16	405
16	406
16	445
16	521
16	597
16	667
16	744
16	814
16	843
16	848
16	845
16	848
16	911
16	981
16	1027
16	1099
16	1171
16	1252
16	1278
16	1278
16	1278
16	1278
16	1278
16	1278
16	1278
16	1278
16	1278
16	1278
16	1278
16	1278
16	956
16	607
16	388
16	283
16	236
16	202
16	176
16	158
16	145
16	135
16	126
16	120
16	114
16	108
16	102
17	96
17	93
17	92
17	90
17	87
17	83
17	79
17	74
17	70
17	70
17	70
17	70
17	71
17	75
17	77
17	78
17	79
17	82
17	88
17	93
17	100
17	112
17	125
17	137
17	147
17	163
17	182
17	202
17	221
17	239
17	257
17	274
17	294
17	320
17	352
17	400
17	449
17	490
17	541
17	599
17	651
17	701
17	725
17	742
17	790
17	850
17	907
17	966
17	1018
17	1047
17	1069
17	1090
17	1115
17	1171
17	1272
17	1278
17	1278
17	1278
17	1278
17	1278
17	1278
17	1278
17	1278
17	1278
17	1278
17	1278
17	1278
17	1278
17	1278
17	1278
17	1156
17	785
17	484
17	324
17	263
17	224
17	196
17	172
17	152
17	141
17	136
17	131
17	124
17	117
17	111
17	103
18	100
18	101
18	100
18	97
18	94
18	89
18	87
18	85
18	82
18	78
18	75
18	70
18	70
18	70
18	70
18	70
18	70
18	70
18	70
18	70
18	70
18	70
18	70
18	72
18	91
18	109
18	124
18	137
18	150
18	161
18	170
18	185
18	203
18	220
18	236
18	248
18	256
18	263
18	272
18	283
18	290
18	297
18	308
18	322
18	346
18	388
18	406
18	390
18	394
18	436
18	514
18	632
18	726
18	763
18	790
18	840
18	886
18	921
18	953
18	949
18	946
18	984
18	1028
18	1052
18	1071
18	1084
18	1106
18	1148
18	1204
18	1264
18	1278
18	1278
18	1278
18	1278
18	1278
18	1278
18	1278
18	1278
18	1278
18	1278
18	1278
18	1278
18	1278
18	1278
18	1278
18	1278
18	1278
18	1082
18	726
18	418
18	281
18	235
18	206
18	182
18	163
18	153
18	145
18	138
18	137
18	136
18	129
18	120
18	111
18	103
19	97
19	91
19	84
19	80
19	78
19	72
19	70
19	70
19	70
19	70
19	70
19	70
19	70
19	70
19	70
19	70
19	70
19	70
19	70
19	70
19	70
19	80
19	94
19	109
19	127
19	149
19	168
19	185
19	201
19	215
19	230
19	250
19	269
19	292
19	319
19	354
19	399
19	449
19	505
19	561
19	613
19	670
19	735
19	792
19	826
19	847
19	877
19	942
19	1007
19	1035
19	1043
19	1039
19	1029
19	1062
19	1141
19	1210
19	1262
19	1278
19	1278
19	1278
19	1278
19	1278
19	1278
19	1278
19	1278
19	1278
19	1278
19	1278
19	1278
19	1278
19	1278
19	1278
19	1278
19	1278
19	1278
19	1278
19	1278
19	1278
19	1275
19	833
19	479
19	302
19	241
19	208
19	177
19	153
19	138
19	129
19	120
19	110
19	102
20	84
20	70
20	70
20	70
20	70
20	70
20	70
20	70
20	70
20	70
20	70
20	70
20	70
20	70
20	70
20	70
20	70
20	70
20	70
20	70
20	70
20	70
20	70
20	70
20	70
20	70
20	70
20	70
20	70
20	70
20	70
20	70
20	70
20	71
20	79
20	84
20	85
20	88
20	86
20	79
20	76
20	73
20	72
20	75
20	78
20	79
20	78
20	75
20	79
20	84
20	88
20	97
20	108
20	123
20	138
20	153
20	172
20	193
20	213
20	231
20	250
20	273
20	300
20	323
20	351
20	415
20	502
20	567
20	618
20	687
20	770
20	830
20	840
20	830
20	829
20	834
20	850
20	877
20	945
20	1026
20	1057
20	1059
20	1056
20	1049
20	1047
20	1048
20	1046
20	1055
20	1091
20	1123
20	1124
20	1123
20	1126
20	1115
20	1054
20	931
20	674
20	376
20	219
20	159
20	124
20	101
21	86
21	76
21	70
21	70
21	70
21	70
21	70
21	70
21	70
21	70
21	72
21	77
21	81
21	87
21	94
21	104
21	119
21	138
21	160
21	190
21	227
21	260
21	287
21	314
21	347
21	395
21	472
21	559
21	627
21	674
21	718
21	759
21	798
21	841
21	868
21	883
21	902
21	921
21	923
21	928
21	962
21	1028
21	1068
21	1073
21	1079
21	1077
21	1086
21	1094
21	1104
21	1115
21	1124
21	1125
21	1113
21	1108
21	1104
21	1090
21	1033
21	784
21	438
21	255
21	191
21	156
21	137
21	126
21	118
21	111
21	106
21	99
22	92
22	90
22	86
22	84
22	85
22	86
22	86
22	87
22	87
22	90
22	100
22	120
22	149
22	173
22	192
22	211
22	235
22	262
22	291
22	327
22	379
22	462
22	575
22	696
22	790
22	844
22	886
22	890
22	867
22	856
22	851
22	857
22	889
22	952
22	1015
22	1060
22	1070
22	1055
22	1048
22	1042
22	1053
22	1065
22	1082
22	1110
22	1118
22	1117
22	1123
22	1130
22	1144
22	1138
22	1127
22	1111
22	1047
22	911
22	631
22	352
22	234
22	194
22	165
22	149
22	137
22	123
22	112
22	105
23	101
23	99
23	98
23	94
23	92
23	92
23	92
23	90
23	90
23	92
23	98
23	111
23	140
23	174
23	197
23	210
23	225
23	246
23	270
23	297
23	330
23	379
23	445
23	514
23	581
23	632
23	676
23	733
23	794
23	814
23	810
23	829
23	843
23	856
23	902
23	938
23	937
23	945
23	952
23	954
23	966
23	983
23	1004
23	1029
23	1050
23	1056
23	1041
23	1038
23	1039
23	1033
23	1053
23	1086
23	1102
23	1102
23	1089
23	1074
23	1064
23	1050
23	1140
23	1139
23	1042
23	1054
23	1040
23	935
23	665
23	366
23	224
23	169
23	135
23	116
23	103
24	94
24	88
24	88
24	88
24	89
24	94
24	96
24	97
24	100
24	110
24	129
24	162
24	199
24	233
24	262
24	286
24	333
24	395
24	461
24	550
24	629
24	688
24	728
24	759
24	801
24	827
24	841
24	854
24	858
24	871
24	885
24	910
24	941
24	951
24	952
24	962
24	981
24	1002
24	1016
24	1033
24	1053
24	1058
24	1051
24	1057
24	1076
24	1081
24	1088
24	1100
24	1108
24	1111
24	1116
24	1116
24	1101
24	1084
24	1084
24	1089
24	1060
24	1016
24	1011
24	971
24	939
24	938
24	886
24	712
24	437
24	265
24	193
24	151
24	126
24	109
24	99
25	92
25	86
25	83
25	82
25	83
25	83
25	80
25	79
25	79
25	84
25	102
25	133
25	177
25	224
25	260
25	289
25	323
25	363
25	390
25	371
25	317
25	274
25	241
25	213
25	200
25	207
25	213
25	207
25	190
25	169
25	153
25	140
25	127
25	115
25	108
25	109
25	118
25	138
25	165
25	191
25	231
25	309
25	451
25	635
25	782
25	895
25	1002
25	1100
25	1193
25	1266
25	1278
25	1278
25	1278
25	1278
25	1278
25	1278
25	1278
25	1278
25	1278
25	1278
25	1278
25	1278
25	1278
25	1278
25	1278
25	1278
25	1278
25	1278
25	1278
25	1278
25	1278
25	1278
25	1278
25	1278
25	1278
25	1162
25	714
25	398
25	265
25	214
25	175
25	146
25	126
25	114
25	105
26	98
26	92
26	87
26	82
26	80
26	78
26	78
26	76
26	73
26	71
26	70
26	70
26	70
26	70
26	70
26	70
26	70
26	70
26	70
26	70
26	70
26	70
26	70
26	77
26	88
26	101
26	113
26	126
26	142
26	156
26	171
26	189
26	208
26	228
26	250
26	275
26	301
26	330
26	366
26	407
26	445
26	481
26	536
26	639
26	740
26	779
26	816
26	873
26	925
26	968
26	1007
26	1051
26	1099
26	1140
26	1182
26	1227
26	1269
26	1278
26	1278
26	1278
26	1278
26	1278
26	1278
26	1278
26	1278
26	1278
26	1278
26	1278
26	1278
26	1278
26	1278
26	1278
26	1278
26	1278
26	1278
26	889
26	589
26	385
26	279
26	240
26	211
26	188
26	171
26	155
26	141
26	129
26	119
26	114
26	107
26	102
27	99
27	95
27	92
27	90
27	88
27	86
27	85
27	82
27	79
27	78
27	76
27	74
27	72
27	73
27	71
27	70
27	70
27	70
27	70
27	76
27	84
27	90
27	94
27	100
27	107
27	120
27	141
27	164
27	184
27	208
27	233
27	257
27	285
27	327
27	385
27	440
27	490
27	536
27	588
27	663
27	736
27	789
27	818
27	826
27	827
27	851
27	908
27	968
27	1025
27	1052
27	1057
27	1076
27	1110
27	1151
27	1186
27	1241
27	1278
27	1278
27	1278
27	1278
27	1278
27	1278
27	1278
27	1278
27	1278
27	1278
27	1278
27	1278
27	1278
27	1278
27	1278
27	1278
27	1278
27	1278
27	1278
27	1278
27	1278
27	1278
27	1278
27	1270
27	883
27	574
27	372
27	280
27	235
27	212
27	195
27	178
27	167
27	157
27	147
27	135
27	129
27	127
27	124
27	121
27	116
27	109
27	101
28	94
28	89
28	83
28	77
28	72
28	70
28	70
28	70
28	70
28	70
28	70
28	70
28	70
28	70
28	70
28	70
28	83
28	102
28	121
28	138
28	154
28	172
28	189
28	202
28	213
28	223
28	234
28	247
28	259
28	270
28	280
28	292
28	313
28	352
28	389
28	409
28	432
28	461
28	497
28	539
28	586
28	632
28	675
28	720
28	775
28	818
28	842
28	885
28	940
28	1023
28	1117
28	1193
28	1257
28	1278
28	1278
28	1278
28	1278
28	1278
28	1278
28	1278
28	1278
28	1278
28	1278
28	1278
28	1278
28	1278
28	1278
28	1278
28	1278
28	1278
28	1186
28	952
28	690
28	454
28	340
28	286
28	261
28	245
28	227
28	210
28	194
28	176
28	158
28	146
28	138
28	130
28	122
28	113
28	102
29	93
29	88
29	85
29	83
29	81
29	77
29	73
29	70
29	70
29	70
29	70
29	70
29	70
29	70
29	70
29	70
29	70
29	70
29	73
29	95
29	124
29	148
29	163
29	176
29	191
29	208
29	221
29	232
29	242
29	253
29	264
29	276
29	290
29	307
29	341
29	382
29	429
29	499
29	583
29	657
29	732
29	791
29	820
29	850
29	887
29	912
29	934
29	968
29	1003
29	1033
29	1043
29	1046
29	1077
29	1101
29	1111
29	1155
29	1219
29	1278
29	1278
29	1278
29	1278
29	1278
29	1278
29	1278
29	1278
29	1278
29	1278
29	1278
29	1278
29	1278
29	1278
29	1278
29	1278
29	1170
29	796
29	535
29	373
29	295
29	253
29	225
29	201
29	184
29	173
29	164
29	155
29	147
29	138
29	129
29	119
29	111
29	107
29	102
30	98
30	93
30	93
30	97
30	101
30	104
30	103
30	102
30	103
30	103
30	101
30	97
30	93
30	92
30	92
30	92
30	91
30	89
30	87
30	86
30	85
30	82
30	79
30	75
30	70
30	70
30	70
30	70
30	70
30	70
30	70
30	70
30	70
30	70
30	70
30	70
30	72
30	79
30	85
30	89
30	91
30	93
30	96
30	98
30	105
30	115
30	125
30	142
30	164
30	183
30	195
30	206
30	221
30	240
30	260
30	280
30	295
30	309
30	327
30	356
30	389
30	439
30	510
30	577
30	629
30	676
30	731
30	788
30	850
30	919
30	959
30	962
30	959
30	958
30	968
30	974
30	990
30	1003
30	1008
30	1009
30	995
30	976
30	968
30	1005
30	1062
30	1107
30	1148
30	1178
30	1171
30	1126
30	1079
30	1012
30	825
30	520
30	304
30	232
30	194
30	165
30	146
30	135
30	125
30	119
30	116
30	111
30	105
31	103
31	102
31	99
31	97
31	97
31	97
31	96
31	93
31	97
31	109
31	123
31	139
31	164
31	193
31	222
31	251
31	285
31	329
31	388
31	455
31	530
31	597
31	635
31	667
31	683
31	674
31	679
31	713
31	761
31	802
31	845
31	888
31	886
31	868
31	871
31	884
31	894
31	919
31	948
31	967
31	983
31	989
31	1000
31	1010
31	1017
31	1033
31	1067
31	1090
31	1097
31	1101
31	1098
31	1081
31	1057
31	1029
31	983
31	918
31	831
31	701
31	551
31	392
31	269
31	216
31	186
31	159
31	136
31	119
31	110
31	106
31	101
32	95
32	92
32	93
32	94
32	95
32	97
32	101
32	102
32	103
32	103
32	103
32	106
32	112
32	121
32	137
32	155
32	177
32	204
32	231
32	257
32	280
32	308
32	356
32	433
32	541
32	664
32	731
32	750
32	768
32	764
32	759
32	765
32	783
32	831
32	909
32	986
32	1019
32	1021
32	1023
32	1008
32	1003
32	1003
32	990
32	1015
32	1073
32	1133
32	1157
32	1149
32	1146
32	1112
32	1047
32	926
32	727
32	542
32	398
32	298
32	251
32	222
32	202
32	183
32	167
32	153
32	143
32	136
32	131
32	126
32	121
32	119
32	119
32	117
32	113
32	110
32	107
32	105
33	104
33	104
33	103
33	103
33	104
33	111
33	121
33	133
33	143
33	156
33	169
33	180
33	192
33	208
33	222
33	238
33	254
33	268
33	283
33	301
33	326
33	357
33	404
33	466
33	528
33	582
33	627
33	678
33	716
33	723
33	742
33	779
33	819
33	863
33	911
33	941
33	951
33	957
33	949
33	942
33	958
33	985
33	1007
33	1024
33	1046
33	1060
33	1062
33	1063
33	1072
33	1078
33	1092
33	1145
33	1188
33	1205
33	1220
33	1199
33	1143
33	926
33	528
33	274
33	214
33	189
33	178
33	170
33	159
33	145
33	136
33	128
33	120
33	119
33	121
33	123
33	124
33	122
33	120
33	118
33	118
33	116
33	113
33	112
33	113
33	116
33	123
33	137
33	161
33	190
33	213
33	230
33	248
33	272
33	304
33	342
33	386
33	453
33	517
33	550
33	583
33	618
33	646
33	683
33	715
33	730
33	744
33	784
33	857
33	910
33	904
33	892
33	899
33	910
33	923
33	944
33	970
33	989
33	992
33	976
33	968
33	974
33	978
33	979
33	985
33	1004
33	1016
33	1014
33	1025
33	1037
33	1044
33	1056
33	1076
33	1078
33	1060
33	1061
33	1064
33	1063
33	1059
33	1054
33	1064
33	1074
33	1079
33	1087
33	1083
33	1070
33	1074
33	1111
33	1155
33	1166
33	1157
33	1153
33	1099
33	938
33	686
33	434
33	297
33	249
33	218
33	193
33	178
33	169
33	160
33	151
33	145
33	142
33	140
33	139
33	136
33	131
33	123
33	114
33	109
33	108
33	105
34	102
34	98
34	97
34	98
34	98
34	98
34	101
34	111
34	128
34	148
34	169
34	190
34	208
34	221
34	234
34	249
34	267
34	288
34	317
34	347
34	388
34	468
34	545
34	594
34	626
34	640
34	653
34	663
34	665
34	666
34	670
34	698
34	765
34	850
34	911
34	937
34	941
34	932
34	929
34	940
34	940
34	939
34	968
34	998
34	1009
34	1023
34	1051
34	1053
34	1039
34	1041
34	1030
34	1012
34	1017
34	1040
34	1060
34	1070
34	1095
34	1104
34	1088
34	1083
34	1088
34	1093
34	1101
34	1111
34	1113
34	1099
34	1093
34	1074
34	1046
34	1078
34	1084
34	1071
34	1026
34	886
34	669
34	446
34	323
34	252
34	196
34	164
34	143
34	127
34	119
34	112
34	103
35	97
35	93
35	91
35	89
35	86
35	85
35	85
35	84
35	86
35	86
35	86
35	90
35	93
35	91
35	93
35	98
35	111
35	128
35	143
35	162
35	186
35	211
35	231
35	239
35	236
35	225
35	217
35	216
35	226
35	245
35	279
35	336
35	402
35	452
35	480
35	520
35	575
35	645
35	698
35	715
35	722
35	737
35	772
35	805
35	832
35	868
35	906
35	944
35	974
35	993
35	1016
35	1050
35	1115
35	1158
35	1166
35	1199
35	1229
35	1255
35	1278
35	1278
35	1278
35	1278
35	1278
35	1278
35	1278
35	1278
35	1278
35	1278
35	1278
35	1278
35	1278
35	1278
35	1278
35	1278
35	1222
35	889
35	612
35	401
35	296
35	255
35	225
35	203
35	186
35	174
35	164
35	153
35	142
35	134
35	126
35	119
35	112
35	103
36	96
36	92
36	86
36	82
36	79
36	78
36	78
36	76
36	75
36	72
36	70
36	70
36	70
36	70
36	70
36	70
36	70
36	77
36	90
36	107
36	125
36	136
36	145
36	155
36	168
36	179
36	185
36	194
36	203
36	213
36	226
36	238
36	248
36	260
36	272
36	287
36	310
36	340
36	375
36	410
36	447
36	484
36	514
36	552
36	605
36	655
36	696
36	710
36	715
36	739
36	772
36	816
36	881
36	954
36	1013
36	1062
36	1064
36	1045
36	1074
36	1136
36	1200
36	1246
36	1276
36	1278
36	1278
36	1278
36	1278
36	1278
36	1278
36	1278
36	1278
36	1278
36	1278
36	1278
36	1278
36	1278
36	1278
36	1278
36	1278
36	1278
36	1278
36	1278
36	1002
36	709
36	468
36	334
36	270
36	241
36	222
36	208
36	194
36	180
36	168
36	158
36	147
36	135
36	127
36	120
36	112
36	110
36	110
36	108
36	103
37	98
37	94
37	89
37	83
37	81
37	78
37	77
37	74
37	70
37	70
37	70
37	70
37	70
37	70
37	70
37	70
37	70
37	79
37	96
37	113
37	129
37	144
37	157
37	168
37	177
37	186
37	195
37	208
37	227
37	243
37	258
37	272
37	287
37	305
37	333
37	380
37	448
37	517
37	569
37	613
37	657
37	713
37	785
37	848
37	917
37	1003
37	1101
37	1195
37	1216
37	1212
37	1252
37	1277
37	1278
37	1278
37	1278
37	1278
37	1278
37	1278
37	1278
37	1278
37	1278
37	1278
37	1278
37	1278
37	1278
37	1278
37	1278
37	1278
37	1278
37	1138
37	958
37	790
37	601
37	432
37	326
37	281
37	258
37	238
37	218
37	198
37	181
37	167
37	154
37	145
37	138
37	129
37	120
37	113
37	107
37	100
38	94
38	88
38	84
38	82
38	78
38	74
38	71
38	70
38	70
38	70
38	70
38	70
38	70
38	70
38	70
38	70
38	70
38	70
38	70
38	70
38	70
38	70
38	70
38	70
38	73
38	78
38	84
38	91
38	100
38	106
38	116
38	132
38	146
38	156
38	165
38	176
38	190
38	207
38	225
38	246
38	274
38	305
38	344
38	384
38	438
38	505
38	561
38	604
38	654
38	724
38	804
38	865
38	900
38	934
38	964
38	1004
38	1066
38	1133
38	1170
38	1186
38	1218
38	1264
38	1278
38	1278
38	1278
38	1278
38	1278
38	1278
38	1278
38	1278
38	1278
38	1278
38	1278
38	1278
38	1278
38	1278
38	1278
38	1265
38	985
38	773
38	622
38	465
38	339
38	280
38	255
38	233
38	215
38	203
38	192
38	181
38	173
38	168
38	160
38	148
38	134
38	121
38	111
38	103
39	96
39	87
39	79
39	71
39	70
39	70
39	70
39	70
39	70
39	70
39	70
39	70
39	70
39	70
39	70
39	70
39	70
39	70
39	87
39	112
39	127
39	139
39	160
39	192
39	224
39	245
39	256
39	263
39	268
39	274
39	277
39	284
39	302
39	344
39	404
39	472
39	530
39	582
39	636
39	686
39	772
39	855
39	902
39	931
39	960
39	1034
39	1113
39	1166
39	1201
39	1212
39	1233
39	1278
39	1278
39	1278
39	1278
39	1278
39	1278
39	1278
39	1278
39	1278
39	1278
39	1278
39	1278
39	1278
39	1278
39	1278
39	1278
39	1278
39	1278
39	1278
39	1278
39	1278
39	1278
39	1278
39	1278
39	1278
39	888
39	576
39	384
39	286
39	247
39	222
39	201
39	186
39	174
39	162
39	149
39	139
39	132
39	124
39	118
39	111
39	105
40	84
40	70
40	70
40	70
40	70
40	70
40	70
40	70
40	70
40	70
40	70
40	70
40	70
40	70
40	70
40	70
40	70
40	70
40	70
40	70
40	70
40	70
40	70
40	70
40	70
40	70
40	70
40	70
40	70
40	70
40	70
40	78
40	79
40	78
40	77
40	76
40	76
40	78
40	78
40	75
40	75
40	77
40	75
40	73
40	73
40	73
40	72
40	70
40	70
40	70
40	70
40	70
40	70
40	70
40	76
40	85
40	91
40	94
40	99
40	105
40	111
40	115
40	130
40	156
40	179
40	211
40	252
40	296
40	347
40	425
40	523
40	641
40	756
40	804
40	806
40	786
40	781
40	816
40	854
40	880
40	922
40	981
40	975
40	927
40	921
40	951
40	969
40	975
40	975
40	978
40	1008
40	1049
40	1091
40	1143
40	1225
40	1272
40	1244
40	1220
40	1147
40	1003
40	824
40	609
40	414
40	291
40	244
40	219
40	196
40	173
40	151
40	131
40	116
40	107
40	101
41	96
41	89
41	82
41	80
41	85
41	91
41	93
41	95
41	99
41	102
41	107
41	113
41	122
41	134
41	149
41	170
41	196
41	224
41	246
41	261
41	290
41	378
41	559
41	735
41	802
41	834
41	836
41	816
41	836
41	845
41	860
41	907
41	934
41	955
41	970
41	983
41	995
41	991
41	982
41	976
41	990
41	1006
41	1030
41	1057
41	1055
41	1050
41	1059
41	1055
41	1067
41	1100
41	1157
41	1169
41	1131
41	1111
41	1084
41	1005
41	771
41	472
41	302
41	247
41	214
41	184
41	157
41	135
41	121
41	110
41	100
42	96
42	94
42	91
42	91
42	95
42	100
42	104
42	110
42	118
42	130
42	148
42	171
42	193
42	211
42	228
42	245
42	269
42	302
42	350
42	414
42	506
42	583
42	640
42	698
42	739
42	771
42	804
42	836
42	854
42	882
42	902
42	915
42	944
42	962
42	969
42	1007
42	1055
42	1062
42	1043
42	1041
42	1063
42	1047
42	1036
42	1053
42	1041
42	1031
42	1056
42	1110
42	1116
42	1092
42	1102
42	1088
42	1045
42	1002
42	995
42	1020
42	1046
42	1056
42	909
42	610
42	369
42	255
42	203
42	166
42	142
42	126
42	113
42	102
43	96
43	94
43	93
43	93
43	93
43	92
43	92
43	90
43	93
43	103
43	119
43	147
43	182
43	214
43	242
43	269
43	302
43	356
43	445
43	551
43	641
43	707
43	762
43	816
43	843
43	848
43	871
43	922
43	972
43	1025
43	1063
43	1062
43	1044
43	1010
43	993
43	993
43	994
43	1001
43	1023
43	1058
43	1071
43	1095
43	1120
43	1108
43	1107
43	1117
43	1114
43	1082
43	1058
43	1088
43	1079
43	1065
43	1119
43	1109
43	1059
43	999
43	843
43	565
43	331
43	242
43	194
43	160
43	140
43	130
43	121
43	112
43	106
43	106
43	110
43	113
43	118
43	121
43	121
43	118
43	114
43	108
43	102
44	96
44	92
44	90
44	87
44	85
44	83
44	80
44	78
44	77
44	82
44	98
44	129
44	167
44	201
44	231
44	257
44	282
44	321
44	387
44	456
44	511
44	574
44	616
44	653
44	705
44	742
44	773
44	806
44	845
44	903
44	957
44	973
44	960
44	949
44	956
44	976
44	1004
44	1012
44	1019
44	1034
44	1049
44	1073
44	1096
44	1096
44	1074
44	1062
44	1056
44	1041
44	1032
44	1062
44	1096
44	1093
44	1089
44	1113
44	1110
44	1107
44	1136
44	1127
44	1126
44	1110
44	1073
44	1017
44	866
44	590
44	334
44	230
44	191
44	166
44	153
44	143
44	134
44	126
44	116
44	108
44	102
45	94
45	90
45	89
45	86
45	85
45	82
45	78
45	75
45	73
45	73
45	73
45	77
45	82
45	92
45	111
45	135
45	158
45	180
45	202
45	223
45	235
45	240
45	248
45	268
45	305
45	350
45	389
45	426
45	495
45	576
45	650
45	711
45	727
45	732
45	745
45	774
45	813
45	845
45	870
45	877
45	905
45	969
45	1030
45	1096
45	1162
45	1206
45	1244
45	1278
45	1278
45	1278
45	1278
45	1278
45	1278
45	1278
45	1278
45	1278
45	1278
45	1278
45	1278
45	1278
45	1278
45	1278
45	1278
45	1186
45	785
45	490
45	323
45	261
45	234
45	215
45	197
45	182
45	167
45	152
45	140
45	132
45	122
45	113
45	106
45	99
46	92
46	87
46	85
46	81
46	77
46	73
46	70
46	70
46	70
46	70
46	70
46	70
46	70
46	70
46	70
46	70
46	70
46	90
46	114
46	137
46	154
46	171
46	188
46	204
46	219
46	232
46	244
46	258
46	269
46	275
46	279
46	289
46	308
46	328
46	351
46	371
46	392
46	421
46	472
46	555
46	687
46	814
46	899
46	954
46	990
46	1032
46	1059
46	1083
46	1123
46	1176
46	1229
46	1269
46	1278
46	1278
46	1278
46	1278
46	1278
46	1278
46	1278
46	1278
46	1278
46	1278
46	1278
46	1278
46	1278
46	1278
46	1278
46	1278
46	1278
46	1278
46	1278
46	1278
46	1253
46	962
46	678
46	436
46	305
46	252
46	223
46	201
46	187
46	178
46	170
46	162
46	152
46	143
46	133
46	123
46	117
46	115
46	113
46	108
46	101
47	91
47	84
47	79
47	74
47	70
47	70
47	70
47	70
47	70
47	70
47	70
47	70
47	70
47	70
47	70
47	70
47	70
47	71
47	83
47	93
47	100
47	108
47	118
47	129
47	137
47	145
47	154
47	165
47	179
47	191
47	202
47	214
47	226
47	240
47	255
47	267
47	275
47	278
47	284
47	298
47	321
47	353
47	400
47	464
47	551
47	644
47	737
47	821
47	858
47	892
47	950
47	1033
47	1137
47	1203
47	1248
47	1278
47	1278
47	1278
47	1278
47	1278
47	1278
47	1278
47	1278
47	1278
47	1278
47	1278
47	1278
47	1278
47	1278
47	1278
47	1278
47	1278
47	1278
47	1278
47	1278
47	1278
47	1278
47	1278
47	1278
47	1278
47	1278
47	989
47	679
47	448
47	328
47	271
47	238
47	209
47	184
47	164
47	142
47	125
47	112
47	102
48	92
48	83
48	75
48	70
48	70
48	70
48	70
48	70
48	70
48	70
48	70
48	70
48	70
48	70
48	70
48	70
48	79
48	92
48	106
48	121
48	137
48	151
48	160
48	169
48	178
48	189
48	203
48	217
48	229
48	242
48	261
48	292
48	349
48	464
48	603
48	726
48	835
48	924
48	1024
48	1135
48	1220
48	1276
48	1278
48	1278
48	1278
48	1278
48	1278
48	1278
48	1278
48	1278
48	1278
48	1278
48	1278
48	1278
48	1278
48	1278
48	1278
48	1278
48	1278
48	1278
48	1278
48	1278
48	1278
48	1278
48	1278
48	1278
48	1278
48	1278
48	1097
48	726
48	497
48	382
48	313
48	268
48	234
48	208
48	186
48	166
48	149
48	136
48	124
48	112
48	104
49	97
49	93
49	87
49	80
49	75
49	71
49	70
49	70
49	70
49	70
49	70
49	70
49	70
49	77
49	89
49	99
49	109
49	120
49	134
49	147
49	159
49	169
49	179
49	189
49	200
49	212
49	223
49	237
49	254
49	268
49	279
49	291
49	310
49	353
49	460
49	602
49	698
49	769
49	843
49	910
49	963
49	1024
49	1121
49	1228
49	1278
49	1278
49	1278
49	1278
49	1278
49	1278
49	1278
49	1278
49	1278
49	1278
49	1278
49	1278
49	1278
49	1278
49	1278
49	1278
49	1278
49	1278
49	1278
49	1278
49	1278
49	1278
49	1278
49	1278
49	1278
49	1278
49	1278
49	1158
49	864
49	649
49	469
49	340
49	275
49	242
49	218
49	194
49	175
49	158
49	144
49	133
49	123
49	112
49	106
49	102
50	90
50	72
50	70
50	70
50	70
50	70
50	70
50	70
50	70
50	72
50	76
50	76
50	77
50	77
50	78
50	79
50	78
50	78
50	79
50	79
50	78
50	79
50	78
50	78
50	78
50	78
50	77
50	76
50	75
50	73
50	73
50	74
50	77
50	80
50	80
50	79
50	80
50	79
50	76
50	76
50	78
50	77
50	75
50	70
50	70
50	70
50	70
50	70
50	71
50	72
50	77
50	80
50	81
50	84
50	90
50	93
50	99
50	108
50	116
50	115
50	118
50	121
50	121
50	121
50	123
50	128
50	132
50	138
50	150
50	171
50	198
50	233
50	271
50	324
50	417
50	541
50	670
50	754
50	778
50	812
50	859
50	889
50	895
50	884
50	891
50	927
50	967
50	1012
50	1051
50	1060
50	1081
50	1117
50	1125
50	1119
50	1127
50	1137
50	1120
50	1080
50	1066
50	1033
50	869
50	565
50	323
50	235
50	195
50	168
50	148
50	131
50	117
50	107
50	101
51	97
51	92
51	91
51	90
51	88
51	89
51	89
51	89
51	91
51	94
51	98
51	105
51	117
51	135
51	157
51	174
51	187
51	202
51	219
51	237
51	253
51	269
51	292
51	326
51	368
51	423
51	499
51	584
51	656
51	684
51	686
51	709
51	770
51	799
51	804
51	845
51	880
51	893
51	888
51	905
51	939
51	960
51	990
51	1028
51	1061
51	1083
51	1084
51	1095
51	1109
51	1094
51	1087
51	1108
51	1120
51	1146
51	1120
51	1062
51	1041
51	971
51	801
51	540
51	327
51	236
51	201
51	173
51	157
51	157
51	164
51	164
51	159
51	157
51	159
51	160
51	154
51	143
51	129
51	122
51	117
51	112
51	107
51	102
52	98
52	98
52	103
52	117
52	139
52	165
52	191
52	215
52	236
52	255
52	282
52	330
52	399
52	462
52	504
52	553
52	618
52	697
52	768
52	801
52	825
52	858
52	895
52	931
52	958
52	985
52	1009
52	1030
52	1061
52	1073
52	1070
52	1068
52	1077
52	1091
52	1087
52	1102
52	1137
52	1147
52	1165
52	1184
52	1172
52	1119
52	974
52	705
52	444
52	313
52	261
52	236
52	215
52	202
52	191
52	177
52	165
52	157
52	147
52	139
52	133
52	130
52	131
52	129
52	126
52	125
52	122
52	127
52	143
52	165
52	196
52	226
52	248
52	271
52	303
52	343
52	388
52	453
52	553
52	659
52	745
52	823
52	890
52	921
52	927
52	932
52	944
52	961
52	971
52	979
52	987
52	994
52	1005
52	1017
52	1047
52	1073
52	1082
52	1089
52	1083
52	1064
52	1043
52	1051
52	1091
52	1097
52	1086
52	1119
52	1153
52	1144
52	1120
52	1111
52	1045
52	860
52	589
52	361
52	256
52	204
52	174
52	156
52	141
52	128
52	117
52	110
52	105
53	101
53	97
53	96
53	102
53	114
53	133
53	156
53	181
53	204
53	224
53	239
53	249
53	260
53	272
53	287
53	301
53	317
53	345
53	401
53	438
53	451
53	497
53	539
53	570
53	609
53	664
53	722
53	751
53	754
53	765
53	799
53	818
53	837
53	897
53	902
53	872
53	907
53	935
53	948
53	987
53	1053
53	1115
53	1158
53	1168
53	1153
53	1158
53	1116
53	999
53	823
53	628
53	464
53	345
53	283
53	240
53	203
53	175
53	159
53	148
53	136
53	125
53	114
53	108
53	101
54	95
54	89
54	89
54	93
54	94
54	95
54	99
54	110
54	129
54	157
54	191
54	220
54	245
54	268
54	296
54	337
54	399
54	495
54	595
54	662
54	693
54	713
54	749
54	780
54	797
54	834
54	884
54	914
54	933
54	943
54	963
54	970
54	956
54	958
54	974
54	1005
54	1029
54	1042
54	1075
54	1088
54	1061
54	1070
54	1114
54	1112
54	1066
54	1058
54	1080
54	1073
54	1068
54	1055
54	1053
54	1075
54	1082
54	1110
54	1095
54	1029
54	962
54	923
54	929
54	945
54	824
54	550
54	340
54	248
54	205
54	176
54	150
54	130
54	116
54	107
54	99
55	95
55	94
55	95
55	95
55	95
55	95
55	94
55	95
55	108
55	132
55	165
55	202
55	231
55	251
55	272
55	304
55	342
55	354
55	352
55	364
55	395
55	434
55	481
55	555
55	619
55	663
55	707
55	736
55	759
55	802
55	839
55	856
55	870
55	887
55	908
55	955
55	1023
55	1077
55	1121
55	1171
55	1238
55	1278
55	1278
55	1278
55	1278
55	1278
55	1278
55	1278
55	1278
55	1278
55	1278
55	1278
55	1278
55	1278
55	1278
55	1278
55	1278
55	1278
55	998
55	635
55	387
55	290
55	248
55	213
55	187
55	167
55	151
55	142
55	133
55	125
55	119
55	111
55	103
56	97
56	92
56	88
56	86
56	84
56	83
56	81
56	82
56	87
56	94
56	105
56	121
56	147
56	173
56	194
56	213
56	228
56	239
56	255
56	273
56	288
56	298
56	302
56	312
56	331
56	361
56	407
56	480
56	571
56	650
56	702
56	734
56	772
56	819
56	869
56	954
56	1024
56	1047
56	1075
56	1114
56	1174
56	1234
56	1274
56	1278
56	1278
56	1278
56	1278
56	1278
56	1278
56	1278
56	1278
56	1278
56	1278
56	1278
56	1278
56	1278
56	1278
56	1278
56	1020
56	738
56	528
56	374
56	272
56	225
56	192
56	166
56	148
56	137
56	131
56	125
56	119
56	114
56	112
56	115
56	115
56	112
56	108
56	102
57	96
57	93
57	90
57	87
57	87
57	87
57	84
57	81
57	80
57	80
57	87
57	102
57	129
57	159
57	187
57	213
57	238
57	264
57	289
57	315
57	352
57	432
57	546
57	651
57	735
57	789
57	818
57	849
57	920
57	1010
57	1093
57	1150
57	1177
57	1183
57	1189
57	1232
57	1278
57	1278
57	1278
57	1278
57	1278
57	1278
57	1278
57	1278
57	1278
57	1278
57	1278
57	1278
57	1278
57	1278
57	1278
57	1278
57	1278
57	1278
57	1278
57	1278
57	1203
57	806
57	501
57	342
57	270
57	237
57	214
57	194
57	175
57	157
57	143
57	130
57	116
57	107
57	100
58	95
58	92
58	88
58	84
58	81
58	77
58	74
58	71
58	70
58	70
58	80
58	97
58	117
58	144
58	171
58	195
58	217
58	239
58	259
58	276
58	299
58	334
58	384
58	460
58	549
58	637
58	700
58	747
58	814
58	890
58	957
58	1017
58	1077
58	1115
58	1145
58	1187
58	1239
58	1278
58	1278
58	1278
58	1278
58	1278
58	1278
58	1278
58	1278
58	1278
58	1278
58	1278
58	1278
58	1278
58	1278
58	1278
58	1278
58	1278
58	1278
58	1278
58	1278
58	1278
58	1278
58	1278
58	1278
58	1278
58	1278
58	998
58	658
58	404
58	289
58	248
58	225
58	203
58	185
58	170
58	154
58	138
58	124
58	113
58	104
59	96
59	92
59	90
59	87
59	83
59	80
59	78
59	76
59	72
59	70
59	70
59	70
59	70
59	70
59	70
59	70
59	86
59	112
59	145
59	173
59	198
59	222
59	244
59	263
59	292
59	357
59	433
59	497
59	588
59	726
59	846
59	916
59	987
59	1046
59	1084
59	1135
59	1200
59	1266
59	1278
59	1278
59	1278
59	1278
59	1278
59	1278
59	1278
59	1278
59	1278
59	1278
59	1278
59	1278
59	1278
59	1278
59	1278
59	1278
59	1278
59	1278
59	1278
59	1278
59	1278
59	1278
59	993
59	715
59	479
59	336
59	285
59	258
59	238
59	221
59	204
59	185
59	166
59	148
59	134
59	121
59	111
59	104
60	92
60	78
60	71
60	70
60	70
60	71
60	72
60	71
60	70
60	71
60	71
60	71
60	70
60	70
60	71
60	70
60	70
60	70
60	72
60	73
60	71
60	70
60	70
60	70
60	71
60	71
60	71
60	71
60	71
60	73
60	74
60	75
60	75
60	75
60	77
60	77
60	76
60	76
60	75
60	74
60	76
60	75
60	75
60	75
60	74
60	73
60	73
60	73
60	72
60	70
60	70
60	70
60	70
60	70
60	70
60	70
60	70
60	70
60	70
60	70
60	70
60	70
60	70
60	70
60	70
60	70
60	70
60	70
60	72
60	75
60	85
60	104
60	134
60	169
60	203
60	235
60	263
60	286
60	315
60	359
60	402
60	463
60	537
60	602
60	659
60	723
60	785
60	809
60	812
60	816
60	845
60	870
60	864
60	858
60	871
60	869
60	868
60	891
60	907
60	926
60	957
60	987
60	986
60	973
60	972
60	993
60	1038
60	1079
60	1123
60	1143
60	1128
60	1115
60	1109
60	1098
60	1070
60	900
60	586
60	346
60	255
60	221
60	200
60	185
60	171
60	158
60	147
60	137
60	127
60	119
60	112
60	106
60	101
61	98
61	95
61	91
61	91
61	92
61	92
61	95
61	103
61	116
61	133
61	156
61	182
61	200
61	214
61	229
61	247
61	266
61	287
61	322
61	374
61	431
61	519
61	609
61	677
61	737
61	774
61	805
61	833
61	854
61	876
61	907
61	925
61	941
61	969
61	1017
61	1058
61	1063
61	1066
61	1070
61	1063
61	1060
61	1065
61	1086
61	1126
61	1163
61	1178
61	1166
61	1126
61	1086
61	986
61	740
61	455
61	291
61	247
61	233
61	222
61	206
61	185
61	165
61	151
61	141
61	133
61	125
61	117
61	110
61	105
62	102
62	98
62	95
62	93
62	96
62	99
62	98
62	97
62	102
62	121
62	148
62	176
62	203
62	225
62	247
62	270
62	301
62	341
62	389
62	434
62	491
62	573
62	658
62	746
62	837
62	908
62	936
62	949
62	946
62	938
62	948
62	967
62	994
62	1024
62	1048
62	1048
62	1032
62	1024
62	1054
62	1066
62	1056
62	1089
62	1105
62	1101
62	1103
62	1098
62	1088
62	1101
62	1108
62	1086
62	1075
62	1079
62	1045
62	867
62	656
62	478
62	312
62	229
62	190
62	162
62	146
62	134
62	124
62	116
62	108
62	103
63	98
63	96
63	95
63	93
63	90
63	89
63	86
63	85
63	90
63	104
63	116
63	124
63	138
63	157
63	178
63	198
63	222
63	250
63	296
63	390
63	532
63	664
63	749
63	805
63	852
63	915
63	957
63	944
63	941
63	968
63	999
63	1005
63	999
63	1009
63	1024
63	1043
63	1064
63	1089
63	1120
63	1137
63	1169
63	1182
63	1150
63	1096
63	974
63	739
63	491
63	339
63	271
63	243
63	216
63	188
63	163
63	146
63	131
63	119
63	112
63	108
63	105
64	102
64	100
64	96
64	91
64	87
64	85
64	84
64	83
64	81
64	82
64	83
64	81
64	79
64	84
64	104
64	139
64	176
64	205
64	229
64	250
64	273
64	313
64	372
64	436
64	513
64	590
64	644
64	675
64	706
64	745
64	771
64	796
64	846
64	901
64	952
64	986
64	996
64	1011
64	1031
64	1053
64	1068
64	1080
64	1091
64	1096
64	1100
64	1100
64	1125
64	1146
64	1156
64	1171
64	1187
64	1156
64	964
64	645
64	398
64	291
64	245
64	223
64	205
64	183
64	162
64	141
64	125
64	113
64	104
65	98
65	94
65	91
65	88
65	85
65	81
65	78
65	77
65	77
65	90
65	120
65	175
65	242
65	290
65	321
65	355
65	392
65	406
65	383
65	386
65	464
65	598
65	707
65	729
65	711
65	713
65	772
65	866
65	946
65	987
65	990
65	1005
65	1055
65	1108
65	1159
65	1214
65	1256
65	1278
65	1278
65	1278
65	1278
65	1278
65	1278
65	1278
65	1278
65	1278
65	1278
65	1278
65	1278
65	1219
65	967
65	687
65	474
65	347
65	270
65	231
65	201
65	175
65	155
65	141
65	130
65	119
65	109
65	100
66	91
66	82
66	74
66	70
66	70
66	70
66	70
66	70
66	70
66	70
66	73
66	105
66	143
66	182
66	214
66	241
66	265
66	287
66	317
66	359
66	425
66	521
66	626
66	710
66	766
66	823
66	880
66	947
66	1016
66	1054
66	1087
66	1130
66	1161
66	1180
66	1208
66	1247
66	1278
66	1278
66	1278
66	1278
66	1278
66	1278
66	1278
66	1278
66	1278
66	1278
66	1278
66	1278
66	1278
66	1278
66	1278
66	1278
66	1146
66	839
66	560
66	369
66	273
66	227
66	198
66	173
66	151
66	136
66	128
66	121
66	112
66	104
67	95
67	86
67	76
67	70
67	70
67	70
67	70
67	70
67	70
67	70
67	70
67	70
67	70
67	74
67	94
67	125
67	157
67	182
67	203
67	225
67	250
67	275
67	299
67	331
67	379
67	465
67	563
67	657
67	732
67	784
67	867
67	977
67	1069
67	1117
67	1140
67	1155
67	1178
67	1214
67	1234
67	1259
67	1278
67	1278
67	1278
67	1278
67	1278
67	1278
67	1278
67	1278
67	1278
67	1278
67	1278
67	1278
67	1278
67	1278
67	1278
67	1037
67	757
67	511
67	348
67	280
67	247
67	226
67	209
67	190
67	170
67	153
67	137
67	123
67	112
67	106
67	103
68	98
68	93
68	86
68	80
68	75
68	71
68	70
68	70
68	70
68	70
68	70
68	70
68	70
68	70
68	70
68	70
68	70
68	74
68	87
68	107
68	138
68	168
68	189
68	211
68	232
68	253
68	270
68	290
68	326
68	382
68	454
68	528
68	583
68	637
68	693
68	733
68	769
68	807
68	860
68	925
68	987
68	1035
68	1060
68	1083
68	1102
68	1132
68	1199
68	1274
68	1278
68	1278
68	1278
68	1278
68	1278
68	1278
68	1278
68	1278
68	1278
68	1278
68	1278
68	1278
68	1278
68	1278
68	1278
68	1278
68	1278
68	1278
68	1278
68	1278
68	1278
68	1278
68	1278
68	1278
68	1278
68	1278
68	1278
68	1116
68	771
68	488
68	325
68	270
68	243
68	220
68	198
68	178
68	158
68	141
68	127
68	115
68	106
68	99
69	94
69	88
69	84
69	82
69	80
69	76
69	74
69	70
69	70
69	72
69	83
69	98
69	116
69	136
69	159
69	183
69	205
69	227
69	248
69	274
69	304
69	353
69	443
69	553
69	658
69	757
69	841
69	911
69	972
69	1028
69	1071
69	1121
69	1203
69	1278
69	1278
69	1278
69	1278
69	1278
69	1278
69	1278
69	1278
69	1278
69	1278
69	1278
69	1278
69	1278
69	1278
69	1278
69	1278
69	1278
69	1278
69	1278
69	1278
69	1278
69	1278
69	1278
69	1278
69	1278
69	1278
69	1278
69	1278
69	1278
69	1278
69	1278
69	1278
69	1278
69	1278
69	1278
69	1278
69	1278
69	1278
69	1253
69	926
69	595
69	355
69	265
69	227
69	200
69	176
69	154
69	135
69	121
69	108
69	97