
1	-0.142786
1	-0.027653
1	-0.027474
1	0.049771
1	0.096333
1	0.035847
1	-0.558249
1	0.012136
1	0.000000
1	0.000000
1	0.000000
1	0.000000
1	0.000000
1	0.000000
1	0.000000
1	0.000000
1	0.000000
1	0.000000
1	0.000000
1	0.000000
1	0.000000
1	0.000000
1	0.000000
1	0.000000
1	0.000000
1	0.000000
1	0.000000
1	0.000000
1	0.000000
1	0.000000