
0	70
0	70
0	83
0	83
0	84
0	83
0	82
0	83
0	84
0	84
0	84
0	83
0	83
0	82
0	82
0	83
0	83
0	83
0	81
0	82
0	82
0	82
0	82
0	82
0	84
0	86
0	88
0	92
0	96
0	101
0	105
0	110
0	116
0	123
0	129
0	138
0	151
0	176
0	236
0	332
0	433
0	522
0	590
0	640
0	686
0	731
0	769
0	805
0	867
0	936
0	984
0	1022
0	1045
0	1063
0	1076
0	1059
0	1040
0	1052
0	1094
0	1123
0	1132
0	1163
0	1171
0	1095
0	915
0	609
0	299
0	150
0	119
0	106
0	98
1	93
1	90
1	89
1	88
1	87
1	86
1	86
1	87
1	89
1	91
1	95
1	105
1	117
1	131
1	149
1	185
1	257
1	371
1	504
1	622
1	702
1	764
1	824
1	873
1	913
1	944
1	973
1	1009
1	1047
1	1083
1	1108
1	1125
1	1118
1	1056
1	961
1	903
1	829
1	583
1	274
1	129
1	106
1	96
2	91
2	87
2	86
2	87
2	85
2	84
2	85
2	85
2	84
2	85
2	86
2	88
2	91
2	99
2	110
2	122
2	136
2	160
2	215
2	325
2	453
2	559
2	640
2	699
2	752
2	805
2	850
2	899
2	947
2	980
2	1012
2	1049
2	1087
2	1117
2	1138
2	1154
2	1109
2	925
2	566
2	238
2	125
2	106
2	96
3	92
3	89
3	87
3	86
3	86
3	85
3	85
3	84
3	84
3	85
3	87
3	91
3	95
3	101
3	109
3	119
3	131
3	147
3	170
3	219
3	311
3	414
3	529
3	647
3	722
3	766
3	794
3	817
3	843
3	884
3	938
3	985
3	1020
3	1040
3	1048
3	1057
3	1066
3	1024
3	952
3	907
3	917
3	955
3	983
3	1003
3	978
3	862
3	651
3	391
3	200
3	129
3	107
3	96
4	91
4	87
4	85
4	86
4	86
4	85
4	86
4	87
4	85
4	83
4	82
4	83
4	84
4	85
4	88
4	92
4	98
4	106
4	118
4	133
4	156
4	219
4	354
4	499
4	601
4	685
4	751
4	801
4	840
4	878
4	915
4	943
4	982
4	1028
4	1072
4	1136
4	1186
4	1213
4	1219
4	1128
4	840
4	407
4	154
4	111
4	95
5	90
5	88
5	87
5	85
5	84
5	84
5	85
5	85
5	84
5	84
5	84
5	84
5	84
5	84
5	85
5	87
5	90
5	93
5	96
5	100
5	106
5	112
5	121
5	137
5	179
5	301
5	485
5	662
5	816
5	953
5	1099
5	1245
5	1278
5	1278
5	1278
5	1278
5	1278
5	1278
5	1162
5	663
5	269
5	131
5	111
5	101
6	95
6	91
6	88
6	87
6	87
6	86
6	86
6	86
6	86
6	85
6	84
6	84
6	85
6	87
6	87
6	86
6	85
6	87
6	92
6	98
6	104
6	111
6	120
6	135
6	173
6	319
6	575
6	830
6	1047
6	1233
6	1278
6	1278
6	1278
6	1278
6	1278
6	1278
6	1278
6	1185
6	687
6	290
6	143
6	122
6	113
6	106
6	100
7	93
7	89
7	87
7	87
7	87
7	86
7	87
7	88
7	88
7	88
7	88
7	88
7	88
7	88
7	88
7	88
7	88
7	89
7	89
7	88
7	86
7	86
7	87
7	89
7	89
7	88
7	88
7	88
7	88
7	88
7	88
7	89
7	90
7	90
7	89
7	90
7	91
7	92
7	94
7	95
7	97
7	101
7	105
7	109
7	113
7	117
7	123
7	129
7	138
7	145
7	152
7	164
7	185
7	224
7	300
7	405
7	527
7	639
7	710
7	752
7	784
7	815
7	851
7	889
7	930
7	974
7	1021
7	1064
7	1094
7	1115
7	1126
7	1134
7	1113
7	1026
7	872
7	681
7	455
7	246
7	148
7	122
7	109
7	102
8	98
8	95
8	92
8	92
8	92
8	91
8	92
8	91
8	91
8	92
8	95
8	98
8	102
8	109
8	119
8	133
8	154
8	215
8	342
8	488
8	609
8	704
8	768
8	830
8	892
8	950
8	1009
8	1053
8	1080
8	1093
8	1107
8	1113
8	1139
8	1169
8	1099
8	888
8	571
8	283
8	154
8	125
8	111
8	102
9	97
9	93
9	92
9	91
9	91
9	90
9	91
9	91
9	90
9	90
9	91
9	91
9	91
9	92
9	93
9	96
9	100
9	106
9	115
9	127
9	145
9	215
9	370
9	535
9	677
9	812
9	913
9	982
9	1018
9	1048
9	1085
9	1108
9	1138
9	1175
9	1179
9	1104
9	923
9	626
9	323
9	168
9	130
9	117
9	108
9	102
10	98
10	95
10	93
10	93
10	94
10	93
10	93
10	94
10	95
10	96
10	97
10	101
10	108
10	114
10	122
10	130
10	140
10	153
10	172
10	216
10	295
10	384
10	476
10	573
10	648
10	694
10	731
10	763
10	788
10	808
10	833
10	866
10	922
10	989
10	1022
10	1037
10	1056
10	1066
10	1086
10	1080
10	1039
10	1024
10	1043
10	1077
10	1112
10	1119
10	1035
10	801
10	462
10	214
10	132
10	112
10	102
11	96
11	94
11	91
11	91
11	93
11	92
11	91
11	91
11	92
11	93
11	93
11	94
11	98
11	100
11	104
11	110
11	117
11	129
11	145
11	178
11	270
11	397
11	515
11	600
11	652
11	686
11	713
11	744
11	771
11	809
11	857
11	914
11	971
11	1005
11	1010
11	1007
11	1006
11	1000
11	994
11	1008
11	1049
11	1098
11	1153
11	1193
11	1199
11	1200
11	1135
11	925
11	580
11	271
11	149
11	123
11	111
11	103
12	98
12	94
12	92
12	91
12	91
12	92
12	92
12	93
12	93
12	92
12	92
12	92
12	91
12	90
12	91
12	92
12	93
12	94
12	95
12	97
12	98
12	102
12	110
12	119
12	134
12	178
12	322
12	552
12	776
12	963
12	1100
12	1231
12	1278
12	1278
12	1278
12	1278
12	1278
12	1278
12	1278
12	1278
12	996
12	559
12	249
12	141
12	123
12	113
12	106
12	99
13	96
13	93
13	91
13	91
13	91
13	90
13	90
13	91
13	91
13	92
13	95
13	99
13	104
13	111
13	121
13	137
13	167
13	281
13	495
13	739
13	1014
13	1278
13	1278
13	1278
13	1278
13	1278
13	1278
13	1278
13	1278
13	1155
13	633
13	257
13	129
13	111
13	102
14	97
14	94
14	93
14	93
14	92
14	92
14	92
14	93
14	92
14	89
14	88
14	90
14	91
14	92
14	91
14	92
14	91
14	91
14	92
14	93
14	93
14	93
14	93
14	93
14	93
14	94
14	93
14	93
14	94
14	95
14	94
14	93
14	93
14	93
14	94
14	93
14	92
14	93
14	94
14	94
14	94
14	95
14	98
14	100
14	105
14	113
14	120
14	129
14	140
14	154
14	182
14	239
14	325
14	412
14	482
14	549
14	636
14	727
14	792
14	839
14	896
14	973
14	1022
14	1039
14	1058
14	1082
14	1116
14	1174
14	1198
14	1152
14	1105
14	1036
14	876
14	616
14	338
14	185
14	144
14	129
14	119
14	112
14	107
14	102
15	99
15	97
15	97
15	95
15	95
15	95
15	95
15	96
15	98
15	99
15	100
15	103
15	107
15	112
15	117
15	123
15	130
15	136
15	144
15	157
15	181
15	243
15	356
15	480
15	583
15	665
15	736
15	803
15	859
15	909
15	953
15	989
15	1033
15	1078
15	1108
15	1124
15	1120
15	1102
15	1060
15	1004
15	914
15	737
15	458
15	222
15	137
15	116
15	107
15	102
16	99
16	98
16	97
16	98
16	97
16	97
16	95
16	94
16	96
16	98
16	99
16	99
16	100
16	101
16	103
16	108
16	114
16	122
16	129
16	137
16	148
16	161
16	187
16	253
16	354
16	447
16	523
16	581
16	628
16	672
16	718
16	764
16	811
16	870
16	942
16	997
16	1025
16	1046
16	1061
16	1079
16	1091
16	1087
16	1082
16	1086
16	1107
16	1150
16	1173
16	1186
16	1193
16	1120
16	930
16	612
16	297
16	155
16	125
16	112
16	104
17	98
17	96
17	95
17	94
17	93
17	94
17	94
17	93
17	91
17	90
17	91
17	92
17	95
17	100
17	104
17	108
17	113
17	116
17	120
17	126
17	134
17	146
17	162
17	194
17	267
17	371
17	467
17	555
17	638
17	701
17	760
17	833
17	915
17	1007
17	1066
17	1095
17	1128
17	1151
17	1146
17	1110
17	1041
17	903
17	670
17	395
17	209
17	145
17	125
17	114
17	108
17	104
18	100
18	97
18	96
18	96
18	95
18	94
18	93
18	93
18	93
18	93
18	95
18	99
18	104
18	110
18	115
18	121
18	129
18	139
18	151
18	166
18	194
18	252
18	334
18	423
18	520
18	608
18	688
18	763
18	832
18	900
18	970
18	1036
18	1093
18	1151
18	1187
18	1165
18	1089
18	966
18	748
18	450
18	228
18	150
18	128
18	114
18	106
18	101
19	97
19	96
19	95
19	94
19	93
19	93
19	92
19	91
19	91
19	92
19	92
19	93
19	94
19	94
19	96
19	98
19	103
19	113
19	124
19	142
19	192
19	335
19	526
19	703
19	880
19	1029
19	1152
19	1256
19	1278
19	1278
19	1278
19	1278
19	1278
19	1278
19	1278
19	1278
19	1278
19	1160
19	728
19	347
19	174
19	138
19	126
19	116
19	109
19	105
20	102
20	99
20	97
20	97
20	95
20	93
20	92
20	92
20	92
20	93
20	93
20	92
20	93
20	96
20	97
20	101
20	105
20	112
20	123
20	137
20	160
20	246
20	428
20	650
20	874
20	1091
20	1278
20	1278
20	1278
20	1278
20	1278
20	1278
20	1278
20	1278
20	1278
20	1278
20	1278
20	1256
20	794
20	384
20	179
20	133
20	120
20	112
20	108
20	105
21	101
21	96
21	92
21	93
21	94
21	94
21	94
21	94
21	93
21	94
21	94
21	94
21	95
21	95
21	94
21	94
21	95
21	96
21	96
21	96
21	96
21	96
21	95
21	93
21	93
21	92
21	92
21	94
21	94
21	94
21	95
21	96
21	95
21	95
21	96
21	96
21	94
21	95
21	96
21	95
21	94
21	94
21	94
21	94
21	94
21	94
21	93
21	92
21	92
21	92
21	94
21	95
21	94
21	95
21	94
21	93
21	93
21	93
21	93
21	94
21	94
21	94
21	94
21	94
21	95
21	95
21	95
21	95
21	94
21	93
21	95
21	96
21	96
21	96
21	98
21	100
21	102
21	103
21	105
21	107
21	109
21	113
21	117
21	121
21	126
21	129
21	133
21	138
21	144
21	151
21	158
21	168
21	185
21	228
21	312
21	434
21	550
21	618
21	672
21	736
21	798
21	851
21	894
21	931
21	961
21	992
21	1018
21	1042
21	1081
21	1126
21	1148
21	1160
21	1155
21	1089
21	954
21	753
21	519
21	314
21	198
21	157
21	136
21	121
21	113
21	108
21	105
22	102
22	101
22	101
22	101
22	101
22	102
22	105
22	111
22	116
22	121
22	127
22	134
22	143
22	155
22	176
22	221
22	305
22	413
22	514
22	598
22	662
22	722
22	774
22	819
22	864
22	902
22	939
22	985
22	1011
22	1006
22	1007
22	1022
22	1033
22	1038
22	1034
22	1051
22	1063
22	1066
22	1087
22	1077
22	1030
22	989
22	971
22	949
22	952
22	971
22	927
22	739
22	425
22	199
22	136
22	119
22	110
22	106
22	103
23	101
23	101
23	100
23	99
23	99
23	100
23	99
23	99
23	98
23	98
23	100
23	101
23	102
23	104
23	107
23	114
23	123
23	134
23	150
23	181
23	260
23	409
23	581
23	719
23	835
23	934
23	998
23	1042
23	1066
23	1056
23	1052
23	1083
23	1102
23	1132
23	1176
23	1210
23	1210
23	1130
23	932
23	624
23	332
23	181
23	142
23	126
23	116
23	110
23	106
23	102
24	100
24	100
24	101
24	101
24	100
24	100
24	100
24	101
24	104
24	106
24	110
24	116
24	122
24	134
24	148
24	166
24	201
24	262
24	353
24	457
24	558
24	655
24	752
24	846
24	924
24	976
24	1012
24	1059
24	1086
24	1070
24	1047
24	1029
24	1021
24	1003
24	970
24	930
24	805
24	534
24	261
24	147
24	123
24	113
24	107
24	105
25	103
25	102
25	102
25	102
25	101
25	100
25	100
25	99
25	99
25	102
25	104
25	108
25	113
25	123
25	134
25	151
25	188
25	298
25	474
25	651
25	782
25	871
25	948
25	1004
25	1037
25	1073
25	1119
25	1158
25	1193
25	1216
25	1223
25	1217
25	1128
25	887
25	547
25	273
25	160
25	133
25	120
25	111
25	106
25	103
26	102
26	101
26	99
26	99
26	99
26	99
26	99
26	99
26	99
26	99
26	99
26	101
26	101
26	99
26	100
26	104
26	109
26	116
26	126
26	140
26	158
26	218
26	378
26	575
26	735
26	893
26	1051
26	1200
26	1278
26	1278
26	1278
26	1278
26	1278
26	1278
26	1278
26	1104
26	769
26	434
26	216
26	146
26	126
26	115
26	109
26	106
26	103
27	101
27	100
27	100
27	100
27	99
27	98
27	99
27	100
27	100
27	100
27	100
27	100
27	101
27	101
27	98
27	99
27	101
27	101
27	104
27	108
27	113
27	120
27	128
27	138
27	155
27	199
27	309
27	480
27	665
27	833
27	982
27	1115
27	1244
27	1278
27	1278
27	1278
27	1278
27	1278
27	1235
27	953
27	641
27	352
27	198
27	162
27	147
27	133
27	122
27	113
27	108
27	105
28	103
28	101
28	101
28	102
28	101
28	99
28	99
28	99
28	98
28	98
28	97
28	97
28	99
28	100
28	100
28	101
28	100
28	100
28	100
28	100
28	100
28	100
28	100
28	100
28	100
28	100
28	100
28	101
28	101
28	101
28	100
28	99
28	100
28	101
28	101
28	103
28	106
28	108
28	109
28	111
28	114
28	117
28	121
28	125
28	130
28	134
28	139
28	144
28	149
28	155
28	164
28	175
28	196
28	238
28	299
28	371
28	427
28	468
28	509
28	556
28	626
28	694
28	730
28	750
28	762
28	776
28	787
28	798
28	822
28	861
28	905
28	938
28	966
28	992
28	1010
28	1027
28	1053
28	1081
28	1105
28	1119
28	1124
28	1124
28	1102
28	1049
28	949
28	772
28	508
28	266
28	165
28	143
28	131
28	123
28	117
28	114
28	109
28	106
28	105
29	104
29	104
29	104
29	107
29	110
29	114
29	120
29	127
29	140
29	160
29	205
29	308
29	424
29	516
29	617
29	714
29	789
29	870
29	943
29	990
29	1033
29	1073
29	1103
29	1126
29	1142
29	1158
29	1175
29	1148
29	1045
29	861
29	590
29	320
29	177
29	141
29	127
29	117
29	110
29	107
29	105
30	102
30	102
30	103
30	102
30	103
30	103
30	105
30	107
30	110
30	115
30	120
30	125
30	132
30	142
30	153
30	164
30	179
30	201
30	244
30	311
30	376
30	445
30	513
30	570
30	625
30	664
30	695
30	733
30	774
30	817
30	862
30	906
30	936
30	952
30	962
30	966
30	972
30	987
30	1018
30	1046
30	1066
30	1088
30	1098
30	1098
30	1116
30	1096
30	1022
30	942
30	886
30	834
30	730
30	525
30	279
30	153
30	128
30	116
30	109
30	106
30	103
31	101
31	101
31	100
31	100
31	101
31	102
31	102
31	101
31	101
31	102
31	104
31	104
31	106
31	109
31	114
31	120
31	128
31	138
31	151
31	174
31	233
31	349
31	480
31	587
31	664
31	724
31	785
31	838
31	869
31	893
31	943
31	1017
31	1063
31	1082
31	1110
31	1137
31	1147
31	1141
31	1111
31	1002
31	751
31	415
31	199
31	141
31	125
31	115
31	110
31	108
31	104
32	102
32	102
32	102
32	101
32	101
32	102
32	102
32	102
32	101
32	100
32	102
32	103
32	103
32	105
32	109
32	113
32	120
32	128
32	137
32	147
32	159
32	178
32	227
32	319
32	421
32	521
32	619
32	696
32	760
32	820
32	875
32	921
32	952
32	991
32	1037
32	1067
32	1081
32	1101
32	1126
32	1131
32	1124
32	1114
32	1076
32	953
32	683
32	356
32	169
32	125
32	111
32	106
32	104
33	103
33	103
33	104
33	104
33	104
33	103
33	102
33	103
33	102
33	102
33	102
33	103
33	102
33	102
33	102
33	102
33	103
33	104
33	108
33	113
33	121
33	131
33	142
33	162
33	233
33	389
33	581
33	755
33	913
33	1050
33	1148
33	1219
33	1278
33	1278
33	1278
33	1278
33	1278
33	1260
33	948
33	580
33	281
33	155
33	129
33	118
33	113
33	108
33	105
34	105
34	103
34	101
34	101
34	102
34	102
34	102
34	102
34	102
34	102
34	102
34	103
34	103
34	103
34	105
34	108
34	111
34	118
34	126
34	137
34	151
34	174
34	261
34	445
34	656
34	827
34	971
34	1110
34	1228
34	1278
34	1278
34	1268
34	1028
34	664
34	321
34	164
34	137
34	126
34	116
34	111
34	108
34	105
35	101
35	100
35	100
35	101
35	102
35	102
35	102
35	103
35	103
35	101
35	101
35	101
35	102
35	103
35	103
35	103
35	103
35	104
35	103
35	102
35	102
35	103
35	103
35	103
35	104
35	105
35	104
35	103
35	104
35	105
35	105
35	105
35	105
35	106
35	108
35	109
35	112
35	116
35	120
35	125
35	131
35	139
35	145
35	151
35	159
35	170
35	202
35	298
35	437
35	563
35	677
35	760
35	811
35	834
35	845
35	892
35	955
35	990
35	1021
35	1064
35	1101
35	1134
35	1163
35	1169
35	1125
35	1003
35	775
35	463
35	229
35	152
35	133
35	121
35	114
35	110
35	108
35	107
35	106
35	104
36	103
36	102
36	102
36	103
36	105
36	107
36	108
36	107
36	109
36	112
36	115
36	120
36	127
36	136
36	144
36	153
36	168
36	203
36	279
36	387
36	486
36	561
36	634
36	723
36	815
36	882
36	918
36	945
36	988
36	1029
36	1051
36	1078
36	1107
36	1125
36	1140
36	1167
36	1171
36	1102
36	943
36	686
36	384
36	197
36	144
36	127
36	117
36	112
36	109
36	106
36	105
37	106
37	106
37	106
37	106
37	106
37	106
37	106
37	107
37	109
37	111
37	114
37	120
37	130
37	141
37	154
37	172
37	217
37	312
37	437
37	565
37	666
37	735
37	800
37	860
37	905
37	949
37	992
37	1017
37	1028
37	1043
37	1069
37	1088
37	1102
37	1117
37	1111
37	1069
37	967
37	842
37	711
37	481
37	251
37	155
37	134
37	122
37	114
37	111
37	108
37	106
37	105
38	106
38	107
38	106
38	106
38	107
38	107
38	107
38	108
38	110
38	116
38	124
38	135
38	151
38	179
38	271
38	436
38	570
38	678
38	767
38	808
38	877
38	1008
38	1127
38	1178
38	1168
38	1133
38	1096
38	1033
38	913
38	733
38	515
38	301
38	178
38	141
38	126
38	117
38	112
38	109
38	107
38	106
38	106
38	105
39	104
39	106
39	107
39	110
39	112
39	115
39	120
39	126
39	134
39	145
39	155
39	162
39	170
39	181
39	202
39	240
39	298
39	379
39	472
39	544
39	588
39	619
39	649
39	678
39	714
39	741
39	759
39	793
39	835
39	856
39	867
39	882
39	899
39	920
39	939
39	955
39	977
39	998
39	1009
39	1010
39	1014
39	1023
39	1037
39	1053
39	1045
39	1039
39	1032
39	1023
39	1042
39	1067
39	1068
39	1067
39	1082
39	1064
39	1019
39	996
39	995
39	994
39	969
39	914
39	815
39	575
39	285
39	151
39	129
39	118
39	112
39	108
39	106
39	106
39	105
40	104
40	105
40	105
40	105
40	106
40	108
40	112
40	117
40	120
40	121
40	118
40	114
40	111
40	111
40	111
40	110
40	113
40	120
40	129
40	138
40	149
40	166
40	209
40	333
40	528
40	710
40	847
40	954
40	1053
40	1150
40	1251
40	1278
40	1278
40	1278
40	1278
40	1075
40	711
40	350
40	171
40	134
40	124
40	117
40	113
40	111
40	110
40	108
40	107
40	106
40	104
41	103
41	102
41	102
41	103
41	103
41	104
41	106
41	107
41	107
41	108
41	109
41	110
41	112
41	114
41	118
41	127
41	138
41	152
41	173
41	240
41	381
41	571
41	789
41	1007
41	1237
41	1278
41	1278
41	1278
41	1278
41	1278
41	1278
41	1278
41	1192
41	822
41	450
41	212
41	146
41	130
41	121
41	115
41	110
41	108
41	107
41	105
42	106
42	106
42	105
42	105
42	105
42	105
42	105
42	105
42	106
42	106
42	107
42	106
42	105
42	107
42	106
42	105
42	107
42	107
42	106
42	107
42	107
42	106
42	106
42	107
42	106
42	107
42	107
42	106
42	106
42	106
42	107
42	108
42	109
42	110
42	112
42	113
42	116
42	118
42	121
42	125
42	127
42	129
42	132
42	136
42	141
42	147
42	153
42	159
42	165
42	170
42	180
42	199
42	245
42	332
42	415
42	473
42	523
42	568
42	617
42	657
42	681
42	704
42	741
42	782
42	824
42	876
42	921
42	944
42	938
42	932
42	934
42	930
42	942
42	968
42	990
42	1017
42	1044
42	1052
42	1062
42	1087
42	1110
42	1128
42	1162
42	1178
42	1151
42	1097
42	974
42	745
42	450
42	235
42	156
42	135
42	124
42	117
42	112
42	110
42	110
42	110
42	111
42	109
42	109
42	108
42	108
42	108
42	108
42	109
42	109
42	110
42	113
42	115
42	119
42	125
42	132
42	141
42	151
42	164
42	185
42	222
42	274
42	331
42	399
42	473
42	528
42	575
42	618
42	658
42	718
42	777
42	801
42	811
42	840
42	869
42	890
42	916
42	950
42	976
42	988
42	994
42	1006
42	1025
42	1041
42	1062
42	1086
42	1098
42	1101
42	1109
42	1096
42	1035
42	949
42	890
42	846
42	739
42	508
42	261
42	152
42	130
42	120
42	115
42	112
42	112
42	112
42	110
42	110
42	110
42	112
42	115
42	118
42	125
42	133
42	144
42	161
42	207
42	329
42	490
42	636
42	756
42	837
42	913
42	1005
42	1125
42	1244
42	1274
42	1228
42	1178
42	1111
42	984
42	784
42	542
42	317
42	188
42	149
42	133
42	121
42	115
42	113
42	110
42	109
42	108
42	107
42	107
42	106
42	105
43	104
43	104
43	106
43	106
43	106
43	109
43	111
43	113
43	115
43	118
43	122
43	128
43	134
43	140
43	147
43	156
43	168
43	187
43	221
43	276
43	342
43	389
43	430
43	481
43	517
43	545
43	570
43	595
43	629
43	666
43	704
43	735
43	763
43	786
43	812
43	839
43	857
43	874
43	890
43	916
43	950
43	969
43	974
43	984
43	996
43	998
43	1002
43	1019
43	1032
43	1039
43	1056
43	1072
43	1071
43	1067
43	1079
43	1083
43	1071
43	1081
43	1101
43	1102
43	1096
43	1112
43	1116
43	1074
43	1006
43	930
43	824
43	629
43	371
43	200
43	148
43	133
43	124
43	119
43	113
43	111
43	110
43	108
43	107
43	107
43	107
43	107
43	108
43	108
43	107
43	107
43	109
43	109
43	108
43	109
43	109
43	109
43	108
43	108
43	109
43	110
43	110
43	109
43	109
43	110
43	110
43	110
43	109
43	110
43	110
43	110
43	109
43	108
43	109
43	110
43	109
43	108
43	106
43	105
44	103
44	101
44	101
44	101
44	99
44	97
44	98
44	99
44	99
44	101
44	102
44	104
44	104
44	104
44	103
44	103
44	105
44	107
44	106
44	106
44	108
44	108
44	108
44	110
44	111
44	113
44	118
44	123
44	129
44	135
44	141
44	148
44	156
44	164
44	175
44	194
44	235
44	305
44	385
44	474
44	558
44	616
44	679
44	737
44	767
44	787
44	808
44	850
44	900
44	923
44	956
44	1000
44	1026
44	1043
44	1070
44	1086
44	1083
44	1085
44	1112
44	1120
44	1109
44	1131
44	1152
44	1110
44	1003
44	854
44	629
44	352
44	181
44	141
44	128
44	119
44	114
44	112
44	110
44	109
44	109
44	109
44	109
44	109
44	109
44	109
44	109
44	108
44	106
44	105
45	105
45	105
45	104
45	103
45	102
45	103
45	102
45	102
45	103
45	103
45	104
45	105
45	105
45	106
45	106
45	106
45	107
45	108
45	109
45	110
45	112
45	118
45	125
45	133
45	141
45	151
45	163
45	184
45	248
45	364
45	500
45	623
45	724
45	814
45	889
45	935
45	959
45	978
45	996
45	1016
45	1042
45	1076
45	1110
45	1137
45	1159
45	1170
45	1151
45	1092
45	922
45	607
45	303
45	168
45	142
45	131
45	121
45	114
45	108
45	103
46	100
46	98
46	98
46	100
46	100
46	100
46	101
46	103
46	104
46	105
46	107
46	108
46	107
46	110
46	112
46	115
46	119
46	125
46	133
46	141
46	149
46	157
46	168
46	182
46	201
46	233
46	285
46	355
46	428
46	494
46	551
46	606
46	668
46	730
46	784
46	815
46	836
46	873
46	911
46	930
46	939
46	966
46	995
46	1021
46	1061
46	1105
46	1138
46	1154
46	1170
46	1166
46	1091
46	894
46	573
46	292
46	175
46	146
46	134
46	124
46	117
46	114
46	113
46	112
46	111
46	110
46	109
46	109
46	110
46	109
46	109
46	108
46	108
46	109
46	110
46	112
46	115
46	117
46	116
46	115
46	112
46	110
46	107
46	103
47	101
47	100
47	99
47	98
47	97
47	99
47	101
47	103
47	105
47	105
47	106
47	107
47	109
47	113
47	116
47	119
47	127
47	136
47	142
47	150
47	162
47	178
47	202
47	254
47	322
47	384
47	436
47	488
47	551
47	617
47	707
47	796
47	889
47	1005
47	1131
47	1231
47	1278
47	1278
47	1165
47	870
47	491
47	233
47	156
47	137
47	127
47	121
47	118
47	115
47	112
47	110
47	107
47	106
47	103
48	101
48	99
48	97
48	96
48	95
48	94
48	95
48	97
48	98
48	102
48	105
48	106
48	106
48	108
48	112
48	117
48	123
48	130
48	140
48	151
48	166
48	187
48	238
48	353
48	512
48	669
48	820
48	947
48	1084
48	1231
48	1278
48	1278
48	1278
48	1278
48	1278
48	1278
48	1278
48	1035
48	633
48	281
48	153
48	133
48	124
48	119
48	115
48	112
48	111
48	110
48	110
48	108
48	108
48	107
48	106
48	105