
1	0.004992
1	0.024270
1	0.008912
1	-0.155890
1	0.038402
1	0.165608
1	0.438933
1	0.037934
1	0.049105
1	-0.012118
1	0.026068
1	0.010924
1	0.423957
1	0.655418
1	-0.008955
1	-0.017311
1	0.038564
1	0.056449
1	0.024339
1	0.444929
1	0.609616
1	0.000000
1	0.000000
1	0.000000
1	0.000000
1	0.000000
1	0.000000
1	0.000000
1	0.000000
1	0.000000
1	0.000000
1	0.000000
1	0.000000
1	0.000000
1	0.000000
1	0.000000
1	0.000000
1	0.000000
1	0.000000
1	0.000000
1	0.000000
1	0.000000
1	0.000000
1	0.000000
1	0.000000
1	0.000000
1	0.000000
1	0.000000
1	0.000000
1	0.000000
1	0.000000
1	0.000000
1	0.000000
1	0.000000
1	0.000000
1	0.000000
1	0.000000
1	0.000000
1	0.000000
1	0.000000
1	0.000000
1	0.000000
1	0.000000
1	0.000000
1	0.000000
1	0.000000
1	0.000000
1	0.000000
1	0.000000
1	0.000000
1	0.000000
1	0.000000
1	0.000000
1	0.000000
1	0.000000
1	0.000000
1	0.000000
1	0.000000
1	0.000000
1	0.000000
1	0.000000
1	0.000000
1	0.000000
1	0.000000
1	0.000000
1	0.000000
1	0.000000
1	0.000000
1	0.000000
1	0.000000
1	0.000000
1	0.000000
1	0.000000
1	0.000000
1	0.000000
1	0.000000
1	0.000000
1	0.000000
1	0.000000
1	0.000000
1	0.000000
1	0.000000
1	0.000000
1	0.000000
1	0.000000
1	0.000000
1	0.000000
1	0.000000
1	0.000000
1	0.000000
1	0.000000
1	0.000000
1	0.000000
1	0.000000
1	0.000000
1	0.000000
1	0.000000
1	0.000000
1	0.000000
1	0.000000