
0	70
0	70
0	70
0	70
0	70
0	70
0	70
0	70
0	70
0	70
0	70
0	70
0	70
0	70
0	70
0	70
0	70
0	70
0	70
0	70
0	70
0	70
0	70
0	70
0	70
0	70
0	70
0	70
0	70
0	70
0	70
0	70
0	70
0	70
0	70
0	70
0	70
0	70
0	70
0	70
0	70
0	70
0	70
0	70
0	70
0	70
0	70
0	70
0	70
0	70
0	70
0	70
0	70
0	70
0	70
0	70
0	70
0	70
0	70
0	70
0	70
0	70
0	70
0	70
0	70
0	70
0	70
0	70
0	70
0	70
0	70
0	70
0	70
0	70
0	70
0	70
0	70
0	70
0	70
0	70
0	70
0	70
0	70
0	70
0	70
0	70
0	70
0	70
0	70
0	70
0	70
0	70
0	70
0	70
0	70
0	70
0	70
0	70
0	70
0	70
0	70
0	70
0	70
0	70
0	70
0	70
0	70
0	70
0	70
0	70
0	70
0	70
0	70
0	70
0	70
0	70
0	70
0	70
0	70
0	70
0	70
0	70
0	70
0	70
0	70
0	70
0	70
0	70
0	70
0	70
0	70
0	70
0	70
0	70
0	70
0	70
0	70
0	70
0	70
0	70
0	70
0	70
0	70
0	70
0	70
0	70
0	70
0	70
0	70
0	70
0	70
0	70
0	73
0	74
0	71
0	70
0	70
0	70
0	70
0	70
0	70
0	70
0	70
0	70
0	70
0	73
0	79
0	86
0	91
0	95
0	99
0	103
0	109
0	115
0	123
0	127
0	129
0	131
0	134
0	139
0	142
0	143
0	145
0	149
0	151
0	154
0	158
0	159
0	162
0	166
0	170
0	173
0	178
0	181
0	184
0	190
0	194
0	197
0	201
0	206
0	213
0	217
0	221
0	224
0	225
0	226
0	229
0	231
0	234
0	238
0	241
0	245
0	251
0	261
0	269
0	276
0	282
0	288
0	290
0	291
0	294
0	302
0	305
0	313
0	322
0	317
0	318
0	325
0	332
0	336
0	337
0	346
0	350
0	349
0	365
0	374
0	389
0	425
0	446
0	464
0	474
0	492
0	503
0	473
0	461
0	457
0	442
0	452
0	474
0	504
0	510
0	529
0	556
0	554
0	577
0	592
0	606
0	594
0	574
0	570
0	574
0	595
0	604
0	600
0	593
0	606
0	614
0	603
0	603
0	609
0	600
0	592
0	593
0	587
0	580
0	589
0	628
0	649
0	634
0	627
0	644
0	651
0	639
0	663
0	681
0	675
0	695
0	717
0	721
0	733
0	765
0	764
0	726
0	728
0	747
0	744
0	744
0	752
0	739
0	712
0	700
0	681
0	653
0	653
0	664
0	664
0	661
0	665
0	694
0	716
0	727
0	734
0	732
0	749
0	765
0	789
0	793
0	800
0	831
0	834
0	828
0	815
0	799
0	768
0	753
0	770
0	766
0	762
0	769
0	772
0	761
0	762
0	799
0	831
0	850
0	882
0	901
0	885
0	873
0	863
0	852
0	845
0	835
0	837
0	838
0	841
0	895
0	922
0	884
0	872
0	870
0	896
0	931
0	933
0	936
0	921
0	889
0	868
0	859
0	887
0	917
0	892
0	859
0	870
0	889
0	885
0	872
0	887
0	922
0	929
0	926
0	952
0	975
0	977
0	994
0	1012
0	1023
0	977
0	933
0	903
0	862
0	869
0	917
0	977
0	990
0	1007
0	1033
0	1002
0	971
0	993
0	1005
0	992
0	992
0	995
0	979
0	970
0	970
0	920
0	895
0	915
0	932
0	964
0	954
0	900
0	916
0	967
0	1008
0	1077
0	1064
0	969
0	947
0	954
0	927
0	938
0	952
0	946
0	974
0	968
0	952
0	985
0	985
0	970
0	934
0	900
0	909
0	885
0	890
0	906
0	934
0	930
0	863
0	876
0	918
0	938
0	991
0	1052
0	1060
0	1081
0	1132
0	1162
0	1183
0	1206
0	1186
0	1087
0	992
0	932
0	854
0	807
0	672
0	417
0	282
0	246
0	226
0	207
0	189
0	176
0	168
0	160
0	151
0	140
0	131
0	124
0	117
0	111
0	105
1	99
1	95
1	92
1	89
1	85
1	83
1	83
1	81
1	76
1	72
1	70
1	70
1	70
1	70
1	70
1	70
1	70
1	70
1	70
1	70
1	70
1	70
1	70
1	70
1	70
1	70
1	70
1	70
1	70
1	70
1	70
1	70
1	70
1	70
1	70
1	70
1	76
1	87
1	98
1	103
1	109
1	114
1	118
1	120
1	121
1	124
1	127
1	128
1	131
1	138
1	143
1	146
1	149
1	151
1	154
1	157
1	160
1	162
1	163
1	165
1	169
1	172
1	175
1	177
1	177
1	175
1	176
1	180
1	183
1	187
1	191
1	192
1	194
1	199
1	201
1	200
1	198
1	198
1	200
1	204
1	205
1	206
1	208
1	210
1	212
1	216
1	222
1	223
1	222
1	223
1	225
1	227
1	231
1	234
1	238
1	242
1	243
1	243
1	243
1	244
1	247
1	251
1	254
1	254
1	256
1	258
1	262
1	266
1	269
1	273
1	280
1	289
1	302
1	326
1	353
1	390
1	476
1	529
1	525
1	534
1	532
1	529
1	484
1	419
1	418
1	463
1	496
1	522
1	618
1	749
1	737
1	640
1	607
1	615
1	607
1	581
1	577
1	592
1	633
1	680
1	705
1	725
1	741
1	717
1	685
1	698
1	747
1	749
1	745
1	747
1	720
1	705
1	716
1	745
1	758
1	753
1	738
1	714
1	670
1	665
1	674
1	703
1	734
1	758
1	779
1	765
1	809
1	890
1	989
1	1014
1	1078
1	1145
1	1108
1	999
1	838
1	782
1	745
1	762
1	803
1	843
1	860
1	814
1	840
1	817
1	656
1	522
1	416
1	314
1	256
1	217
1	188
1	169
1	155
1	146
1	141
1	135
1	130
1	125
1	120
1	115
1	106
1	95
2	87
2	79
2	74
2	70
2	70
2	70
2	70
2	70
2	70
2	70
2	70
2	70
2	70
2	70
2	70
2	70
2	70
2	70
2	70
2	70
2	70
2	70
2	70
2	70
2	70
2	70
2	73
2	81
2	91
2	100
2	107
2	119
2	135
2	150
2	161
2	171
2	182
2	193
2	204
2	212
2	219
2	227
2	236
2	244
2	249
2	254
2	259
2	265
2	273
2	282
2	291
2	305
2	327
2	356
2	409
2	480
2	534
2	555
2	566
2	595
2	600
2	559
2	531
2	549
2	572
2	577
2	615
2	645
2	647
2	650
2	615
2	535
2	469
2	467
2	496
2	525
2	550
2	559
2	556
2	531
2	500
2	494
2	485
2	476
2	481
2	481
2	513
2	580
2	598
2	586
2	581
2	583
2	572
2	549
2	547
2	582
2	613
2	612
2	637
2	685
2	716
2	732
2	751
2	746
2	741
2	744
2	740
2	749
2	767
2	809
2	829
2	825
2	843
2	895
2	904
2	855
2	834
2	842
2	833
2	810
2	825
2	856
2	868
2	874
2	892
2	908
2	933
2	923
2	876
2	886
2	913
2	902
2	890
2	916
2	908
2	902
2	909
2	893
2	891
2	889
2	934
2	1019
2	1062
2	1072
2	1069
2	1045
2	985
2	914
2	878
2	902
2	915
2	898
2	929
2	1008
2	1050
2	981
2	918
2	936
2	997
2	1013
2	1000
2	1008
2	1014
2	1027
2	1049
2	1086
2	1083
2	1031
2	1023
2	1033
2	1022
2	999
2	984
2	1056
2	1088
2	1030
2	1035
2	1063
2	1036
2	1016
2	1013
2	980
2	978
2	1005
2	1012
2	991
2	974
2	977
2	967
2	950
2	969
2	1068
2	1105
2	1103
2	1219
2	1240
2	1162
2	1116
2	1073
2	1014
2	827
2	515
2	293
2	224
2	191
2	171
2	160
2	152
2	141
2	127
2	113
2	97
3	84
3	77
3	70
3	70
3	70
3	70
3	70
3	70
3	70
3	70
3	70
3	70
3	80
3	98
3	119
3	139
3	159
3	179
3	198
3	216
3	231
3	244
3	257
3	267
3	278
3	293
3	311
3	343
3	392
3	454
3	481
3	479
3	477
3	477
3	502
3	543
3	577
3	614
3	662
3	674
3	670
3	699
3	713
3	707
3	721
3	741
3	752
3	757
3	767
3	792
3	826
3	851
3	862
3	864
3	858
3	852
3	869
3	873
3	876
3	903
3	919
3	936
3	947
3	954
3	955
3	953
3	964
3	979
3	1033
3	1048
3	972
3	930
3	964
3	1014
3	1009
3	992
3	1015
3	1037
3	1052
3	1059
3	1101
3	1165
3	1159
3	1166
3	1124
3	1053
3	919
3	625
3	416
3	321
3	266
3	233
3	204
3	176
3	154
3	138
3	125
3	113
3	103
4	93
4	83
4	71
4	70
4	70
4	70
4	70
4	70
4	70
4	70
4	70
4	73
4	85
4	98
4	123
4	151
4	177
4	204
4	231
4	251
4	266
4	287
4	309
4	333
4	376
4	434
4	486
4	574
4	673
4	721
4	734
4	790
4	830
4	796
4	786
4	806
4	817
4	834
4	862
4	866
4	852
4	842
4	851
4	871
4	897
4	899
4	876
4	869
4	877
4	904
4	936
4	953
4	963
4	983
4	1000
4	1011
4	1003
4	984
4	1015
4	1025
4	991
4	989
4	1001
4	989
4	991
4	1035
4	1069
4	1082
4	1096
4	1122
4	1133
4	1097
4	1048
4	1018
4	1001
4	985
4	962
4	946
4	934
4	988
4	970
4	713
4	422
4	275
4	232
4	205
4	181
4	160
4	144
4	135
4	127
4	115
4	105
5	98
5	91
5	81
5	72
5	70
5	70
5	70
5	70
5	70
5	70
5	70
5	72
5	97
5	126
5	159
5	195
5	225
5	253
5	278
5	300
5	327
5	362
5	403
5	449
5	493
5	549
5	610
5	652
5	701
5	750
5	802
5	844
5	847
5	834
5	846
5	852
5	831
5	838
5	842
5	840
5	904
5	1026
5	1062
5	1087
5	1247
5	1278
5	1268
5	1278
5	1278
5	1278
5	1278
5	1278
5	1278
5	1278
5	1278
5	1278
5	1278
5	1278
5	1278
5	1278
5	1278
5	1278
5	1278
5	1278
5	1278
5	1278
5	1278
5	1278
5	1278
5	1278
5	1278
5	1278
5	1278
5	1278
5	1278
5	1278
5	1278
5	1278
5	1278
5	1278
5	1278
5	1278
5	1278
5	1278
5	1278
5	1278
5	1278
5	1278
5	1278
5	1278
5	1278
5	1278
5	1278
5	1278
5	1278
5	1278
5	1278
5	1278
5	1139
5	869
5	591
5	376
5	263
5	217
5	183
5	155
5	134
5	112
5	94
6	79
6	70
6	70
6	70
6	70
6	70
6	70
6	70
6	70
6	70
6	70
6	70
6	70
6	70
6	70
6	83
6	100
6	125
6	155
6	189
6	226
6	258
6	292
6	357
6	450
6	554
6	692
6	822
6	926
6	1025
6	1136
6	1250
6	1278
6	1278
6	1278
6	1278
6	1278
6	1278
6	1278
6	1278
6	1278
6	1278
6	1278
6	1278
6	1278
6	1278
6	1278
6	1278
6	1278
6	1278
6	1278
6	1278
6	1278
6	1278
6	1278
6	1278
6	1278
6	1278
6	1278
6	1278
6	1278
6	1278
6	1278
6	1278
6	1278
6	1278
6	1278
6	1278
6	1278
6	1278
6	1278
6	1278
6	1278
6	1278
6	1278
6	1278
6	1278
6	1278
6	1278
6	1196
6	1071
6	960
6	863
6	798
6	794
6	738
6	600
6	489
6	411
6	363
6	431
6	454
6	346
6	281
6	263
6	245
6	221
6	193
6	166
6	143
6	120
6	98
7	82
7	72
7	70
7	70
7	70
7	70
7	70
7	70
7	70
7	70
7	70
7	70
7	70
7	70
7	70
7	70
7	70
7	70
7	70
7	70
7	70
7	73
7	85
7	89
7	85
7	79
7	70
7	70
7	70
7	70
7	70
7	70
7	73
7	87
7	101
7	121
7	147
7	168
7	185
7	198
7	210
7	224
7	240
7	256
7	280
7	330
7	428
7	590
7	761
7	905
7	1011
7	1102
7	1213
7	1278
7	1278
7	1278
7	1278
7	1278
7	1278
7	1278
7	1278
7	1278
7	1278
7	1278
7	1278
7	1278
7	1278
7	1278
7	1278
7	1278
7	1278
7	1278
7	1278
7	1278
7	1278
7	1278
7	1278
7	1278
7	1278
7	1278
7	1278
7	1278
7	1278
7	1278
7	1278
7	1278
7	1278
7	1278
7	1278
7	1278
7	1278
7	1278
7	1278
7	1278
7	1278
7	1278
7	1278
7	1278
7	1278
7	1278
7	1278
7	1278
7	1278
7	1278
7	1278
7	1263
7	1237
7	1211
7	1142
7	1148
7	1159
7	1098
7	1101
7	1149
7	1198
7	1278
7	1278
7	1278
7	1278
7	1278
7	1278
7	1257
7	1106
7	934
7	787
7	641
7	478
7	354
7	292
7	264
7	242
7	221
7	199
7	174
7	150
7	135
7	121
7	111
7	103
8	94
8	86
8	78
8	70
8	70
8	70
8	70
8	70
8	70
8	70
8	70
8	70
8	70
8	70
8	70
8	70
8	70
8	70
8	70
8	70
8	70
8	70
8	70
8	70
8	70
8	77
8	88
8	103
8	122
8	143
8	160
8	178
8	196
8	213
8	232
8	249
8	264
8	280
8	301
8	343
8	420
8	519
8	660
8	822
8	993
8	1142
8	1270
8	1278
8	1278
8	1278
8	1278
8	1278
8	1278
8	1278
8	1278
8	1278
8	1278
8	1278
8	1278
8	1278
8	1278
8	1278
8	1278
8	1278
8	1278
8	1278
8	1278
8	1278
8	1278
8	1278
8	1278
8	1278
8	1278
8	1278
8	1278
8	1278
8	1278
8	1278
8	1278
8	1278
8	1278
8	1278
8	1278
8	1278
8	1278
8	1278
8	1278
8	1278
8	1278
8	1278
8	1278
8	1278
8	1278
8	1278
8	1278
8	1278
8	1278
8	1278
8	1278
8	1278
8	1278
8	1278
8	1278
8	1278
8	1278
8	1278
8	1278
8	1271
8	1124
8	951
8	767
8	585
8	428
8	327
8	285
8	269
8	254
8	236
8	215
8	191
8	154
8	117
8	92
9	76
9	70
9	70
9	70
9	70
9	70
9	70
9	70
9	70
9	70
9	70
9	70
9	70
9	70
9	70
9	70
9	70
9	70
9	70
9	70
9	76
9	89
9	103
9	124
9	154
9	192
9	227
9	259
9	326
9	507
9	724
9	916
9	1074
9	1186
9	1278
9	1278
9	1278
9	1278
9	1278
9	1278
9	1278
9	1278
9	1278
9	1278
9	1278
9	1278
9	1278
9	1278
9	1278
9	1278
9	1278
9	1278
9	1278
9	1278
9	1278
9	1278
9	1278
9	1278
9	1278
9	1278
9	1278
9	1278
9	1278
9	1278
9	1278
9	1278
9	1278
9	1278
9	1278
9	1278
9	1278
9	1278
9	1278
9	1278
9	1278
9	1278
9	1278
9	1278
9	1278
9	1278
9	1278
9	1278
9	1278
9	1278
9	1278
9	1278
9	1278
9	1278
9	1278
9	1278
9	1278
9	1278
9	1278
9	1278
9	1278
9	1278
9	1278
9	1278
9	1278
9	1278
9	1244
9	1136
9	1025
9	921
9	834
9	743
9	622
9	476
9	357
9	298
9	273
9	256
9	240
9	224
9	204
9	181
9	151
9	118
9	90
10	72
10	70
10	70
10	70
10	70
10	70
10	70
10	70
10	70
10	70
10	70
10	70
10	70
10	70
10	70
10	70
10	70
10	70
10	70
10	70
10	70
10	70
10	70
10	70
10	70
10	70
10	70
10	70
10	70
10	70
10	70
10	70
10	70
10	70
10	70
10	70
10	70
10	70
10	70
10	70
10	70
10	70
10	70
10	70
10	70
10	70
10	70
10	70
10	70
10	70
10	70
10	70
10	70
10	70
10	70
10	70
10	70
10	70
10	70
10	70
10	70
10	70
10	70
10	70
10	70
10	70
10	70
10	70
10	72
10	70
10	71
10	70
10	70
10	70
10	70
10	70
10	70
10	70
10	72
10	84
10	105
10	127
10	149
10	174
10	195
10	212
10	227
10	243
10	257
10	277
10	325
10	431
10	596
10	783
10	936
10	1042
10	1136
10	1198
10	1208
10	1144
10	1025
10	876
10	726
10	666
10	629
10	525
10	388
10	300
10	268
10	247
10	221
10	187
10	151
10	120
10	98
11	79
11	70
11	70
11	70
11	70
11	70
11	70
11	70
11	85
11	128
11	175
11	215
11	250
11	312
11	454
11	644
11	825
11	993
11	1114
11	1197
11	1271
11	1278
11	1278
11	1261
11	943
11	687
11	459
11	302
11	252
11	219
11	181
11	144
11	117
11	96
12	81
12	72
12	70
12	70
12	70
12	70
12	70
12	70
12	70
12	70
12	70
12	70
12	70
12	70
12	77
12	89
12	106
12	127
12	151
12	177
12	202
12	226
12	246
12	261
12	280
12	309
12	364
12	454
12	568
12	697
12	798
12	840
12	876
12	908
12	916
12	931
12	951
12	991
12	1026
12	1043
12	1081
12	1094
12	1091
12	1054
12	1016
12	1011
12	1049
12	1127
12	1166
12	1178
12	1195
12	1154
12	981
12	672
12	386
12	269
12	234
12	214
12	198
12	183
12	167
12	149
12	130
12	112
12	98
13	86
13	80
13	77
13	75
13	72
13	71
13	70
13	70
13	70
13	70
13	70
13	70
13	70
13	70
13	70
13	70
13	70
13	70
13	70
13	70
13	70
13	74
13	87
13	102
13	119
13	144
13	174
13	203
13	225
13	243
13	258
13	270
13	284
13	301
13	322
13	381
13	589
13	703
13	675
13	758
13	877
13	937
13	980
13	1029
13	1071
13	1101
13	1141
13	1135
13	1093
13	1048
13	887
13	617
13	398
13	317
13	282
13	248
13	202
13	155
13	119
13	93
14	76
14	70
14	70
14	70
14	70
14	70
14	70
14	70
14	70
14	70
14	70
14	70
14	70
14	70
14	70
14	71
14	80
14	92
14	108
14	132
14	160
14	195
14	230
14	256
14	276
14	295
14	341
14	390
14	430
14	496
14	604
14	682
14	707
14	751
14	815
14	879
14	916
14	976
14	1024
14	1024
14	1034
14	1073
14	1111
14	1095
14	1065
14	1075
14	1040
14	954
14	838
14	637
14	397
14	240
14	176
14	131
14	92
15	70
15	70
15	70
15	70
15	70
15	70
15	70
15	70
15	70
15	70
15	70
15	70
15	70
15	79
15	110
15	148
15	200
15	261
15	413
15	624
15	853
15	1063
15	1168
15	1236
15	1254
15	1242
15	1240
15	1239
15	1252
15	1278
15	1278
15	1224
15	1183
15	1218
15	1236
15	1175
15	1130
15	1169
15	1212
15	1244
15	1174
15	956
15	696
15	428
15	261
15	179
15	109
15	70
16	70
16	70
16	70
16	70
16	70
16	70
16	70
16	70
16	70
16	70
16	70
16	70
16	70
16	70
16	70
16	80
16	119
16	167
16	213
16	254
16	344
16	556
16	865
16	1187
16	1278
16	1278
16	1278
16	1278
16	1278
16	1278
16	1278
16	1278
16	1278
16	1278
16	1278
16	1278
16	1278
16	1278
16	1278
16	1278
16	1278
16	1278
16	1278
16	1278
16	1278
16	876
16	432
16	223
16	145
16	98
17	71
17	70
17	70
17	70
17	70
17	70
17	70
17	70
17	70
17	70
17	70
17	70
17	70
17	114
17	171
17	224
17	282
17	396
17	598
17	872
17	1118
17	1228
17	1278
17	1278
17	1278
17	1278
17	1278
17	1278
17	1278
17	1278
17	1278
17	1278
17	1278
17	1278
17	1278
17	1278
17	1278
17	1248
17	996
17	739
17	490
17	305
17	215
17	156
17	114
17	87
18	70
18	70
18	70
18	70
18	70
18	70
18	70
18	70
18	70
18	70
18	70
18	70
18	70
18	70
18	79
18	110
18	154
18	203
18	254
18	339
18	507
18	719
18	924
18	1083
18	1213
18	1278
18	1278
18	1278
18	1278
18	1278
18	1278
18	1278
18	1278
18	1278
18	1278
18	1278
18	1278
18	1278
18	1278
18	1278
18	1278
18	1278
18	1278
18	1278
18	1278
18	1215
18	977
18	772
18	558
18	362
18	248
18	182
18	126
18	90
19	71
19	70
19	70
19	70
19	70
19	70
19	70
19	70
19	70
19	70
19	70
19	70
19	70
19	70
19	70
19	70
19	70
19	82
19	102
19	128
19	160
19	198
19	240
19	322
19	471
19	659
19	831
19	980
19	1126
19	1267
19	1278
19	1278
19	1278
19	1278
19	1278
19	1278
19	1278
19	1278
19	1278
19	1278
19	1278
19	1278
19	1278
19	1278
19	1278
19	1145
19	930
19	712
19	497
19	328
19	260
19	230
19	203
19	174
19	144
19	113
19	89
20	73
20	70
20	70
20	70
20	70
20	70
20	70
20	70
20	70
20	70
20	70
20	70
20	70
20	70
20	70
20	70
20	70
20	70
20	70
20	70
20	70
20	70
20	70
20	70
20	70
20	70
20	70
20	70
20	70
20	70
20	70
20	70
20	70
20	70
20	70
20	70
20	70
20	70
20	70
20	70
20	70
20	70
20	70
20	70
20	70
20	70
20	70
20	70
20	70
20	70
20	70
20	70
20	70
20	70
20	70
20	70
20	70
20	70
20	70
20	70
20	70
20	70
20	70
20	70
20	70
20	70
20	70
20	70
20	70
20	70
20	70
20	70
20	70
20	70
20	70
20	70
20	70
20	70
20	70
20	70
20	70
20	77
20	98
20	115
20	131
20	149
20	173
20	199
20	223
20	243
20	260
20	274
20	293
20	320
20	358
20	413
20	493
20	585
20	667
20	760
20	852
20	894
20	939
20	1001
20	1011
20	1009
20	1029
20	1070
20	1121
20	1162
20	1212
20	1274
20	1260
20	1092
20	829
20	542
20	339
20	253
20	203
20	163
20	129
20	107
20	91
21	78
21	71
21	70
21	70
21	70
21	70
21	70
21	70
21	75
21	87
21	103
21	125
21	148
21	174
21	204
21	235
21	260
21	286
21	328
21	383
21	445
21	515
21	587
21	662
21	722
21	755
21	781
21	815
21	859
21	903
21	933
21	951
21	951
21	939
21	920
21	890
21	863
21	844
21	862
21	921
21	1021
21	1113
21	1160
21	1151
21	1083
21	933
21	623
21	342
21	236
21	193
21	158
21	131
21	110
21	95
22	84
22	74
22	70
22	70
22	70
22	70
22	70
22	70
22	70
22	81
22	109
22	143
22	181
22	217
22	256
22	311
22	436
22	577
22	651
22	696
22	766
22	837
22	893
22	941
22	967
22	1010
22	1026
22	981
22	949
22	953
22	953
22	973
22	1018
22	1115
22	1184
22	1177
22	1150
22	1131
22	1060
22	706
22	339
22	210
22	165
22	136
22	111
22	91
23	75
23	70
23	70
23	70
23	70
23	70
23	70
23	70
23	78
23	119
23	171
23	217
23	258
23	319
23	436
23	586
23	721
23	832
23	928
23	1007
23	1048
23	1073
23	1105
23	1127
23	1135
23	1088
23	946
23	766
23	531
23	318
23	229
23	189
23	154
23	124
23	102
24	84
24	75
24	70
24	70
24	70
24	70
24	70
24	70
24	70
24	70
24	82
24	103
24	133
24	173
24	219
24	284
24	397
24	560
24	708
24	810
24	887
24	937
24	954
24	959
24	961
24	929
24	888
24	868
24	900
24	987
24	998
24	1013
24	1127
24	1162
24	1146
24	1089
24	857
24	545
24	322
24	233
24	199
24	166
24	137
24	112
24	92
25	75
25	70
25	70
25	70
25	70
25	70
25	70
25	70
25	70
25	81
25	127
25	185
25	248
25	418
25	709
25	953
25	1111
25	1196
25	1235
25	1269
25	1275
25	1244
25	1215
25	1181
25	1138
25	1118
25	1098
25	1086
25	1091
25	1054
25	981
25	946
25	965
25	974
25	919
25	819
25	676
25	479
25	317
25	239
25	191
25	151
25	118
25	97
26	85
26	75
26	70
26	70
26	70
26	70
26	70
26	70
26	70
26	70
26	70
26	70
26	70
26	70
26	70
26	70
26	70
26	70
26	70
26	70
26	70
26	71
26	77
26	81
26	83
26	87
26	95
26	108
26	130
26	157
26	189
26	225
26	263
26	306
26	404
26	540
26	672
26	803
26	913
26	1009
26	1085
26	1157
26	1243
26	1278
26	1278
26	1278
26	1278
26	1278
26	1278
26	1278
26	1278
26	1278
26	1278
26	1278
26	1278
26	1278
26	1269
26	1131
26	1010
26	882
26	722
26	526
26	347
26	263
26	232
26	204
26	177
26	151
26	125
26	100
27	79
27	70
27	70
27	70
27	70
27	70
27	70
27	70
27	70
27	70
27	70
27	70
27	70
27	77
27	99
27	134
27	184
27	247
27	397
27	679
27	988
27	1264
27	1278
27	1278
27	1278
27	1278
27	1278
27	1278
27	1278
27	1278
27	1278
27	1278
27	1278
27	1278
27	1278
27	1278
27	1278
27	1278
27	1278
27	1278
27	1278
27	1278
27	1278
27	1033
27	710
27	429
27	271
27	200
27	134
27	89
28	70
28	70
28	70
28	70
28	70
28	70
28	70
28	70
28	70
28	71
28	77
28	83
28	91
28	99
28	103
28	106
28	102
28	90
28	80
28	78
28	74
28	74
28	83
28	90
28	98
28	113
28	135
28	167
28	205
28	242
28	291
28	370
28	492
28	667
28	848
28	1044
28	1213
28	1278
28	1278
28	1278
28	1278
28	1278
28	1278
28	1278
28	1278
28	1278
28	1278
28	1278
28	1278
28	1278
28	1278
28	1278
28	1278
28	1278
28	1278
28	1278
28	1204
28	1008
28	739
28	476
28	314
28	257
28	215
28	171
28	121
28	74
29	70
29	70
29	70
29	70
29	70
29	70
29	70
29	70
29	70
29	70
29	70
29	70
29	70
29	70
29	70
29	70
29	70
29	70
29	70
29	78
29	108
29	148
29	190
29	230
29	293
29	512
29	803
29	1041
29	1220
29	1278
29	1278
29	1278
29	1278
29	1278
29	1278
29	1278
29	1278
29	1278
29	1278
29	1278
29	1278
29	1278
29	1278
29	1278
29	1278
29	1278
29	1278
29	1278
29	1278
29	1278
29	1278
29	1226
29	1064
29	793
29	529
29	345
29	243
29	177
29	127
29	93
30	70
30	70
30	70
30	70
30	70
30	70
30	70
30	70
30	70
30	70
30	70
30	70
30	70
30	70
30	70
30	70
30	70
30	70
30	70
30	70
30	70
30	70
30	70
30	70
30	70
30	70
30	70
30	70
30	70
30	70
30	70
30	70
30	70
30	70
30	70
30	70
30	70
30	70
30	70
30	70
30	70
30	70
30	70
30	70
30	70
30	70
30	70
30	70
30	70
30	70
30	70
30	70
30	70
30	70
30	70
30	70
30	70
30	70
30	70
30	70
30	70
30	70
30	70
30	70
30	70
30	70
30	70
30	70
30	70
30	70
30	72
30	85
30	104
30	126
30	150
30	175
30	200
30	225
30	250
30	275
30	308
30	356
30	431
30	511
30	582
30	636
30	672
30	713
30	759
30	804
30	858
30	897
30	923
30	969
30	997
30	1023
30	1059
30	1056
30	1028
30	997
30	966
30	950
30	999
30	1043
30	1007
30	974
30	1046
30	1149
30	1027
30	813
30	648
30	500
30	367
30	248
30	190
30	152
30	119
30	96
31	83
31	70
31	70
31	70
31	70
31	70
31	70
31	70
31	70
31	70
31	79
31	106
31	135
31	165
31	197
31	224
31	248
31	273
31	304
31	349
31	433
31	521
31	591
31	667
31	733
31	791
31	837
31	872
31	885
31	872
31	875
31	925
31	967
31	983
31	1042
31	1076
31	1065
31	1083
31	1120
31	1099
31	1011
31	959
31	945
31	950
31	905
31	732
31	478
31	292
31	222
31	184
31	156
31	136
31	121
31	108
31	96
32	83
32	73
32	70
32	70
32	70
32	70
32	71
32	88
32	114
32	145
32	172
32	198
32	221
32	240
32	257
32	274
32	297
32	321
32	353
32	389
32	433
32	533
32	609
32	665
32	739
32	798
32	855
32	898
32	1004
32	1061
32	1055
32	1117
32	1191
32	1192
32	1105
32	1053
32	974
32	714
32	420
32	265
32	210
32	173
32	139
32	112
32	90
33	72
33	70
33	70
33	70
33	70
33	70
33	70
33	70
33	70
33	70
33	74
33	104
33	145
33	188
33	227
33	262
33	310
33	383
33	465
33	536
33	592
33	662
33	729
33	799
33	836
33	850
33	885
33	920
33	930
33	945
33	999
33	1047
33	1008
33	969
33	1003
33	999
33	953
33	1001
33	1050
33	965
33	920
33	976
33	912
33	759
33	688
33	621
33	639
33	627
33	520
33	408
33	295
33	226
33	186
33	158
33	134
33	113
33	96
34	82
34	70
34	70
34	70
34	70
34	70
34	70
34	70
34	70
34	85
34	118
34	161
34	199
34	233
34	267
34	319
34	394
34	476
34	588
34	702
34	777
34	833
34	875
34	917
34	943
34	938
34	958
34	1012
34	1047
34	1041
34	1065
34	1158
34	1207
34	1142
34	1081
34	1096
34	1077
34	873
34	550
34	321
34	228
34	185
34	153
34	122
34	97
35	80
35	70
35	70
35	70
35	70
35	70
35	70
35	70
35	70
35	70
35	70
35	77
35	100
35	136
35	176
35	218
35	259
35	304
35	403
35	494
35	584
35	689
35	755
35	820
35	866
35	879
35	877
35	879
35	905
35	922
35	910
35	912
35	925
35	939
35	963
35	988
35	985
35	997
35	1024
35	1114
35	1208
35	1173
35	1102
35	1234
35	1221
35	1030
35	837
35	530
35	327
35	231
35	183
35	141
35	107
35	78
36	70
36	70
36	70
36	70
36	70
36	70
36	70
36	70
36	70
36	70
36	70
36	70
36	77
36	105
36	138
36	173
36	210
36	245
36	279
36	348
36	451
36	566
36	686
36	803
36	932
36	1039
36	1114
36	1197
36	1264
36	1278
36	1278
36	1278
36	1278
36	1278
36	1278
36	1278
36	1278
36	1278
36	1278
36	1278
36	1278
36	1278
36	1278
36	1278
36	1278
36	1278
36	1278
36	1278
36	1278
36	1278
36	1278
36	1190
36	1061
36	899
36	688
36	526
36	398
36	288
36	239
36	203
36	159
36	124
36	97
37	70
37	70
37	70
37	70
37	70
37	70
37	70
37	70
37	70
37	70
37	70
37	70
37	70
37	70
37	70
37	70
37	77
37	103
37	135
37	170
37	202
37	238
37	279
37	360
37	479
37	598
37	713
37	848
37	984
37	1083
37	1122
37	1098
37	1101
37	1146
37	1201
37	1243
37	1274
37	1278
37	1262
37	1266
37	1258
37	1238
37	1202
37	1144
37	1122
37	1165
37	1223
37	1223
37	1205
37	1193
37	1121
37	942
37	697
37	451
37	292
37	234
37	202
37	174
37	142
37	106
37	74
38	70
38	70
38	70
38	70
38	70
38	70
38	70
38	70
38	70
38	70
38	70
38	70
38	70
38	70
38	70
38	70
38	70
38	70
38	70
38	70
38	70
38	70
38	70
38	70
38	70
38	70
38	70
38	70
38	81
38	108
38	142
38	185
38	231
38	313
38	484
38	711
38	920
38	1087
38	1181
38	1227
38	1278
38	1278
38	1278
38	1278
38	1278
38	1278
38	1278
38	1278
38	1278
38	1278
38	1278
38	1278
38	1278
38	1278
38	1278
38	1278
38	1278
38	1278
38	1143
38	770
38	451
38	273
38	208
38	167
38	119
38	78
39	70
39	70
39	70
39	70
39	70
39	70
39	70
39	70
39	70
39	70
39	70
39	70
39	70
39	70
39	70
39	70
39	70
39	70
39	70
39	91
39	118
39	151
39	187
39	221
39	266
39	397
39	633
39	833
39	967
39	1111
39	1242
39	1278
39	1278
39	1278
39	1278
39	1278
39	1278
39	1278
39	1278
39	1278
39	1278
39	1278
39	1207
39	1267
39	1263
39	1177
39	1143
39	1080
39	1032
39	961
39	793
39	605
39	473
39	361
39	280
39	233
39	178
39	111
39	70
40	70
40	70
40	70
40	70
40	70
40	70
40	70
40	70
40	70
40	70
40	70
40	70
40	70
40	70
40	70
40	70
40	70
40	70
40	70
40	70
40	70
40	70
40	70
40	70
40	70
40	70
40	70
40	70
40	70
40	70
40	70
40	70
40	70
40	70
40	70
40	70
40	70
40	70
40	70
40	70
40	70
40	70
40	70
40	70
40	70
40	70
40	70
40	70
40	70
40	70
40	70
40	70
40	70
40	70
40	70
40	70
40	70
40	70
40	70
40	70
40	70
40	70
40	70
40	70
40	70
40	70
40	70
40	70
40	70
40	70
40	70
40	70
40	70
40	70
40	70
40	70
40	70
40	70
40	70
40	70
40	70
40	70
40	70
40	70
40	70
40	70
40	70
40	70
40	70
40	70
40	70
40	70
40	70
40	70
40	70
40	70
40	70
40	70
40	70
40	70
40	70
40	70
40	70
40	70
40	70
40	70
40	70
40	70
40	70
40	70
40	70
40	70
40	70
40	70
40	70
40	70
40	70
40	70
40	70
40	70
40	70
40	70
40	70
40	70
40	70
40	70
40	70
40	70
40	70
40	70
40	70
40	70
40	70
40	70
40	70
40	70
40	70
40	70
40	70
40	70
40	70
40	70
40	95
40	127
40	156
40	188
40	215
40	233
40	246
40	257
40	268
40	280
40	296
40	314
40	351
40	401
40	463
40	536
40	587
40	632
40	678
40	697
40	700
40	727
40	767
40	798
40	813
40	823
40	865
40	908
40	916
40	917
40	978
40	1013
40	1005
40	1029
40	1034
40	1028
40	1001
40	962
40	995
40	1035
40	1031
40	1045
40	1098
40	1145
40	1084
40	1003
40	1003
40	968
40	812
40	565
40	368
40	284
40	241
40	199
40	162
40	132
40	109
40	89
41	70
41	70
41	70
41	70
41	70
41	70
41	70
41	70
41	70
41	77
41	97
41	121
41	153
41	184
41	210
41	234
41	251
41	263
41	276
41	287
41	301
41	337
41	408
41	487
41	548
41	590
41	658
41	704
41	685
41	664
41	673
41	725
41	781
41	762
41	751
41	827
41	866
41	885
41	910
41	929
41	951
41	981
41	988
41	950
41	933
41	920
41	898
41	892
41	924
41	969
41	984
41	1005
41	1131
41	1165
41	1048
41	1015
41	1060
41	1063
41	917
41	619
41	360
41	254
41	205
41	165
41	130
41	103
42	86
42	70
42	70
42	70
42	70
42	70
42	70
42	70
42	70
42	70
42	107
42	147
42	187
42	228
42	260
42	292
42	332
42	401
42	492
42	565
42	623
42	677
42	733
42	781
42	849
42	908
42	908
42	901
42	960
42	977
42	906
42	892
42	926
42	961
42	968
42	950
42	979
42	970
42	945
42	971
42	1005
42	1032
42	1021
42	1017
42	1050
42	1077
42	1086
42	1084
42	1091
42	1105
42	973
42	678
42	412
42	285
42	243
42	211
42	183
42	152
42	120
42	93
43	73
43	70
43	70
43	70
43	70
43	70
43	70
43	70
43	70
43	70
43	70
43	70
43	70
43	85
43	113
43	152
43	192
43	226
43	255
43	285
43	339
43	455
43	573
43	660
43	755
43	852
43	955
43	1004
43	995
43	1026
43	1082
43	1121
43	1147
43	1185
43	1227
43	1256
43	1190
43	1023
43	783
43	499
43	318
43	247
43	203
43	161
43	119
43	82
44	70
44	70
44	70
44	70
44	70
44	70
44	70
44	70
44	87
44	128
44	173
44	215
44	250
44	284
44	363
44	491
44	593
44	655
44	718
44	769
44	834
44	871
44	876
44	924
44	972
44	1025
44	1086
44	1107
44	1093
44	1085
44	1070
44	846
44	462
44	244
44	182
44	142
44	113
44	92
45	74
45	70
45	70
45	70
45	70
45	70
45	70
45	70
45	70
45	70
45	91
45	128
45	178
45	236
45	315
45	454
45	631
45	785
45	888
45	1026
45	1153
45	1172
45	1207
45	1278
45	1278
45	1278
45	1278
45	1278
45	1278
45	1278
45	1278
45	1278
45	1278
45	1179
45	844
45	510
45	299
45	215
45	165
45	113
45	70
46	70
46	70
46	70
46	70
46	70
46	70
46	70
46	70
46	70
46	70
46	70
46	85
46	121
46	164
46	219
46	280
46	413
46	587
46	768
46	964
46	1142
46	1265
46	1278
46	1278
46	1278
46	1278
46	1278
46	1278
46	1278
46	1278
46	1278
46	1278
46	1278
46	1278
46	1278
46	1278
46	1278
46	1102
46	772
46	460
46	275
46	202
46	135
46	87
47	70
47	70
47	70
47	70
47	70
47	70
47	70
47	70
47	70
47	70
47	70
47	70
47	70
47	70
47	81
47	116
47	156
47	193
47	229
47	298
47	417
47	552
47	677
47	828
47	923
47	989
47	1150
47	1278
47	1278
47	1278
47	1278
47	1278
47	1278
47	1278
47	1278
47	1278
47	1278
47	1278
47	1278
47	1278
47	1278
47	1133
47	811
47	448
47	258
47	191
47	142
47	107
47	86
48	70
48	70
48	70
48	70
48	70
48	70
48	70
48	70
48	70
48	70
48	70
48	70
48	70
48	70
48	70
48	77
48	99
48	128
48	164
48	197
48	234
48	262
48	278
48	302
48	364
48	474
48	621
48	794
48	913
48	1019
48	1142
48	1237
48	1238
48	1216
48	1278
48	1278
48	1278
48	1278
48	1278
48	1278
48	1278
48	1278
48	1278
48	1278
48	1278
48	1145
48	920
48	616
48	351
48	236
48	194
48	150
48	105
49	75
49	70
49	70
49	70
49	70
49	70
49	70
49	70
49	70
49	70
49	70
49	70
49	70
49	74
49	93
49	110
49	125
49	150
49	185
49	216
49	243
49	275
49	379
49	589
49	836
49	1037
49	1180
49	1278
49	1278
49	1278
49	1278
49	1278
49	1278
49	1278
49	1278
49	1278
49	1278
49	1278
49	1278
49	1278
49	1278
49	1278
49	1278
49	1247
49	891
49	540
49	294
49	203
49	155
49	110
49	72
50	70
50	70
50	70
50	70
50	70
50	70
50	70
50	70
50	70
50	70
50	70
50	70
50	70
50	70
50	70
50	70
50	70
50	70
50	70
50	70
50	70
50	70
50	70
50	70
50	70
50	70
50	70
50	70
50	70
50	70
50	70
50	70
50	70
50	70
50	70
50	70
50	70
50	70
50	70
50	70
50	70
50	70
50	70
50	70
50	70
50	70
50	70
50	70
50	70
50	70
50	70
50	70
50	70
50	70
50	70
50	70
50	70
50	70
50	70
50	70
50	70
50	70
50	70
50	70
50	70
50	70
50	70
50	70
50	70
50	84
50	109
50	137
50	163
50	186
50	211
50	229
50	244
50	260
50	277
50	289
50	302
50	331
50	364
50	399
50	437
50	476
50	516
50	559
50	601
50	634
50	671
50	704
50	719
50	736
50	749
50	775
50	820
50	847
50	859
50	882
50	910
50	925
50	940
50	960
50	973
50	987
50	1003
50	1018
50	1067
50	1117
50	1125
50	1139
50	1175
50	1120
50	1007
50	958
50	908
50	794
50	585
50	364
50	245
50	193
50	151
50	118
50	96
51	81
51	70
51	70
51	70
51	70
51	70
51	70
51	90
51	119
51	160
51	207
51	251
51	310
51	414
51	558
51	709
51	838
51	937
51	1012
51	1064
51	1098
51	1123
51	1118
51	1068
51	1031
51	944
51	757
51	566
51	380
51	253
51	197
51	149
51	110
51	84
52	70
52	70
52	70
52	70
52	70
52	70
52	70
52	84
52	103
52	127
52	155
52	184
52	209
52	231
52	251
52	269
52	288
52	316
52	361
52	402
52	447
52	517
52	586
52	661
52	727
52	748
52	759
52	766
52	772
52	758
52	752
52	836
52	929
52	948
52	981
52	1076
52	1148
52	1126
52	1073
52	1092
52	1142
52	1144
52	1065
52	843
52	515
52	293
52	215
52	168
52	135
52	111
52	94
53	79
53	70
53	70
53	70
53	70
53	70
53	87
53	137
53	194
53	251
53	334
53	502
53	687
53	797
53	848
53	866
53	886
53	914
53	943
53	956
53	962
53	984
53	1037
53	1088
53	1123
53	1225
53	1278
53	1194
53	1055
53	817
53	487
53	273
53	202
53	158
53	126
53	104
54	84
54	70
54	70
54	70
54	70
54	70
54	70
54	70
54	70
54	70
54	82
54	105
54	133
54	166
54	198
54	230
54	258
54	277
54	296
54	324
54	370
54	447
54	565
54	688
54	804
54	904
54	992
54	1065
54	1080
54	1097
54	1103
54	1076
54	1069
54	1069
54	1089
54	1063
54	911
54	650
54	382
54	239
54	182
54	137
54	104
55	82
55	70
55	70
55	70
55	70
55	70
55	70
55	70
55	70
55	77
55	102
55	139
55	182
55	226
55	271
55	344
55	462
55	594
55	709
55	793
55	857
55	943
55	1014
55	1051
55	1097
55	1166
55	1214
55	1231
55	1246
55	1257
55	1278
55	1278
55	1278
55	1244
55	1131
55	1069
55	888
55	606
55	392
55	256
55	191
55	147
55	108
55	78
56	70
56	70
56	70
56	70
56	70
56	70
56	70
56	70
56	70
56	70
56	70
56	77
56	97
56	129
56	176
56	221
56	265
56	316
56	431
56	591
56	725
56	857
56	985
56	1131
56	1264
56	1278
56	1278
56	1278
56	1278
56	1278
56	1278
56	1278
56	1278
56	1278
56	1121
56	880
56	542
56	313
56	229
56	190
56	160
56	127
56	91
57	70
57	70
57	70
57	70
57	70
57	70
57	70
57	70
57	70
57	70
57	70
57	89
57	126
57	168
57	213
57	256
57	361
57	568
57	800
57	991
57	1153
57	1278
57	1278
57	1278
57	1278
57	1278
57	1278
57	1278
57	1278
57	1278
57	1278
57	1278
57	1278
57	1278
57	1278
57	1259
57	1099
57	888
57	642
57	415
57	274
57	216
57	173
57	137
57	109
57	91
58	79
58	74
58	70
58	70
58	70
58	70
58	70
58	70
58	70
58	70
58	71
58	79
58	88
58	102
58	129
58	169
58	215
58	265
58	336
58	454
58	579
58	670
58	806
58	944
58	1076
58	1152
58	1147
58	1186
58	1231
58	1275
58	1278
58	1237
58	1176
58	1092
58	1069
58	1038
58	965
58	900
58	814
58	705
58	535
58	356
58	264
58	223
58	189
58	158
58	126
58	98
59	73
59	70
59	70
59	70
59	70
59	70
59	70
59	70
59	70
59	70
59	70
59	70
59	70
59	70
59	70
59	74
59	93
59	119
59	155
59	196
59	231
59	265
59	328
59	459
59	626
59	772
59	889
59	964
59	1016
59	1085
59	1141
59	1137
59	1103
59	1116
59	1163
59	1206
59	1232
59	1233
59	1178
59	1112
59	1069
59	1040
59	998
59	917
59	824
59	614
59	359
59	228
59	161
59	108
59	74
60	70
60	70
60	70
60	70
60	70
60	70
60	70
60	70
60	70
60	70
60	70
60	70
60	70
60	70
60	70
60	70
60	70
60	70
60	70
60	70
60	70
60	70
60	70
60	70
60	70
60	70
60	70
60	70
60	70
60	70
60	70
60	70
60	70
60	70
60	70
60	70
60	70
60	70
60	70
60	70
60	70
60	70
60	70
60	70
60	70
60	70
60	70
60	70
60	70
60	70
60	70
60	70
60	88
60	125
60	162
60	193
60	215
60	234
60	249
60	259
60	271
60	285
60	303
60	335
60	381
60	448
60	534
60	611
60	678
60	758
60	833
60	898
60	958
60	995
60	1016
60	1048
60	1088
60	1083
60	1068
60	1056
60	1052
60	1020
60	907
60	736
60	479
60	279
60	204
60	154
60	115
60	87
61	70
61	70
61	70
61	70
61	70
61	70
61	70
61	73
61	76
61	73
61	70
61	70
61	70
61	70
61	80
61	99
61	129
61	173
61	219
61	261
61	328
61	474
61	664
61	840
61	965
61	1078
61	1196
61	1243
61	1208
61	1132
61	995
61	821
61	643
61	422
61	270
61	215
61	166
61	120
61	81
62	70
62	70
62	70
62	70
62	70
62	70
62	70
62	70
62	70
62	78
62	121
62	172
62	216
62	260
62	314
62	414
62	533
62	630
62	725
62	807
62	862
62	912
62	942
62	923
62	885
62	875
62	899
62	930
62	968
62	1017
62	875
62	561
62	399
62	332
62	254
62	206
62	164
62	130
62	105
63	86
63	70
63	70
63	70
63	70
63	70
63	70
63	70
63	70
63	90
63	150
63	214
63	267
63	348
63	506
63	694
63	841
63	934
63	994
63	1023
63	1072
63	1123
63	1104
63	1057
63	1028
63	1022
63	934
63	706
63	437
63	272
63	206
63	160
63	123
63	94
64	76
64	70
64	70
64	70
64	70
64	70
64	70
64	70
64	74
64	92
64	113
64	146
64	190
64	235
64	279
64	371
64	574
64	806
64	894
64	903
64	972
64	1047
64	1057
64	1024
64	1057
64	1083
64	1023
64	999
64	1025
64	982
64	858
64	693
64	516
64	356
64	243
64	191
64	149
64	117
64	95
65	81
65	70
65	70
65	70
65	70
65	70
65	70
65	70
65	70
65	89
65	132
65	182
65	226
65	273
65	375
65	534
65	698
65	827
65	971
65	1143
65	1173
65	1072
65	1042
65	1078
65	1162
65	1236
65	1256
65	1278
65	1278
65	1278
65	1278
65	1278
65	1278
65	1278
65	1132
65	850
65	538
65	297
65	192
65	133
65	93
66	70
66	70
66	70
66	70
66	70
66	70
66	70
66	70
66	70
66	78
66	137
66	193
66	244
66	373
66	628
66	888
66	1080
66	1278
66	1278
66	1278
66	1278
66	1278
66	1278
66	1278
66	1278
66	1278
66	1278
66	1278
66	1278
66	1278
66	1278
66	1119
66	691
66	352
66	203
66	138
66	94
67	70
67	70
67	70
67	70
67	70
67	70
67	70
67	70
67	93
67	147
67	203
67	263
67	387
67	633
67	872
67	1063
67	1278
67	1278
67	1278
67	1278
67	1278
67	1278
67	1278
67	1278
67	1278
67	1278
67	1278
67	1278
67	1194
67	826
67	516
67	320
67	223
67	168
67	114
67	74
68	70
68	70
68	70
68	70
68	70
68	70
68	70
68	70
68	70
68	70
68	109
68	157
68	199
68	241
68	315
68	526
68	844
68	1122
68	1278
68	1278
68	1278
68	1278
68	1278
68	1278
68	1278
68	1278
68	1278
68	1278
68	1278
68	1278
68	1278
68	1278
68	1278
68	920
68	495
68	269
68	171
68	113
68	72
69	70
69	70
69	70
69	70
69	70
69	70
69	70
69	70
69	70
69	70
69	70
69	88
69	130
69	170
69	208
69	250
69	303
69	407
69	562
69	741
69	896
69	1049
69	1213
69	1278
69	1278
69	1278
69	1278
69	1278
69	1278
69	1278
69	1278
69	1278
69	1278
69	1278
69	1202
69	790
69	429
69	268
69	206
69	162
69	116
69	83