
1	-0.026734
1	0.029167
1	0.090457
1	0.012863
1	0.010760
1	0.047884
1	-0.044755
1	0.107205
1	0.141041
1	-0.123178
1	-0.018932
1	0.543660
1	0.227118
1	-0.244315
1	0.264118
1	0.135305
1	0.260934
1	0.167251
1	0.273404
1	0.163325
1	0.128010
1	0.061581
1	-0.023417
1	0.028041
1	-0.008461
1	0.063344
1	0.076700
1	-0.005084
1	-0.172652
1	0.005592