
0	70
0	70
0	82
0	82
0	81
0	79
0	81
0	83
0	82
0	82
0	80
0	80
0	82
0	84
0	87
0	88
0	92
0	99
0	102
0	106
0	112
0	119
0	123
0	128
0	137
0	145
0	152
0	164
0	183
0	215
0	271
0	365
0	479
0	599
0	691
0	742
0	777
0	783
0	788
0	835
0	887
0	950
0	1039
0	1120
0	1153
0	1149
0	1185
0	1178
0	1070
0	839
0	470
0	207
0	137
0	118
0	110
0	105
1	100
1	96
1	96
1	96
1	95
1	93
1	92
1	92
1	91
1	88
1	87
1	89
1	89
1	90
1	91
1	89
1	91
1	90
1	89
1	90
1	93
1	97
1	103
1	111
1	117
1	122
1	124
1	130
1	137
1	145
1	151
1	159
1	166
1	181
1	203
1	249
1	332
1	418
1	493
1	545
1	605
1	661
1	659
1	640
1	648
1	686
1	743
1	823
1	915
1	967
1	982
1	971
1	964
1	966
1	978
1	1034
1	1103
1	1140
1	1143
1	1133
1	1107
1	1010
1	752
1	396
1	185
1	136
1	119
1	109
1	103
2	100
2	98
2	98
2	95
2	94
2	94
2	93
2	95
2	94
2	93
2	92
2	91
2	91
2	93
2	94
2	93
2	93
2	96
2	99
2	99
2	99
2	103
2	106
2	109
2	114
2	119
2	123
2	130
2	138
2	144
2	149
2	152
2	157
2	168
2	181
2	205
2	249
2	300
2	348
2	414
2	464
2	465
2	473
2	506
2	544
2	579
2	606
2	628
2	669
2	715
2	756
2	799
2	834
2	861
2	896
2	915
2	917
2	924
2	925
2	932
2	958
2	975
2	959
2	955
2	956
2	951
2	990
2	1050
2	1086
2	1109
2	1104
2	1075
2	1051
2	1005
2	959
2	986
2	1004
2	878
2	576
2	275
2	153
2	127
2	115
2	107
2	104
3	103
3	98
3	94
3	94
3	93
3	93
3	94
3	94
3	92
3	93
3	92
3	91
3	91
3	91
3	91
3	90
3	91
3	92
3	90
3	89
3	88
3	89
3	90
3	89
3	86
3	85
3	87
3	87
3	85
3	90
3	93
3	87
3	85
3	86
3	87
3	89
3	88
3	88
3	88
3	91
3	97
3	104
3	113
3	120
3	127
3	134
3	142
3	151
3	160
3	175
3	198
3	266
3	386
3	523
3	660
3	756
3	805
3	846
3	853
3	823
3	851
3	946
3	1028
3	1107
3	1185
3	1221
3	1211
3	1169
3	1051
3	730
3	346
3	168
3	133
3	118
3	107
3	102
4	100
4	100
4	96
4	92
4	94
4	95
4	95
4	94
4	94
4	95
4	96
4	92
4	90
4	91
4	93
4	95
4	97
4	97
4	100
4	107
4	116
4	124
4	130
4	139
4	151
4	159
4	163
4	170
4	186
4	202
4	213
4	236
4	278
4	339
4	384
4	438
4	519
4	569
4	585
4	580
4	572
4	579
4	605
4	644
4	709
4	785
4	818
4	811
4	783
4	736
4	717
4	776
4	879
4	921
4	904
4	892
4	872
4	865
4	865
4	871
4	882
4	864
4	848
4	867
4	880
4	891
4	936
4	1000
4	1037
4	1050
4	1075
4	1099
4	1083
4	1045
4	1061
4	1088
4	1048
4	1038
4	1109
4	1113
4	1022
4	977
4	1001
4	968
4	783
4	465
4	226
4	156
4	134
4	120
4	114
4	109
4	105
5	99
5	90
5	84
5	84
5	85
5	87
5	89
5	84
5	81
5	81
5	81
5	86
5	86
5	83
5	81
5	82
5	85
5	84
5	83
5	86
5	85
5	83
5	83
5	84
5	84
5	83
5	83
5	84
5	83
5	84
5	87
5	87
5	86
5	84
5	83
5	86
5	88
5	89
5	90
5	91
5	93
5	95
5	99
5	104
5	107
5	110
5	116
5	121
5	123
5	127
5	133
5	136
5	142
5	150
5	154
5	157
5	161
5	169
5	180
5	208
5	245
5	272
5	320
5	381
5	424
5	483
5	543
5	608
5	672
5	713
5	743
5	758
5	767
5	803
5	852
5	898
5	962
5	997
5	1007
5	1019
5	1028
5	1021
5	1003
5	1029
5	1068
5	1097
5	1163
5	1226
5	1239
5	1168
5	969
5	608
5	280
5	164
5	138
5	123
5	113
5	105
6	101
6	99
6	96
6	95
6	95
6	95
6	94
6	94
6	94
6	95
6	96
6	94
6	92
6	94
6	94
6	94
6	97
6	99
6	100
6	100
6	105
6	112
6	117
6	125
6	135
6	147
6	156
6	168
6	191
6	235
6	315
6	402
6	470
6	540
6	592
6	593
6	560
6	537
6	568
6	656
6	750
6	808
6	862
6	911
6	930
6	942
6	958
6	985
6	1017
6	1025
6	1024
6	1053
6	1079
6	1109
6	1112
6	1083
6	1083
6	1082
6	1036
6	914
6	702
6	444
6	252
6	171
6	145
6	129
6	119
6	114
6	110
6	107
6	105
7	100
7	98
7	97
7	96
7	96
7	98
7	97
7	95
7	93
7	92
7	94
7	95
7	98
7	103
7	108
7	116
7	121
7	126
7	132
7	136
7	141
7	148
7	156
7	165
7	173
7	197
7	257
7	339
7	439
7	546
7	624
7	676
7	711
7	733
7	764
7	825
7	884
7	943
7	994
7	1033
7	1085
7	1129
7	1129
7	1093
7	1035
7	1021
7	1031
7	965
7	780
7	460
7	214
7	148
7	130
7	120
7	115
7	108
7	103
8	99
8	97
8	96
8	96
8	97
8	97
8	95
8	95
8	95
8	92
8	92
8	94
8	96
8	96
8	95
8	98
8	104
8	107
8	109
8	114
8	120
8	129
8	139
8	148
8	156
8	161
8	168
8	178
8	197
8	255
8	373
8	501
8	606
8	676
8	768
8	872
8	915
8	923
8	920
8	928
8	950
8	1008
8	1065
8	1127
8	1199
8	1229
8	1262
8	1245
8	1095
8	802
8	427
8	198
8	146
8	131
8	118
8	108
8	106
8	105
9	101
9	99
9	99
9	101
9	101
9	99
9	97
9	94
9	94
9	94
9	94
9	96
9	97
9	96
9	97
9	100
9	105
9	113
9	124
9	135
9	144
9	153
9	167
9	181
9	194
9	220
9	267
9	322
9	369
9	392
9	413
9	459
9	531
9	589
9	630
9	679
9	728
9	754
9	763
9	783
9	817
9	851
9	861
9	854
9	866
9	900
9	939
9	966
9	997
9	1025
9	1038
9	1077
9	1079
9	1033
9	1053
9	1102
9	1100
9	1133
9	1190
9	1178
9	1065
9	909
9	655
9	330
9	172
9	143
9	129
9	120
9	110
9	107
9	104
10	98
10	90
10	87
10	86
10	87
10	87
10	86
10	86
10	85
10	87
10	89
10	90
10	89
10	88
10	88
10	90
10	90
10	90
10	90
10	89
10	90
10	92
10	92
10	96
10	98
10	97
10	100
10	101
10	103
10	107
10	111
10	114
10	115
10	119
10	123
10	127
10	131
10	137
10	142
10	144
10	145
10	150
10	158
10	164
10	172
10	192
10	237
10	309
10	392
10	474
10	547
10	605
10	674
10	686
10	694
10	702
10	705
10	705
10	708
10	718
10	735
10	756
10	786
10	834
10	885
10	939
10	983
10	1024
10	1063
10	1087
10	1107
10	1119
10	1060
10	1021
10	964
10	808
10	695
10	469
10	244
10	168
10	146
10	134
10	126
10	122
10	120
10	115
10	110
10	108
10	105
11	102
11	101
11	101
11	98
11	97
11	98
11	96
11	96
11	98
11	101
11	101
11	102
11	108
11	114
11	119
11	125
11	134
11	145
11	155
11	161
11	169
11	176
11	188
11	220
11	307
11	425
11	544
11	645
11	683
11	696
11	696
11	689
11	690
11	709
11	754
11	871
11	948
11	961
11	1068
11	1225
11	1278
11	1278
11	1278
11	1278
11	1129
11	802
11	671
11	343
11	190
11	155
11	137
11	124
11	113
11	108
11	107
11	106
11	107
11	106
11	102
12	101
12	101
12	101
12	102
12	102
12	103
12	103
12	107
12	113
12	119
12	126
12	132
12	143
12	154
12	165
12	185
12	237
12	338
12	439
12	524
12	586
12	623
12	670
12	683
12	690
12	693
12	704
12	726
12	752
12	785
12	860
12	921
12	922
12	932
12	934
12	951
12	967
12	1025
12	1118
12	1237
12	1278
12	1278
12	1196
12	977
12	768
12	653
12	363
12	210
12	166
12	146
12	132
12	122
12	115
12	111
12	108
12	106
12	106
12	105
13	105
13	105
13	104
13	102
13	106
13	110
13	111
13	116
13	125
13	134
13	145
13	159
13	179
13	222
13	307
13	419
13	529
13	627
13	679
13	690
13	702
13	714
13	728
13	742
13	759
13	794
13	824
13	838
13	840
13	839
13	850
13	873
13	909
13	948
13	990
13	1002
13	982
13	973
13	972
13	1000
13	1045
13	1158
13	1278
13	1274
13	1160
13	1040
13	875
13	724
13	549
13	282
13	181
13	156
13	140
13	129
13	120
13	113
13	110
13	108
13	104
14	101
14	103
14	109
14	109
14	105
14	103
14	106
14	109
14	117
14	126
14	133
14	148
14	166
14	182
14	199
14	242
14	318
14	400
14	485
14	543
14	576
14	627
14	672
14	680
14	690
14	700
14	712
14	721
14	723
14	726
14	736
14	755
14	772
14	794
14	824
14	845
14	880
14	907
14	912
14	938
14	954
14	989
14	1064
14	1099
14	1106
14	1092
14	1073
14	965
14	827
14	762
14	730
14	723
14	701
14	603
14	353
14	195
14	154
14	138
14	128
14	122
14	118
14	115
14	112
14	109
14	109
14	109
14	108
14	107
14	108
14	110
14	113
14	118
14	127
14	140
14	153
14	162
14	171
14	181
14	190
14	201
14	263
14	390
14	493
14	534
14	552
14	575
14	587
14	589
14	637
14	683
14	698
14	714
14	739
14	757
14	793
14	819
14	795
14	786
14	804
14	830
14	836
14	850
14	894
14	925
14	948
14	1026
14	1161
14	1231
14	1278
14	1278
14	1278
14	1154
14	828
14	679
14	368
14	204
14	163
14	143
14	129
14	121
14	116
14	112
14	109
14	105
15	100
15	93
15	91
15	91
15	89
15	88
15	88
15	89
15	87
15	88
15	91
15	92
15	89
15	88
15	89
15	89
15	90
15	92
15	92
15	91
15	90
15	88
15	88
15	90
15	92
15	93
15	91
15	92
15	92
15	91
15	90
15	95
15	99
15	98
15	101
15	104
15	106
15	110
15	114
15	119
15	121
15	120
15	126
15	129
15	129
15	132
15	135
15	140
15	142
15	142
15	144
15	148
15	152
15	156
15	160
15	165
15	175
15	187
15	204
15	228
15	261
15	292
15	319
15	347
15	383
15	430
15	461
15	485
15	513
15	536
15	553
15	573
15	600
15	627
15	649
15	661
15	674
15	678
15	680
15	684
15	691
15	699
15	706
15	715
15	725
15	733
15	744
15	757
15	774
15	801
15	831
15	871
15	921
15	943
15	951
15	943
15	918
15	889
15	879
15	924
15	984
15	1046
15	1208
15	1278
15	1206
15	1108
15	998
15	798
15	664
15	321
15	175
15	146
15	130
15	118
15	113
15	112
15	109
15	106
15	104
16	102
16	101
16	101
16	100
16	100
16	99
16	98
16	98
16	100
16	97
16	95
16	96
16	95
16	97
16	103
16	108
16	114
16	122
16	130
16	141
16	152
16	163
16	176
16	199
16	267
16	378
16	521
16	678
16	739
16	831
16	841
16	816
16	799
16	787
16	795
16	874
16	1075
16	1278
16	1278
16	1278
16	1278
16	1165
16	966
16	764
16	667
16	376
16	209
16	164
16	147
16	135
16	127
16	119
16	111
16	108
16	108
16	108
16	109
16	106
16	102
17	103
17	105
17	105
17	106
17	108
17	111
17	118
17	128
17	137
17	146
17	155
17	162
17	171
17	189
17	220
17	286
17	410
17	547
17	627
17	641
17	638
17	636
17	635
17	634
17	652
17	682
17	694
17	700
17	704
17	701
17	700
17	710
17	733
17	768
17	807
17	849
17	889
17	913
17	907
17	926
17	993
17	997
17	994
17	1022
17	1005
17	1004
17	1070
17	1126
17	1039
17	1048
17	1122
17	953
17	748
17	564
17	260
17	164
17	140
17	126
17	121
17	115
17	108
17	106
17	107
17	107
17	106
17	106
17	104
18	104
18	104
18	107
18	109
18	108
18	108
18	109
18	114
18	120
18	123
18	130
18	139
18	147
18	159
18	176
18	205
18	276
18	392
18	540
18	671
18	685
18	698
18	713
18	730
18	750
18	766
18	802
18	883
18	940
18	959
18	1007
18	1041
18	1037
18	1011
18	1063
18	1124
18	1059
18	1105
18	1240
18	1241
18	889
18	668
18	299
18	163
18	138
18	125
18	115
18	111
18	109
18	106
18	105
19	105
19	105
19	104
19	102
19	102
19	101
19	99
19	99
19	99
19	99
19	100
19	100
19	98
19	96
19	97
19	99
19	101
19	103
19	106
19	112
19	120
19	129
19	139
19	153
19	167
19	180
19	198
19	246
19	326
19	414
19	509
19	613
19	685
19	706
19	709
19	708
19	713
19	733
19	763
19	811
19	889
19	991
19	1080
19	1163
19	1230
19	1165
19	1141
19	1045
19	770
19	544
19	232
19	149
19	129
19	118
19	113
19	107
19	102
20	97
20	90
20	88
20	89
20	88
20	83
20	82
20	88
20	87
20	86
20	87
20	89
20	91
20	92
20	93
20	91
20	87
20	85
20	87
20	90
20	92
20	90
20	89
20	90
20	90
20	90
20	91
20	87
20	85
20	87
20	88
20	88
20	88
20	89
20	90
20	88
20	87
20	89
20	89
20	92
20	91
20	88
20	88
20	87
20	88
20	89
20	86
20	85
20	85
20	87
20	87
20	86
20	85
20	86
20	89
20	90
20	88
20	87
20	90
20	93
20	91
20	90
20	91
20	91
20	90
20	90
20	88
20	88
20	88
20	89
20	94
20	96
20	96
20	99
20	102
20	104
20	107
20	110
20	114
20	120
20	125
20	132
20	138
20	142
20	149
20	156
20	164
20	174
20	194
20	249
20	340
20	438
20	531
20	581
20	596
20	627
20	681
20	760
20	850
20	951
20	1044
20	1094
20	1108
20	1108
20	1084
20	960
20	704
20	399
20	212
20	160
20	137
20	122
20	114
20	109
20	103
21	100
21	99
21	98
21	98
21	98
21	98
21	97
21	95
21	95
21	95
21	96
21	95
21	98
21	102
21	108
21	114
21	119
21	128
21	139
21	151
21	165
21	197
21	298
21	451
21	519
21	520
21	585
21	674
21	721
21	762
21	839
21	906
21	957
21	1035
21	1132
21	1231
21	1278
21	1278
21	1278
21	1194
21	920
21	510
21	231
21	162
21	146
21	135
21	125
21	118
21	113
21	110
21	108
21	106
21	101
22	100
22	100
22	99
22	98
22	98
22	98
22	101
22	106
22	110
22	112
22	117
22	125
22	134
22	144
22	153
22	164
22	178
22	201
22	278
22	432
22	590
22	717
22	811
22	860
22	875
22	878
22	919
22	990
22	1051
22	1093
22	1145
22	1186
22	1183
22	1142
22	977
22	614
22	284
22	166
22	144
22	132
22	123
22	116
22	112
22	110
22	107
22	103
23	100
23	98
23	98
23	94
23	94
23	98
23	95
23	93
23	96
23	99
23	98
23	96
23	97
23	96
23	99
23	102
23	104
23	109
23	113
23	118
23	123
23	128
23	138
23	146
23	157
23	177
23	208
23	286
23	417
23	537
23	630
23	727
23	813
23	866
23	902
23	946
23	989
23	1020
23	1050
23	1122
23	1195
23	1210
23	1237
23	1216
23	1029
23	659
23	306
23	166
23	139
23	123
23	113
23	107
23	103
24	103
24	101
24	98
24	99
24	99
24	94
24	97
24	100
24	99
24	97
24	96
24	96
24	95
24	96
24	99
24	104
24	108
24	113
24	120
24	126
24	132
24	142
24	155
24	165
24	177
24	195
24	233
24	300
24	398
24	521
24	630
24	695
24	709
24	702
24	707
24	721
24	763
24	825
24	892
24	980
24	1066
24	1122
24	1151
24	1153
24	1157
24	1088
24	861
24	507
24	237
24	157
24	137
24	125
24	117
24	109
24	105
25	101
25	93
25	91
25	92
25	91
25	92
25	93
25	91
25	90
25	89
25	89
25	89
25	88
25	88
25	90
25	90
25	90
25	92
25	94
25	92
25	90
25	90
25	92
25	91
25	91
25	92
25	92
25	92
25	92
25	91
25	92
25	93
25	95
25	97
25	103
25	108
25	110
25	112
25	115
25	119
25	124
25	130
25	135
25	140
25	145
25	153
25	159
25	162
25	169
25	176
25	184
25	212
25	279
25	357
25	448
25	548
25	591
25	615
25	664
25	708
25	770
25	839
25	878
25	903
25	924
25	946
25	949
25	935
25	955
25	988
25	980
25	995
25	1073
25	1098
25	1060
25	1004
25	964
25	886
25	673
25	388
25	202
25	153
25	133
25	119
25	113
25	108
25	106
25	106
25	106
25	104
26	100
26	99
26	100
26	99
26	98
26	101
26	101
26	99
26	99
26	100
26	104
26	107
26	111
26	119
26	124
26	131
26	142
26	152
26	159
26	170
26	187
26	228
26	317
26	430
26	534
26	615
26	694
26	772
26	832
26	881
26	946
26	1053
26	1141
26	1223
26	1247
26	1189
26	1099
26	976
26	735
26	381
26	183
26	145
26	129
26	119
26	115
26	109
26	104
27	102
27	102
27	102
27	99
27	101
27	103
27	100
27	100
27	100
27	101
27	102
27	103
27	101
27	97
27	98
27	100
27	100
27	101
27	105
27	111
27	115
27	121
27	129
27	138
27	148
27	158
27	170
27	186
27	216
27	273
27	343
27	415
27	514
27	616
27	711
27	810
27	879
27	937
27	999
27	1011
27	1016
27	1002
27	949
27	886
27	830
27	872
27	945
27	939
27	776
27	460
27	224
27	154
27	137
27	127
27	119
27	114
27	110
27	108
27	109
27	104
28	99
28	101
28	102
28	102
28	104
28	103
28	100
28	98
28	100
28	100
28	97
28	96
28	99
28	102
28	102
28	104
28	109
28	114
28	121
28	130
28	138
28	145
28	157
28	172
28	190
28	221
28	289
28	408
28	520
28	614
28	722
28	834
28	931
28	987
28	1051
28	1095
28	1086
28	1092
28	1037
28	919
28	745
28	467
28	245
28	161
28	132
28	117
28	111
28	106
28	104
29	104
29	103
29	101
29	100
29	99
29	97
29	96
29	96
29	95
29	94
29	95
29	97
29	98
29	99
29	100
29	101
29	105
29	113
29	124
29	134
29	148
29	167
29	199
29	292
29	444
29	602
29	761
29	940
29	1090
29	1180
29	1243
29	1227
29	1127
29	998
29	748
29	394
29	185
29	140
29	121
29	113
29	109
29	105